variable,Failure probability,Method,High Fidelity Runs
0,2.825085981185383e-05,ECL GP + MFIS,500
0,2.4991028471694978e-05,ECL GP + MFIS,500
0,0.00017911654550302177,ECL GP + MFIS,500
0,4.248478331661629e-05,ECL GP + MFIS,500
0,8.130959772590382e-05,ECL GP + MFIS,500
0,0.0001288706105590752,ECL GP + MFIS,500
0,8.350942326347489e-05,ECL GP + MFIS,500
0,2.819888132397962e-06,ECL GP + MFIS,500
0,5.250531893551461e-05,ECL GP + MFIS,500
0,7.985618351074295e-05,ECL GP + MFIS,500
0,2.8628027679128898e-05,ECL GP + MFIS,500
0,6.955760843536636e-05,ECL GP + MFIS,500
0,7.551108486771193e-05,ECL GP + MFIS,500
0,2.2300400235085796e-05,ECL GP + MFIS,500
0,0.0001216385998526429,ECL GP + MFIS,500
0,3.4880975524140354e-05,ECL GP + MFIS,500
0,2.7306722813211573e-06,ECL GP + MFIS,500
0,1.7046779029325368e-05,ECL GP + MFIS,500
0,2.002576532192618e-05,ECL GP + MFIS,500
0,9.601852664986978e-05,ECL GP + MFIS,500
0,8.799431837498521e-05,ECL GP + MFIS,500
0,0.00012628031395453,ECL GP + MFIS,500
0,9.537817911228763e-06,ECL GP + MFIS,500
0,0.00012119013303796972,ECL GP + MFIS,500
0,2.1323433510301833e-05,ECL GP + MFIS,500
0,5.300782852115651e-05,ECL GP + MFIS,500
0,1.081005025993292e-05,ECL GP + MFIS,500
0,4.8586672161066266e-05,ECL GP + MFIS,500
0,9.183245162035268e-06,ECL GP + MFIS,500
0,0.00017461827690738252,ECL GP + MFIS,500
0,5.793068354976766e-05,ECL GP + MFIS,500
0,0.00010264126789146042,ECL GP + MFIS,500
0,8.328814648646125e-05,ECL GP + MFIS,500
0,6.7541504551179e-05,ECL GP + MFIS,500
0,2.7002526289794876e-05,ECL GP + MFIS,500
0,9.482242426402587e-05,ECL GP + MFIS,500
0,4.0557725015758785e-05,ECL GP + MFIS,500
0,3.53892468364542e-05,ECL GP + MFIS,500
0,7.040869747143932e-05,ECL GP + MFIS,500
0,5.389984147843743e-05,ECL GP + MFIS,500
0,4.4823851457907044e-05,ECL GP + MFIS,500
0,7.732338552434077e-05,ECL GP + MFIS,500
0,7.15267086371221e-05,ECL GP + MFIS,500
0,0.00013602395116422993,ECL GP + MFIS,500
0,9.779510375365456e-05,ECL GP + MFIS,500
0,0.00011885732766335716,ECL GP + MFIS,500
0,1.6790762993319167e-05,ECL GP + MFIS,500
0,2.2945807120617863e-05,ECL GP + MFIS,500
0,9.02876601426223e-05,ECL GP + MFIS,500
0,0.00015973431539284305,ECL GP + MFIS,500
1,8.436944189873759e-06,ECL GP + MFIS,1000
1,7.046277268450739e-06,ECL GP + MFIS,1000
1,6.140479673368579e-05,ECL GP + MFIS,1000
1,2.7794523903120578e-05,ECL GP + MFIS,1000
1,4.177391107785069e-05,ECL GP + MFIS,1000
1,7.487637344094525e-05,ECL GP + MFIS,1000
1,1.3842061273099462e-05,ECL GP + MFIS,1000
1,8.40514260424289e-05,ECL GP + MFIS,1000
1,4.419532372402189e-05,ECL GP + MFIS,1000
1,2.1242119604002142e-05,ECL GP + MFIS,1000
1,9.596092843030743e-06,ECL GP + MFIS,1000
1,4.418580554442107e-05,ECL GP + MFIS,1000
1,4.318346071727902e-05,ECL GP + MFIS,1000
1,5.109676885913937e-05,ECL GP + MFIS,1000
1,8.368236432714621e-05,ECL GP + MFIS,1000
1,3.19059154073821e-05,ECL GP + MFIS,1000
1,1.1855736169328474e-05,ECL GP + MFIS,1000
1,2.6430537446922283e-05,ECL GP + MFIS,1000
1,6.42612121387286e-05,ECL GP + MFIS,1000
1,3.1968444155657514e-05,ECL GP + MFIS,1000
1,5.6679471756696876e-05,ECL GP + MFIS,1000
1,1.5118458482568046e-05,ECL GP + MFIS,1000
1,1.1751652380663112e-05,ECL GP + MFIS,1000
1,1.2490536502125478e-05,ECL GP + MFIS,1000
1,2.113684642544595e-05,ECL GP + MFIS,1000
1,2.6494848089379493e-05,ECL GP + MFIS,1000
1,1.8236850965123053e-05,ECL GP + MFIS,1000
1,8.47623986113908e-06,ECL GP + MFIS,1000
1,2.4886180225073152e-05,ECL GP + MFIS,1000
1,6.0612470974554314e-05,ECL GP + MFIS,1000
1,2.1136786662096082e-05,ECL GP + MFIS,1000
1,3.2871833359533796e-05,ECL GP + MFIS,1000
1,9.25346826041181e-05,ECL GP + MFIS,1000
1,8.216406076942163e-05,ECL GP + MFIS,1000
1,1.0614356957114194e-05,ECL GP + MFIS,1000
1,4.455056194494801e-06,ECL GP + MFIS,1000
1,9.621830157709524e-06,ECL GP + MFIS,1000
1,8.306058912506799e-05,ECL GP + MFIS,1000
1,3.156089635319298e-05,ECL GP + MFIS,1000
1,4.421681951191441e-05,ECL GP + MFIS,1000
1,0.0002388126962550787,ECL GP + MFIS,1000
1,9.487678487861808e-05,ECL GP + MFIS,1000
1,4.3543628327059056e-05,ECL GP + MFIS,1000
1,1.2257460782844716e-05,ECL GP + MFIS,1000
1,7.521711747136644e-05,ECL GP + MFIS,1000
1,5.105995968376822e-07,ECL GP + MFIS,1000
1,2.3055833298575882e-05,ECL GP + MFIS,1000
1,5.310364188014266e-05,ECL GP + MFIS,1000
1,6.384735443151876e-05,ECL GP + MFIS,1000
1,3.917346283498712e-05,ECL GP + MFIS,1000
2,1.299351384045043e-05,ECL GP + MFIS,1500
2,5.753973451060263e-06,ECL GP + MFIS,1500
2,6.354998381741576e-05,ECL GP + MFIS,1500
2,3.539419839130784e-05,ECL GP + MFIS,1500
2,2.6008613191180448e-05,ECL GP + MFIS,1500
2,1.654591314676759e-05,ECL GP + MFIS,1500
2,7.223336492235329e-06,ECL GP + MFIS,1500
2,5.11045260725867e-05,ECL GP + MFIS,1500
2,6.0551552906586235e-05,ECL GP + MFIS,1500
2,3.3568734695809386e-05,ECL GP + MFIS,1500
2,2.828393078849298e-05,ECL GP + MFIS,1500
2,1.871731177667123e-05,ECL GP + MFIS,1500
2,2.740784883116217e-05,ECL GP + MFIS,1500
2,1.0030312176257349e-05,ECL GP + MFIS,1500
2,5.924029827935251e-05,ECL GP + MFIS,1500
2,2.098364526832491e-05,ECL GP + MFIS,1500
2,3.242131752720042e-05,ECL GP + MFIS,1500
2,2.5637040129151316e-05,ECL GP + MFIS,1500
2,2.5981984633838447e-05,ECL GP + MFIS,1500
2,9.805046520691479e-06,ECL GP + MFIS,1500
2,6.235477240306071e-05,ECL GP + MFIS,1500
2,0.00014715374008578835,ECL GP + MFIS,1500
2,6.0138779780461935e-06,ECL GP + MFIS,1500
2,3.7657931765645294e-05,ECL GP + MFIS,1500
2,3.6730494928201296e-05,ECL GP + MFIS,1500
2,8.311946136972366e-06,ECL GP + MFIS,1500
2,2.5739487321214624e-05,ECL GP + MFIS,1500
2,5.405216245398317e-06,ECL GP + MFIS,1500
2,2.3889679054299256e-05,ECL GP + MFIS,1500
2,3.299428429853475e-05,ECL GP + MFIS,1500
2,1.0195035704002207e-05,ECL GP + MFIS,1500
2,9.384888665787527e-06,ECL GP + MFIS,1500
2,4.604888084122551e-05,ECL GP + MFIS,1500
2,5.1214982797162176e-05,ECL GP + MFIS,1500
2,1.3730470143070517e-05,ECL GP + MFIS,1500
2,4.882599723533528e-06,ECL GP + MFIS,1500
2,1.3437993085583643e-05,ECL GP + MFIS,1500
2,4.729234362382936e-05,ECL GP + MFIS,1500
2,8.226849104299742e-06,ECL GP + MFIS,1500
2,5.3498871804091505e-05,ECL GP + MFIS,1500
2,0.00016482356299615353,ECL GP + MFIS,1500
2,3.5732215445166715e-05,ECL GP + MFIS,1500
2,1.7784741143031134e-05,ECL GP + MFIS,1500
2,3.065728215682212e-07,ECL GP + MFIS,1500
2,9.785556663451881e-06,ECL GP + MFIS,1500
2,2.402562788023782e-05,ECL GP + MFIS,1500
2,1.2308093740750559e-05,ECL GP + MFIS,1500
2,8.701771212387419e-06,ECL GP + MFIS,1500
2,1.339431405952894e-05,ECL GP + MFIS,1500
2,2.081337421928355e-05,ECL GP + MFIS,1500
3,1.615067085233347e-05,ECL GP + MFIS,2000
3,2.4811919355354232e-05,ECL GP + MFIS,2000
3,5.965720008129752e-05,ECL GP + MFIS,2000
3,3.458794317552324e-05,ECL GP + MFIS,2000
3,2.5781878725559008e-05,ECL GP + MFIS,2000
3,1.4425828569442425e-05,ECL GP + MFIS,2000
3,1.2836285613826654e-05,ECL GP + MFIS,2000
3,4.4207505559613804e-05,ECL GP + MFIS,2000
3,4.653229543226454e-05,ECL GP + MFIS,2000
3,5.662095235248264e-05,ECL GP + MFIS,2000
3,4.963126721047788e-05,ECL GP + MFIS,2000
3,1.8099221596814402e-05,ECL GP + MFIS,2000
3,3.2505684493450366e-05,ECL GP + MFIS,2000
3,1.4631041477789278e-05,ECL GP + MFIS,2000
3,5.30639864224189e-05,ECL GP + MFIS,2000
3,1.7016386222880623e-05,ECL GP + MFIS,2000
3,3.575917852807861e-05,ECL GP + MFIS,2000
3,1.068568836869242e-05,ECL GP + MFIS,2000
3,1.8381158891983378e-05,ECL GP + MFIS,2000
3,1.5812396183078996e-06,ECL GP + MFIS,2000
3,1.5264764470268848e-05,ECL GP + MFIS,2000
3,7.913862236357807e-05,ECL GP + MFIS,2000
3,4.5149457548399096e-05,ECL GP + MFIS,2000
3,9.886560499585296e-06,ECL GP + MFIS,2000
3,3.5440745841715726e-05,ECL GP + MFIS,2000
3,1.2968378215390784e-05,ECL GP + MFIS,2000
3,2.6602301746276973e-05,ECL GP + MFIS,2000
3,1.443847015049739e-06,ECL GP + MFIS,2000
3,2.2564672760293312e-05,ECL GP + MFIS,2000
3,1.4647784936990633e-05,ECL GP + MFIS,2000
3,1.3582786156549412e-05,ECL GP + MFIS,2000
3,8.17576426281625e-06,ECL GP + MFIS,2000
3,4.702111532074564e-05,ECL GP + MFIS,2000
3,1.0019585149740077e-05,ECL GP + MFIS,2000
3,4.059810463435129e-05,ECL GP + MFIS,2000
3,1.12308260289979e-06,ECL GP + MFIS,2000
3,1.6126435062847064e-05,ECL GP + MFIS,2000
3,2.0473827766947887e-05,ECL GP + MFIS,2000
3,4.223034224074777e-06,ECL GP + MFIS,2000
3,1.9343194698625285e-05,ECL GP + MFIS,2000
3,0.00011037813383173016,ECL GP + MFIS,2000
3,5.8227030802868824e-05,ECL GP + MFIS,2000
3,1.7564531035664088e-05,ECL GP + MFIS,2000
3,8.910117431646866e-06,ECL GP + MFIS,2000
3,4.955491262693132e-05,ECL GP + MFIS,2000
3,2.911731669415392e-05,ECL GP + MFIS,2000
3,5.459255097778164e-06,ECL GP + MFIS,2000
3,2.238671264870643e-05,ECL GP + MFIS,2000
3,1.4608802591552401e-05,ECL GP + MFIS,2000
3,1.8086044023296133e-05,ECL GP + MFIS,2000
4,1.5931061220564487e-05,ECL GP + MFIS,2500
4,2.3252164281845587e-05,ECL GP + MFIS,2500
4,3.590858608635791e-05,ECL GP + MFIS,2500
4,4.452666082092611e-05,ECL GP + MFIS,2500
4,3.595577496222531e-05,ECL GP + MFIS,2500
4,2.1908834826678443e-05,ECL GP + MFIS,2500
4,1.0760731126701565e-05,ECL GP + MFIS,2500
4,4.977929662313687e-05,ECL GP + MFIS,2500
4,2.1755603945709237e-05,ECL GP + MFIS,2500
4,3.014606017202274e-05,ECL GP + MFIS,2500
4,5.471985573119787e-05,ECL GP + MFIS,2500
4,1.028826173137768e-05,ECL GP + MFIS,2500
4,7.712047668082152e-07,ECL GP + MFIS,2500
4,9.173186329054306e-06,ECL GP + MFIS,2500
4,3.3125537101721557e-05,ECL GP + MFIS,2500
4,1.2614881195164565e-05,ECL GP + MFIS,2500
4,2.064453366521597e-05,ECL GP + MFIS,2500
4,1.9789785079710317e-05,ECL GP + MFIS,2500
4,2.466854992471323e-05,ECL GP + MFIS,2500
4,5.558244971696916e-06,ECL GP + MFIS,2500
4,3.3782024434286296e-05,ECL GP + MFIS,2500
4,4.192517023349435e-05,ECL GP + MFIS,2500
4,6.80527502691763e-05,ECL GP + MFIS,2500
4,1.0935250589199459e-05,ECL GP + MFIS,2500
4,3.934239107741973e-05,ECL GP + MFIS,2500
4,3.7344590733438864e-05,ECL GP + MFIS,2500
4,8.263399340403951e-06,ECL GP + MFIS,2500
4,8.600156363710492e-06,ECL GP + MFIS,2500
4,5.804288300598117e-07,ECL GP + MFIS,2500
4,2.9094129058096583e-05,ECL GP + MFIS,2500
4,1.0002426561371569e-05,ECL GP + MFIS,2500
4,4.421742758008206e-06,ECL GP + MFIS,2500
4,4.7011719514624545e-05,ECL GP + MFIS,2500
4,1.4255983233986977e-05,ECL GP + MFIS,2500
4,2.251338227199709e-05,ECL GP + MFIS,2500
4,1.0639812550309376e-05,ECL GP + MFIS,2500
4,1.764693184163799e-05,ECL GP + MFIS,2500
4,1.078998241685965e-05,ECL GP + MFIS,2500
4,8.46881938097949e-07,ECL GP + MFIS,2500
4,1.0763746918826924e-05,ECL GP + MFIS,2500
4,7.305252511869906e-05,ECL GP + MFIS,2500
4,5.45984447539819e-05,ECL GP + MFIS,2500
4,8.846272501352934e-06,ECL GP + MFIS,2500
4,6.493215036278491e-06,ECL GP + MFIS,2500
4,2.0552784667191102e-05,ECL GP + MFIS,2500
4,4.348644286068272e-05,ECL GP + MFIS,2500
4,1.1419993409952315e-05,ECL GP + MFIS,2500
4,1.179612665642483e-05,ECL GP + MFIS,2500
4,2.0559360220386578e-05,ECL GP + MFIS,2500
4,2.3041063210699165e-05,ECL GP + MFIS,2500
5,7.369746520203852e-06,ECL GP + MFIS,3000
5,7.594457536134504e-06,ECL GP + MFIS,3000
5,1.0524208463810704e-05,ECL GP + MFIS,3000
5,2.8378737452643458e-05,ECL GP + MFIS,3000
5,3.159785751125424e-05,ECL GP + MFIS,3000
5,1.8052662798654674e-06,ECL GP + MFIS,3000
5,3.0216970255756825e-06,ECL GP + MFIS,3000
5,2.7358561754285563e-05,ECL GP + MFIS,3000
5,4.486320075992563e-06,ECL GP + MFIS,3000
5,2.9814758269850416e-05,ECL GP + MFIS,3000
5,1.9073379722421785e-05,ECL GP + MFIS,3000
5,8.1428878542073e-07,ECL GP + MFIS,3000
5,1.4273915646142868e-05,ECL GP + MFIS,3000
5,1.5880621747727756e-06,ECL GP + MFIS,3000
5,2.5872281169010735e-05,ECL GP + MFIS,3000
5,1.3229267308836976e-05,ECL GP + MFIS,3000
5,6.340848444287778e-06,ECL GP + MFIS,3000
5,6.535147025789334e-07,ECL GP + MFIS,3000
5,2.00464991290299e-05,ECL GP + MFIS,3000
5,3.7135125652927505e-06,ECL GP + MFIS,3000
5,1.5895735815035133e-05,ECL GP + MFIS,3000
5,2.877901613220499e-05,ECL GP + MFIS,3000
5,7.527272303559985e-05,ECL GP + MFIS,3000
5,1.0725911729759672e-05,ECL GP + MFIS,3000
5,3.1889810504235564e-05,ECL GP + MFIS,3000
5,1.417626024196087e-05,ECL GP + MFIS,3000
5,6.894817300830006e-06,ECL GP + MFIS,3000
5,1.1809531408913613e-05,ECL GP + MFIS,3000
5,1.203807676710203e-05,ECL GP + MFIS,3000
5,3.6201709141354173e-05,ECL GP + MFIS,3000
5,1.504791737102335e-05,ECL GP + MFIS,3000
5,6.028422753979329e-06,ECL GP + MFIS,3000
5,3.677982487806919e-05,ECL GP + MFIS,3000
5,1.7291143637117616e-05,ECL GP + MFIS,3000
5,2.4279897445158866e-06,ECL GP + MFIS,3000
5,4.9203053695951165e-06,ECL GP + MFIS,3000
5,2.267318113202514e-05,ECL GP + MFIS,3000
5,1.5210931478774415e-05,ECL GP + MFIS,3000
5,9.443262882071618e-06,ECL GP + MFIS,3000
5,1.48308941743747e-06,ECL GP + MFIS,3000
5,5.4998959091990835e-05,ECL GP + MFIS,3000
5,4.337526979931864e-05,ECL GP + MFIS,3000
5,2.4223562213214218e-05,ECL GP + MFIS,3000
5,4.1099226751133665e-06,ECL GP + MFIS,3000
5,2.1139949004279337e-05,ECL GP + MFIS,3000
5,4.995127060411302e-05,ECL GP + MFIS,3000
5,2.0348026827888112e-05,ECL GP + MFIS,3000
5,2.958516013313239e-05,ECL GP + MFIS,3000
5,1.3876365459328938e-05,ECL GP + MFIS,3000
5,1.4111051941792909e-05,ECL GP + MFIS,3000
6,6.9938181257056965e-06,ECL GP + MFIS,3500
6,1.0472327038094607e-06,ECL GP + MFIS,3500
6,2.760443260775027e-05,ECL GP + MFIS,3500
6,3.222941917419627e-05,ECL GP + MFIS,3500
6,1.581527716988944e-05,ECL GP + MFIS,3500
6,6.998854962200242e-06,ECL GP + MFIS,3500
6,8.18147340381323e-06,ECL GP + MFIS,3500
6,4.855918576924818e-05,ECL GP + MFIS,3500
6,8.130206903195821e-07,ECL GP + MFIS,3500
6,2.9978278757286192e-05,ECL GP + MFIS,3500
6,1.241439745219646e-05,ECL GP + MFIS,3500
6,1.494085125321675e-05,ECL GP + MFIS,3500
6,1.5668150269890213e-05,ECL GP + MFIS,3500
6,1.1860467976817493e-05,ECL GP + MFIS,3500
6,1.2808775702901872e-05,ECL GP + MFIS,3500
6,1.1899770039930585e-05,ECL GP + MFIS,3500
6,1.1056280786848373e-05,ECL GP + MFIS,3500
6,4.492249336196042e-06,ECL GP + MFIS,3500
6,2.2594941453464796e-05,ECL GP + MFIS,3500
6,1.5576239318556943e-05,ECL GP + MFIS,3500
6,2.6621845797800397e-05,ECL GP + MFIS,3500
6,4.064582832729474e-05,ECL GP + MFIS,3500
6,6.850705905692557e-05,ECL GP + MFIS,3500
6,2.1459193100963536e-05,ECL GP + MFIS,3500
6,3.038913836085665e-05,ECL GP + MFIS,3500
6,2.78877482762812e-05,ECL GP + MFIS,3500
6,8.277858972098422e-06,ECL GP + MFIS,3500
6,9.476941483887611e-06,ECL GP + MFIS,3500
6,1.5716157303133013e-05,ECL GP + MFIS,3500
6,1.6680031886039202e-05,ECL GP + MFIS,3500
6,7.287626468428484e-06,ECL GP + MFIS,3500
6,1.3905078694466562e-05,ECL GP + MFIS,3500
6,3.497821968529455e-05,ECL GP + MFIS,3500
6,9.333783938784371e-06,ECL GP + MFIS,3500
6,7.683213641643304e-06,ECL GP + MFIS,3500
6,1.1173229696796695e-05,ECL GP + MFIS,3500
6,3.875260085173184e-05,ECL GP + MFIS,3500
6,6.141868598569678e-06,ECL GP + MFIS,3500
6,1.5880282453397277e-06,ECL GP + MFIS,3500
6,1.2973189010559265e-05,ECL GP + MFIS,3500
6,4.550138997334234e-05,ECL GP + MFIS,3500
6,4.693606932155926e-05,ECL GP + MFIS,3500
6,2.0716707093670775e-05,ECL GP + MFIS,3500
6,5.737925263681661e-06,ECL GP + MFIS,3500
6,3.285285983799561e-05,ECL GP + MFIS,3500
6,3.2922285225632725e-05,ECL GP + MFIS,3500
6,1.8076150360200535e-05,ECL GP + MFIS,3500
6,3.0198985905818734e-05,ECL GP + MFIS,3500
6,1.0878780787437065e-05,ECL GP + MFIS,3500
6,1.4874812318162178e-06,ECL GP + MFIS,3500
7,2.2318250738739137e-06,ECL GP + MFIS,4000
7,1.4735981645030765e-05,ECL GP + MFIS,4000
7,3.142481850652531e-05,ECL GP + MFIS,4000
7,3.686856658170203e-05,ECL GP + MFIS,4000
7,1.2120426983349298e-05,ECL GP + MFIS,4000
7,3.850475449416937e-06,ECL GP + MFIS,4000
7,1.4594000408779933e-05,ECL GP + MFIS,4000
7,4.704589978803066e-05,ECL GP + MFIS,4000
7,1.0135000997694857e-05,ECL GP + MFIS,4000
7,1.0868665080822478e-05,ECL GP + MFIS,4000
7,5.230516341706536e-06,ECL GP + MFIS,4000
7,2.7957902906403293e-05,ECL GP + MFIS,4000
7,1.026464887712462e-05,ECL GP + MFIS,4000
7,1.239089781868109e-05,ECL GP + MFIS,4000
7,1.9000031377385419e-06,ECL GP + MFIS,4000
7,4.664992890025766e-06,ECL GP + MFIS,4000
7,1.9796944324640062e-05,ECL GP + MFIS,4000
7,5.474243082748478e-06,ECL GP + MFIS,4000
7,1.7128749539812313e-05,ECL GP + MFIS,4000
7,2.911527791429891e-09,ECL GP + MFIS,4000
7,2.8512334657373388e-05,ECL GP + MFIS,4000
7,4.2371876692448704e-05,ECL GP + MFIS,4000
7,6.090994819037826e-05,ECL GP + MFIS,4000
7,2.419067020416289e-05,ECL GP + MFIS,4000
7,3.3699739178281616e-05,ECL GP + MFIS,4000
7,9.124497574011618e-06,ECL GP + MFIS,4000
7,1.2874588181150011e-05,ECL GP + MFIS,4000
7,1.9506156327649257e-05,ECL GP + MFIS,4000
7,4.069309822624361e-06,ECL GP + MFIS,4000
7,9.386977473925919e-06,ECL GP + MFIS,4000
7,7.20097641645958e-06,ECL GP + MFIS,4000
7,3.706934474971167e-06,ECL GP + MFIS,4000
7,2.2780061082631814e-05,ECL GP + MFIS,4000
7,8.204354467186443e-06,ECL GP + MFIS,4000
7,8.999523263185155e-06,ECL GP + MFIS,4000
7,2.917055282243477e-06,ECL GP + MFIS,4000
7,3.374245937812518e-05,ECL GP + MFIS,4000
7,1.0501060884026553e-05,ECL GP + MFIS,4000
7,4.326811818393568e-06,ECL GP + MFIS,4000
7,2.2662127482231485e-05,ECL GP + MFIS,4000
7,2.631317231548548e-05,ECL GP + MFIS,4000
7,3.870103288538694e-05,ECL GP + MFIS,4000
7,1.2001095939520633e-05,ECL GP + MFIS,4000
7,3.930972167768025e-06,ECL GP + MFIS,4000
7,4.106417453601948e-05,ECL GP + MFIS,4000
7,2.5876711556340522e-05,ECL GP + MFIS,4000
7,2.961435081764844e-05,ECL GP + MFIS,4000
7,1.8896489055108493e-05,ECL GP + MFIS,4000
7,3.751526084423175e-07,ECL GP + MFIS,4000
7,2.9878545054085742e-06,ECL GP + MFIS,4000
8,7.959007889647794e-06,ECL GP + MFIS,4500
8,2.069795672036967e-05,ECL GP + MFIS,4500
8,3.1084647895107263e-05,ECL GP + MFIS,4500
8,4.75458486085276e-05,ECL GP + MFIS,4500
8,7.981014805664727e-06,ECL GP + MFIS,4500
8,2.7072607592282423e-06,ECL GP + MFIS,4500
8,9.891464471192997e-06,ECL GP + MFIS,4500
8,4.0134801624957866e-05,ECL GP + MFIS,4500
8,4.851921078842265e-07,ECL GP + MFIS,4500
8,2.3848979645368874e-05,ECL GP + MFIS,4500
8,8.78726081675633e-06,ECL GP + MFIS,4500
8,3.362986567010252e-05,ECL GP + MFIS,4500
8,1.0210510383641246e-05,ECL GP + MFIS,4500
8,2.1012771799890865e-05,ECL GP + MFIS,4500
8,1.629029212851861e-05,ECL GP + MFIS,4500
8,9.808146178800874e-06,ECL GP + MFIS,4500
8,1.3481938710117316e-05,ECL GP + MFIS,4500
8,5.671985962457139e-06,ECL GP + MFIS,4500
8,2.405310463599302e-05,ECL GP + MFIS,4500
8,5.91806020456935e-06,ECL GP + MFIS,4500
8,2.6927075715538163e-05,ECL GP + MFIS,4500
8,3.447278082881243e-05,ECL GP + MFIS,4500
8,6.205524358622269e-05,ECL GP + MFIS,4500
8,3.569944696046987e-05,ECL GP + MFIS,4500
8,3.5810006256734766e-05,ECL GP + MFIS,4500
8,9.94533564484105e-06,ECL GP + MFIS,4500
8,2.622896509760675e-05,ECL GP + MFIS,4500
8,2.021180925916425e-05,ECL GP + MFIS,4500
8,8.966191131111164e-06,ECL GP + MFIS,4500
8,9.702685105081061e-06,ECL GP + MFIS,4500
8,1.9630036948365456e-06,ECL GP + MFIS,4500
8,1.8787336080251012e-06,ECL GP + MFIS,4500
8,2.313816638294412e-05,ECL GP + MFIS,4500
8,3.0999769884214844e-06,ECL GP + MFIS,4500
8,3.583856095629211e-06,ECL GP + MFIS,4500
8,4.2636981932922535e-08,ECL GP + MFIS,4500
8,2.626012612621392e-05,ECL GP + MFIS,4500
8,1.4623276430498133e-05,ECL GP + MFIS,4500
8,6.894365161298679e-06,ECL GP + MFIS,4500
8,2.4401563690782486e-05,ECL GP + MFIS,4500
8,3.6154279291142344e-05,ECL GP + MFIS,4500
8,3.384143765509148e-05,ECL GP + MFIS,4500
8,1.111590256412426e-05,ECL GP + MFIS,4500
8,3.4471861763227946e-06,ECL GP + MFIS,4500
8,2.9003984344031517e-05,ECL GP + MFIS,4500
8,2.7301071429262002e-05,ECL GP + MFIS,4500
8,3.157136519688975e-05,ECL GP + MFIS,4500
8,3.758617430312471e-05,ECL GP + MFIS,4500
8,1.563487987856502e-06,ECL GP + MFIS,4500
8,9.474858351978237e-06,ECL GP + MFIS,4500
9,9.212062443031844e-07,ECL GP + MFIS,5000
9,2.631623478801864e-05,ECL GP + MFIS,5000
9,1.8064688866971422e-05,ECL GP + MFIS,5000
9,3.797991015674223e-05,ECL GP + MFIS,5000
9,1.0648802670214187e-05,ECL GP + MFIS,5000
9,6.194743907125735e-06,ECL GP + MFIS,5000
9,1.3234016302489512e-05,ECL GP + MFIS,5000
9,3.549429255648019e-05,ECL GP + MFIS,5000
9,1.4791795241355515e-07,ECL GP + MFIS,5000
9,3.138070903260261e-05,ECL GP + MFIS,5000
9,1.314303249557976e-05,ECL GP + MFIS,5000
9,3.943911529007702e-05,ECL GP + MFIS,5000
9,5.467568894722882e-06,ECL GP + MFIS,5000
9,1.0365194996648413e-05,ECL GP + MFIS,5000
9,1.3806090184010321e-05,ECL GP + MFIS,5000
9,1.633510352250906e-05,ECL GP + MFIS,5000
9,1.7269158456810702e-05,ECL GP + MFIS,5000
9,2.4388092326357684e-06,ECL GP + MFIS,5000
9,2.1255621193421977e-05,ECL GP + MFIS,5000
9,1.8820650983713888e-05,ECL GP + MFIS,5000
9,1.7848410869176134e-05,ECL GP + MFIS,5000
9,1.0676847445724533e-05,ECL GP + MFIS,5000
9,4.6768980420127445e-05,ECL GP + MFIS,5000
9,2.8854923014806546e-05,ECL GP + MFIS,5000
9,3.4471014892688756e-05,ECL GP + MFIS,5000
9,4.538391530009914e-06,ECL GP + MFIS,5000
9,2.4851583706241107e-05,ECL GP + MFIS,5000
9,2.0564647408133872e-05,ECL GP + MFIS,5000
9,6.632778328044282e-06,ECL GP + MFIS,5000
9,1.1635379356185645e-05,ECL GP + MFIS,5000
9,6.420832538681261e-07,ECL GP + MFIS,5000
9,8.133707348209965e-06,ECL GP + MFIS,5000
9,2.7684406529807906e-05,ECL GP + MFIS,5000
9,1.1911887968594137e-05,ECL GP + MFIS,5000
9,3.4299853268601396e-06,ECL GP + MFIS,5000
9,3.756985838123967e-06,ECL GP + MFIS,5000
9,2.440748145577992e-05,ECL GP + MFIS,5000
9,1.0983162088099019e-05,ECL GP + MFIS,5000
9,6.068617081802672e-06,ECL GP + MFIS,5000
9,1.9783768709577976e-05,ECL GP + MFIS,5000
9,2.1721422201249375e-05,ECL GP + MFIS,5000
9,3.761052335597465e-05,ECL GP + MFIS,5000
9,5.277706611976109e-06,ECL GP + MFIS,5000
9,4.397315063714002e-06,ECL GP + MFIS,5000
9,3.8055159515967005e-05,ECL GP + MFIS,5000
9,2.270945482774219e-05,ECL GP + MFIS,5000
9,2.8458561088842357e-05,ECL GP + MFIS,5000
9,2.957534343454621e-05,ECL GP + MFIS,5000
9,2.2893520565698145e-06,ECL GP + MFIS,5000
9,1.4943252381461767e-05,ECL GP + MFIS,5000
0,0.00010158264327123252,LHS GP + MFIS,500
0,0.00029533537674366977,LHS GP + MFIS,500
0,0.00013566597284200605,LHS GP + MFIS,500
0,0.00011609241469963806,LHS GP + MFIS,500
0,6.16565371022573e-05,LHS GP + MFIS,500
0,0.0003094728473066508,LHS GP + MFIS,500
0,4.67195782013571e-05,LHS GP + MFIS,500
0,6.189872119553852e-08,LHS GP + MFIS,500
0,0.0003499997467001863,LHS GP + MFIS,500
0,5.870453880631036e-05,LHS GP + MFIS,500
0,0.00033855393238715827,LHS GP + MFIS,500
0,0.00036118529265975166,LHS GP + MFIS,500
0,0.0001739550184424322,LHS GP + MFIS,500
0,1.765341970835191e-05,LHS GP + MFIS,500
0,0.00010108312574544408,LHS GP + MFIS,500
0,0.0001794725174109348,LHS GP + MFIS,500
0,0.00016648773161338413,LHS GP + MFIS,500
0,0.00030088413487963357,LHS GP + MFIS,500
0,9.815364956804922e-05,LHS GP + MFIS,500
0,0.00026294586443232314,LHS GP + MFIS,500
0,0.00010210531879702937,LHS GP + MFIS,500
0,0.00029380366688293205,LHS GP + MFIS,500
0,2.367205870423589e-05,LHS GP + MFIS,500
0,0.00018765909629975014,LHS GP + MFIS,500
0,0.000464793527211772,LHS GP + MFIS,500
0,1.0427002742034817e-05,LHS GP + MFIS,500
0,0.0002574438493687461,LHS GP + MFIS,500
0,0.0002721914662938053,LHS GP + MFIS,500
0,8.267064116944281e-05,LHS GP + MFIS,500
0,0.00010578482784239776,LHS GP + MFIS,500
0,0.0002378345968821851,LHS GP + MFIS,500
0,0.0001463209383916797,LHS GP + MFIS,500
0,5.3708224264637536e-05,LHS GP + MFIS,500
0,5.6035286665179836e-05,LHS GP + MFIS,500
0,3.524428907741449e-05,LHS GP + MFIS,500
0,0.00025601443990899795,LHS GP + MFIS,500
0,9.049966680502912e-06,LHS GP + MFIS,500
0,0.00010462758009299419,LHS GP + MFIS,500
0,0.00017466913080468557,LHS GP + MFIS,500
0,0.0002323225520236942,LHS GP + MFIS,500
0,0.0002009276051169089,LHS GP + MFIS,500
0,0.00022685967168948923,LHS GP + MFIS,500
0,0.00031407112427239584,LHS GP + MFIS,500
0,0.0001970212720105864,LHS GP + MFIS,500
0,0.00026185380390908604,LHS GP + MFIS,500
0,8.74109517437049e-05,LHS GP + MFIS,500
0,8.968264385221904e-05,LHS GP + MFIS,500
0,0.0002031621699137171,LHS GP + MFIS,500
0,1.8692382084666047e-05,LHS GP + MFIS,500
0,0.0004245937110092811,LHS GP + MFIS,500
1,3.192171431575593e-05,LHS GP + MFIS,1000
1,0.00010631108022730884,LHS GP + MFIS,1000
1,1.41610635729871e-05,LHS GP + MFIS,1000
1,0.00018773985117456673,LHS GP + MFIS,1000
1,9.329950642037116e-05,LHS GP + MFIS,1000
1,0.00019938839416146095,LHS GP + MFIS,1000
1,6.84173293560537e-05,LHS GP + MFIS,1000
1,1.8825780926833057e-05,LHS GP + MFIS,1000
1,0.0003310998266716613,LHS GP + MFIS,1000
1,0.00012142321670671774,LHS GP + MFIS,1000
1,1.9277600119483674e-05,LHS GP + MFIS,1000
1,1.0212987253302441e-05,LHS GP + MFIS,1000
1,0.000226924170079551,LHS GP + MFIS,1000
1,9.222381034063086e-05,LHS GP + MFIS,1000
1,1.8823673548751555e-05,LHS GP + MFIS,1000
1,0.00016398105170325214,LHS GP + MFIS,1000
1,0.00010651607275348864,LHS GP + MFIS,1000
1,8.782415445824862e-05,LHS GP + MFIS,1000
1,0.00020023133028149328,LHS GP + MFIS,1000
1,5.087208384924459e-05,LHS GP + MFIS,1000
1,0.00016597120881744207,LHS GP + MFIS,1000
1,0.00036252357879165524,LHS GP + MFIS,1000
1,1.2305652927578105e-05,LHS GP + MFIS,1000
1,9.782428408305281e-05,LHS GP + MFIS,1000
1,0.00017865023930627936,LHS GP + MFIS,1000
1,4.6783733813754555e-05,LHS GP + MFIS,1000
1,0.0001976680638382369,LHS GP + MFIS,1000
1,0.00016929575984934411,LHS GP + MFIS,1000
1,3.411909571934607e-05,LHS GP + MFIS,1000
1,7.97991551835435e-05,LHS GP + MFIS,1000
1,0.0002021865343447873,LHS GP + MFIS,1000
1,0.00010112928948763172,LHS GP + MFIS,1000
1,0.00010902001929234261,LHS GP + MFIS,1000
1,9.873223900144724e-05,LHS GP + MFIS,1000
1,8.608191436266339e-05,LHS GP + MFIS,1000
1,0.0003461880076936482,LHS GP + MFIS,1000
1,4.387171831065533e-05,LHS GP + MFIS,1000
1,4.190034329822263e-05,LHS GP + MFIS,1000
1,0.002958659464140441,LHS GP + MFIS,1000
1,0.00013735606554862527,LHS GP + MFIS,1000
1,9.332075372385528e-05,LHS GP + MFIS,1000
1,0.00017004106688420283,LHS GP + MFIS,1000
1,0.00031778421023913317,LHS GP + MFIS,1000
1,0.00020055228855829304,LHS GP + MFIS,1000
1,0.000278582964290539,LHS GP + MFIS,1000
1,3.938573821597464e-05,LHS GP + MFIS,1000
1,0.00011082701064222568,LHS GP + MFIS,1000
1,0.00014251213975543348,LHS GP + MFIS,1000
1,9.847478764707341e-05,LHS GP + MFIS,1000
1,0.00022020389547268838,LHS GP + MFIS,1000
2,2.1486355783201542e-05,LHS GP + MFIS,1500
2,6.142009930463447e-05,LHS GP + MFIS,1500
2,2.8492174435438503e-05,LHS GP + MFIS,1500
2,0.00012125458788968453,LHS GP + MFIS,1500
2,5.813258850918747e-05,LHS GP + MFIS,1500
2,0.0002960240210570673,LHS GP + MFIS,1500
2,1.868423628439736e-05,LHS GP + MFIS,1500
2,1.464226280994442e-06,LHS GP + MFIS,1500
2,0.00038804465188665093,LHS GP + MFIS,1500
2,0.00010671276762774264,LHS GP + MFIS,1500
2,0.00011169440253923216,LHS GP + MFIS,1500
2,6.1517639911364e-05,LHS GP + MFIS,1500
2,0.00011619898823499392,LHS GP + MFIS,1500
2,0.00012526699743747936,LHS GP + MFIS,1500
2,1.3095380612322769e-05,LHS GP + MFIS,1500
2,0.00012559442627799134,LHS GP + MFIS,1500
2,0.00013466290873738657,LHS GP + MFIS,1500
2,1.5183468254796259e-05,LHS GP + MFIS,1500
2,9.077954885110132e-05,LHS GP + MFIS,1500
2,2.8260666345349128e-05,LHS GP + MFIS,1500
2,4.979252617760355e-05,LHS GP + MFIS,1500
2,0.0002633898196508726,LHS GP + MFIS,1500
2,1.5028606290606959e-05,LHS GP + MFIS,1500
2,7.844272326193425e-05,LHS GP + MFIS,1500
2,3.9944429948472965e-05,LHS GP + MFIS,1500
2,3.233261075007024e-05,LHS GP + MFIS,1500
2,0.00019309970225166162,LHS GP + MFIS,1500
2,0.00017250607844336455,LHS GP + MFIS,1500
2,2.49220808415415e-05,LHS GP + MFIS,1500
2,7.317467345278612e-05,LHS GP + MFIS,1500
2,0.00014319769216244484,LHS GP + MFIS,1500
2,0.0001460080929672373,LHS GP + MFIS,1500
2,8.480199063933295e-05,LHS GP + MFIS,1500
2,8.469420097039794e-05,LHS GP + MFIS,1500
2,5.444379768973365e-05,LHS GP + MFIS,1500
2,0.0002703284945501358,LHS GP + MFIS,1500
2,1.3583853798305881e-05,LHS GP + MFIS,1500
2,4.395992087014315e-05,LHS GP + MFIS,1500
2,0.0017964080270026347,LHS GP + MFIS,1500
2,9.486961965466843e-05,LHS GP + MFIS,1500
2,6.84417626678111e-06,LHS GP + MFIS,1500
2,6.928360026048266e-06,LHS GP + MFIS,1500
2,0.0002736479043297217,LHS GP + MFIS,1500
2,0.00011087011975162778,LHS GP + MFIS,1500
2,0.00030399868689072484,LHS GP + MFIS,1500
2,7.69724680839025e-05,LHS GP + MFIS,1500
2,0.00012177444174362405,LHS GP + MFIS,1500
2,0.00010421468606803218,LHS GP + MFIS,1500
2,0.00015875723384301606,LHS GP + MFIS,1500
2,0.00010728063256774055,LHS GP + MFIS,1500
3,4.198871044012434e-05,LHS GP + MFIS,2000
3,7.456992412118281e-05,LHS GP + MFIS,2000
3,3.711425253775545e-06,LHS GP + MFIS,2000
3,7.7039826427334e-05,LHS GP + MFIS,2000
3,7.64489764826801e-05,LHS GP + MFIS,2000
3,0.0001888831103359764,LHS GP + MFIS,2000
3,3.1779999340540016e-06,LHS GP + MFIS,2000
3,7.406636741069976e-06,LHS GP + MFIS,2000
3,0.0003133528564350182,LHS GP + MFIS,2000
3,9.775601921436952e-05,LHS GP + MFIS,2000
3,0.00012246716729740945,LHS GP + MFIS,2000
3,0.00010523075183850334,LHS GP + MFIS,2000
3,2.1294769014825604e-05,LHS GP + MFIS,2000
3,0.00014294718711149897,LHS GP + MFIS,2000
3,4.3662044618640356e-05,LHS GP + MFIS,2000
3,0.00012878258993361013,LHS GP + MFIS,2000
3,0.0001091318204294691,LHS GP + MFIS,2000
3,4.521101426599992e-05,LHS GP + MFIS,2000
3,0.00011329808073755332,LHS GP + MFIS,2000
3,4.408324418347454e-05,LHS GP + MFIS,2000
3,6.156629916444765e-05,LHS GP + MFIS,2000
3,0.00031407470451498575,LHS GP + MFIS,2000
3,3.389243010990255e-05,LHS GP + MFIS,2000
3,5.246433374645355e-05,LHS GP + MFIS,2000
3,0.00014159240521214287,LHS GP + MFIS,2000
3,4.4194976271628647e-07,LHS GP + MFIS,2000
3,0.00018783830363893915,LHS GP + MFIS,2000
3,0.00013735994642301178,LHS GP + MFIS,2000
3,2.100494692320069e-05,LHS GP + MFIS,2000
3,3.3513770579692384e-05,LHS GP + MFIS,2000
3,0.00013096606843136804,LHS GP + MFIS,2000
3,5.661672833888031e-05,LHS GP + MFIS,2000
3,0.00016221571925765458,LHS GP + MFIS,2000
3,0.00010123523231960754,LHS GP + MFIS,2000
3,6.381128819113794e-05,LHS GP + MFIS,2000
3,0.0002335921209677095,LHS GP + MFIS,2000
3,7.845034769859147e-05,LHS GP + MFIS,2000
3,4.878805110571029e-05,LHS GP + MFIS,2000
3,0.0013001397670221954,LHS GP + MFIS,2000
3,6.495613126200888e-05,LHS GP + MFIS,2000
3,4.0449738656097786e-05,LHS GP + MFIS,2000
3,3.826001779455232e-06,LHS GP + MFIS,2000
3,0.00027424265227360867,LHS GP + MFIS,2000
3,0.0001020928686764021,LHS GP + MFIS,2000
3,0.0002819607972688221,LHS GP + MFIS,2000
3,7.293499380065145e-05,LHS GP + MFIS,2000
3,0.00010953587984108217,LHS GP + MFIS,2000
3,7.014944989241535e-05,LHS GP + MFIS,2000
3,0.0001373028112908206,LHS GP + MFIS,2000
3,8.25598390003764e-05,LHS GP + MFIS,2000
4,8.327884994586076e-05,LHS GP + MFIS,2500
4,5.776567188250741e-05,LHS GP + MFIS,2500
4,1.8052515124130156e-05,LHS GP + MFIS,2500
4,5.621106593477177e-05,LHS GP + MFIS,2500
4,7.590734334414397e-05,LHS GP + MFIS,2500
4,0.00012052770079881833,LHS GP + MFIS,2500
4,2.3592305394784345e-05,LHS GP + MFIS,2500
4,6.690836252830866e-05,LHS GP + MFIS,2500
4,0.0003264969480155913,LHS GP + MFIS,2500
4,0.00010628115310709152,LHS GP + MFIS,2500
4,0.00015470115401457717,LHS GP + MFIS,2500
4,0.0001466877693810639,LHS GP + MFIS,2500
4,5.09125328727357e-06,LHS GP + MFIS,2500
4,0.000126495281661487,LHS GP + MFIS,2500
4,1.0360147023947977e-05,LHS GP + MFIS,2500
4,0.00011147147987248759,LHS GP + MFIS,2500
4,0.00012445385721955582,LHS GP + MFIS,2500
4,6.0328816489175e-06,LHS GP + MFIS,2500
4,5.100344445767334e-05,LHS GP + MFIS,2500
4,1.8211305131305387e-05,LHS GP + MFIS,2500
4,2.3957376390868574e-05,LHS GP + MFIS,2500
4,0.0002384095500073453,LHS GP + MFIS,2500
4,3.3459314109465224e-05,LHS GP + MFIS,2500
4,7.883887993302805e-05,LHS GP + MFIS,2500
4,0.0001896720217041271,LHS GP + MFIS,2500
4,2.374459889121236e-05,LHS GP + MFIS,2500
4,0.00010723300829703437,LHS GP + MFIS,2500
4,0.0001385933500540617,LHS GP + MFIS,2500
4,2.145782893845467e-05,LHS GP + MFIS,2500
4,3.0399136176275515e-07,LHS GP + MFIS,2500
4,0.00012713441182601577,LHS GP + MFIS,2500
4,1.1409135336643353e-05,LHS GP + MFIS,2500
4,0.00016096718769328987,LHS GP + MFIS,2500
4,0.00010689086005404328,LHS GP + MFIS,2500
4,4.760227160731454e-05,LHS GP + MFIS,2500
4,0.00018520083426609984,LHS GP + MFIS,2500
4,7.008347361312341e-05,LHS GP + MFIS,2500
4,4.29061687781695e-05,LHS GP + MFIS,2500
4,0.0009870296612785748,LHS GP + MFIS,2500
4,0.0001684993849126186,LHS GP + MFIS,2500
4,5.820241950853613e-05,LHS GP + MFIS,2500
4,3.301902132651663e-05,LHS GP + MFIS,2500
4,0.0002916848567125136,LHS GP + MFIS,2500
4,9.962591179080073e-05,LHS GP + MFIS,2500
4,0.0002789866133655459,LHS GP + MFIS,2500
4,8.305225083989108e-05,LHS GP + MFIS,2500
4,0.00013129141995664017,LHS GP + MFIS,2500
4,6.4805693129854e-05,LHS GP + MFIS,2500
4,0.00014632698443737028,LHS GP + MFIS,2500
4,9.190452837422834e-05,LHS GP + MFIS,2500
5,9.339279488710707e-05,LHS GP + MFIS,3000
5,4.174964359158562e-05,LHS GP + MFIS,3000
5,2.112204973709394e-05,LHS GP + MFIS,3000
5,4.6684598901295055e-05,LHS GP + MFIS,3000
5,7.012601608903614e-05,LHS GP + MFIS,3000
5,9.974182141288474e-05,LHS GP + MFIS,3000
5,1.7780214072938205e-05,LHS GP + MFIS,3000
5,5.0809229975788813e-05,LHS GP + MFIS,3000
5,0.00035233396331475536,LHS GP + MFIS,3000
5,0.00013112222735558684,LHS GP + MFIS,3000
5,0.00017663104856449987,LHS GP + MFIS,3000
5,0.00016716691380102525,LHS GP + MFIS,3000
5,2.443409691758533e-05,LHS GP + MFIS,3000
5,0.00010741385253846213,LHS GP + MFIS,3000
5,7.04397369149113e-07,LHS GP + MFIS,3000
5,0.0001364611256776659,LHS GP + MFIS,3000
5,0.0001192466777605952,LHS GP + MFIS,3000
5,6.604633005101923e-05,LHS GP + MFIS,3000
5,2.186291713496616e-05,LHS GP + MFIS,3000
5,6.451835639768519e-06,LHS GP + MFIS,3000
5,1.9260557865190134e-05,LHS GP + MFIS,3000
5,0.00023273896830508587,LHS GP + MFIS,3000
5,3.708494839613132e-05,LHS GP + MFIS,3000
5,9.660496818528013e-05,LHS GP + MFIS,3000
5,0.00024130773397541014,LHS GP + MFIS,3000
5,3.661328482118271e-05,LHS GP + MFIS,3000
5,6.650115836987663e-05,LHS GP + MFIS,3000
5,0.00013673580112814649,LHS GP + MFIS,3000
5,1.861568735755893e-05,LHS GP + MFIS,3000
5,1.6008118824069155e-05,LHS GP + MFIS,3000
5,0.00013401491318546237,LHS GP + MFIS,3000
5,1.615529588653241e-05,LHS GP + MFIS,3000
5,0.0001816782759597003,LHS GP + MFIS,3000
5,0.00011744106135704415,LHS GP + MFIS,3000
5,6.477855258962329e-05,LHS GP + MFIS,3000
5,0.00018914904499063242,LHS GP + MFIS,3000
5,6.499083551251813e-05,LHS GP + MFIS,3000
5,2.248208345547115e-05,LHS GP + MFIS,3000
5,0.0008352421909454228,LHS GP + MFIS,3000
5,0.00011540408399195851,LHS GP + MFIS,3000
5,5.292119479500092e-05,LHS GP + MFIS,3000
5,4.0876604160267516e-05,LHS GP + MFIS,3000
5,0.0002476403226028611,LHS GP + MFIS,3000
5,0.00010982505997241335,LHS GP + MFIS,3000
5,0.00025604335228822004,LHS GP + MFIS,3000
5,6.87251403738761e-05,LHS GP + MFIS,3000
5,0.00012633133728080206,LHS GP + MFIS,3000
5,7.383896648879536e-05,LHS GP + MFIS,3000
5,0.00015262212403533294,LHS GP + MFIS,3000
5,0.00011606509265285809,LHS GP + MFIS,3000
6,3.2998751325776236e-05,LHS GP + MFIS,3500
6,5.8207975230688204e-05,LHS GP + MFIS,3500
6,2.2522235317407784e-05,LHS GP + MFIS,3500
6,6.217852767745899e-05,LHS GP + MFIS,3500
6,5.670290733559918e-05,LHS GP + MFIS,3500
6,0.00010079718822993155,LHS GP + MFIS,3500
6,6.076726724903387e-06,LHS GP + MFIS,3500
6,5.2319109952774856e-05,LHS GP + MFIS,3500
6,0.000327121935935897,LHS GP + MFIS,3500
6,0.0001212465017490866,LHS GP + MFIS,3500
6,0.00018698965373125135,LHS GP + MFIS,3500
6,0.0001521504265036359,LHS GP + MFIS,3500
6,3.876900731761507e-05,LHS GP + MFIS,3500
6,0.00011833718723366243,LHS GP + MFIS,3500
6,1.815923312695005e-05,LHS GP + MFIS,3500
6,0.0001595082038214911,LHS GP + MFIS,3500
6,0.00011251873389455367,LHS GP + MFIS,3500
6,2.0263560704492783e-05,LHS GP + MFIS,3500
6,3.0673556148172595e-05,LHS GP + MFIS,3500
6,1.296407951941565e-05,LHS GP + MFIS,3500
6,1.8606740673551576e-05,LHS GP + MFIS,3500
6,0.00025222229328907345,LHS GP + MFIS,3500
6,1.836004118054924e-05,LHS GP + MFIS,3500
6,0.00010169615892666,LHS GP + MFIS,3500
6,0.00028289978754415953,LHS GP + MFIS,3500
6,7.075119731681163e-05,LHS GP + MFIS,3500
6,9.447346628693352e-05,LHS GP + MFIS,3500
6,0.00011379900562626219,LHS GP + MFIS,3500
6,1.0822470833408895e-06,LHS GP + MFIS,3500
6,4.9551969987502754e-06,LHS GP + MFIS,3500
6,0.00012586863116666733,LHS GP + MFIS,3500
6,2.321508407929153e-05,LHS GP + MFIS,3500
6,0.00017284631810256354,LHS GP + MFIS,3500
6,0.00011694601517645139,LHS GP + MFIS,3500
6,6.97326214801632e-05,LHS GP + MFIS,3500
6,5.451683483088032e-05,LHS GP + MFIS,3500
6,7.131412158602765e-05,LHS GP + MFIS,3500
6,4.208075361014597e-05,LHS GP + MFIS,3500
6,0.0006857111822730585,LHS GP + MFIS,3500
6,0.00013223443184522989,LHS GP + MFIS,3500
6,5.722016479499251e-05,LHS GP + MFIS,3500
6,4.645340517633108e-05,LHS GP + MFIS,3500
6,0.00021410216343742243,LHS GP + MFIS,3500
6,4.182403051048312e-05,LHS GP + MFIS,3500
6,0.0002445170738661054,LHS GP + MFIS,3500
6,7.818808381825787e-05,LHS GP + MFIS,3500
6,0.0001454004721278949,LHS GP + MFIS,3500
6,8.16963598168339e-05,LHS GP + MFIS,3500
6,0.00015102345146993763,LHS GP + MFIS,3500
6,0.0001764974866450609,LHS GP + MFIS,3500
7,4.1546820235614074e-05,LHS GP + MFIS,4000
7,5.131224908117612e-05,LHS GP + MFIS,4000
7,2.396748152086979e-05,LHS GP + MFIS,4000
7,3.620279547753599e-05,LHS GP + MFIS,4000
7,5.910298619411856e-05,LHS GP + MFIS,4000
7,7.411661442989037e-05,LHS GP + MFIS,4000
7,1.3781396713076922e-05,LHS GP + MFIS,4000
7,7.372511171166137e-05,LHS GP + MFIS,4000
7,0.00033266557973491405,LHS GP + MFIS,4000
7,0.00011721495593889047,LHS GP + MFIS,4000
7,0.00018611378011363158,LHS GP + MFIS,4000
7,0.00017127414762420075,LHS GP + MFIS,4000
7,6.901578109846929e-05,LHS GP + MFIS,4000
7,0.0001356904212770219,LHS GP + MFIS,4000
7,1.7988913570275234e-05,LHS GP + MFIS,4000
7,4.7566793965056974e-05,LHS GP + MFIS,4000
7,0.00012124575847454573,LHS GP + MFIS,4000
7,8.842133394492292e-06,LHS GP + MFIS,4000
7,0.00037700391280909924,LHS GP + MFIS,4000
7,3.238710132969077e-05,LHS GP + MFIS,4000
7,1.0564347495834424e-05,LHS GP + MFIS,4000
7,0.00027373686504150187,LHS GP + MFIS,4000
7,2.441627599144452e-05,LHS GP + MFIS,4000
7,0.00010605165536257304,LHS GP + MFIS,4000
7,0.0002599686601395506,LHS GP + MFIS,4000
7,7.372794768750496e-05,LHS GP + MFIS,4000
7,7.92231765966851e-05,LHS GP + MFIS,4000
7,0.00011622515460610013,LHS GP + MFIS,4000
7,1.632526670905716e-05,LHS GP + MFIS,4000
7,1.3475324823461303e-05,LHS GP + MFIS,4000
7,0.00010865592763196498,LHS GP + MFIS,4000
7,1.9157714591814656e-05,LHS GP + MFIS,4000
7,0.00016050178052335782,LHS GP + MFIS,4000
7,0.00012744932777944916,LHS GP + MFIS,4000
7,7.72414622398404e-05,LHS GP + MFIS,4000
7,2.6715662967936697e-05,LHS GP + MFIS,4000
7,7.526075655631256e-05,LHS GP + MFIS,4000
7,3.6606805642123335e-05,LHS GP + MFIS,4000
7,0.0005944454456677764,LHS GP + MFIS,4000
7,0.00016461723059624754,LHS GP + MFIS,4000
7,6.0389897306978714e-05,LHS GP + MFIS,4000
7,3.9014882483428214e-05,LHS GP + MFIS,4000
7,0.00021967494982186688,LHS GP + MFIS,4000
7,5.381278677753817e-05,LHS GP + MFIS,4000
7,0.00022561422482010737,LHS GP + MFIS,4000
7,8.180846687072291e-05,LHS GP + MFIS,4000
7,0.00014867778484461643,LHS GP + MFIS,4000
7,8.085170999909343e-05,LHS GP + MFIS,4000
7,0.00012953404128301037,LHS GP + MFIS,4000
7,0.0001407164752409095,LHS GP + MFIS,4000
8,5.2635680219742824e-05,LHS GP + MFIS,4500
8,4.693042333147506e-05,LHS GP + MFIS,4500
8,2.2243264875272672e-05,LHS GP + MFIS,4500
8,4.450197913274533e-05,LHS GP + MFIS,4500
8,4.655693874106666e-05,LHS GP + MFIS,4500
8,6.192403454439869e-05,LHS GP + MFIS,4500
8,1.588134481270479e-05,LHS GP + MFIS,4500
8,4.694865266389602e-05,LHS GP + MFIS,4500
8,0.00034118117051304474,LHS GP + MFIS,4500
8,0.0001280538243185001,LHS GP + MFIS,4500
8,0.0001754214686630665,LHS GP + MFIS,4500
8,0.00017447642870644948,LHS GP + MFIS,4500
8,9.040121794560302e-05,LHS GP + MFIS,4500
8,0.00013908182567273861,LHS GP + MFIS,4500
8,4.5748330801499443e-05,LHS GP + MFIS,4500
8,6.802326222627505e-05,LHS GP + MFIS,4500
8,0.00011891563473974268,LHS GP + MFIS,4500
8,7.595576886015084e-06,LHS GP + MFIS,4500
8,0.0003353272654920598,LHS GP + MFIS,4500
8,2.489572163305283e-05,LHS GP + MFIS,4500
8,1.1255238618040203e-05,LHS GP + MFIS,4500
8,0.0002691652784871151,LHS GP + MFIS,4500
8,1.4078358289889561e-05,LHS GP + MFIS,4500
8,0.00010367655144664337,LHS GP + MFIS,4500
8,0.00027400216432097043,LHS GP + MFIS,4500
8,8.050960575556234e-05,LHS GP + MFIS,4500
8,8.61813223967772e-05,LHS GP + MFIS,4500
8,0.0001191285066398371,LHS GP + MFIS,4500
8,3.241034540535609e-05,LHS GP + MFIS,4500
8,1.3019027227918886e-05,LHS GP + MFIS,4500
8,9.516862115719628e-05,LHS GP + MFIS,4500
8,5.8037339412155e-06,LHS GP + MFIS,4500
8,0.00018200732266859874,LHS GP + MFIS,4500
8,0.00011976663578258347,LHS GP + MFIS,4500
8,8.145931281462173e-05,LHS GP + MFIS,4500
8,1.2076287794924147e-05,LHS GP + MFIS,4500
8,3.682438639283762e-05,LHS GP + MFIS,4500
8,2.853315395267295e-05,LHS GP + MFIS,4500
8,0.0005098946270271543,LHS GP + MFIS,4500
8,0.00012669626498942833,LHS GP + MFIS,4500
8,5.5815393375092666e-05,LHS GP + MFIS,4500
8,3.0546945445519185e-05,LHS GP + MFIS,4500
8,0.0002331871466316577,LHS GP + MFIS,4500
8,7.707669923515733e-05,LHS GP + MFIS,4500
8,0.00022930542057880482,LHS GP + MFIS,4500
8,8.57428578813136e-05,LHS GP + MFIS,4500
8,0.0001382698131599878,LHS GP + MFIS,4500
8,8.816561511106817e-05,LHS GP + MFIS,4500
8,0.00013464578495814273,LHS GP + MFIS,4500
8,9.437703417223479e-05,LHS GP + MFIS,4500
9,2.3177845527931184e-05,LHS GP + MFIS,5000
9,4.488793696307491e-05,LHS GP + MFIS,5000
9,3.119918896055812e-06,LHS GP + MFIS,5000
9,3.19038671609958e-05,LHS GP + MFIS,5000
9,5.6856195267566425e-05,LHS GP + MFIS,5000
9,4.7527055563121494e-05,LHS GP + MFIS,5000
9,1.6277538106005155e-05,LHS GP + MFIS,5000
9,3.699656417174e-05,LHS GP + MFIS,5000
9,0.0003453241996289496,LHS GP + MFIS,5000
9,0.00012889401651892962,LHS GP + MFIS,5000
9,0.00015006819866198438,LHS GP + MFIS,5000
9,0.00017996445683602898,LHS GP + MFIS,5000
9,8.202089079278353e-05,LHS GP + MFIS,5000
9,0.00015018531151291393,LHS GP + MFIS,5000
9,5.026123295571788e-05,LHS GP + MFIS,5000
9,8.26705734612407e-05,LHS GP + MFIS,5000
9,0.0001295635147060282,LHS GP + MFIS,5000
9,2.3358281756223403e-05,LHS GP + MFIS,5000
9,0.0002878660558403279,LHS GP + MFIS,5000
9,2.5610412060761943e-05,LHS GP + MFIS,5000
9,2.0241533326482855e-05,LHS GP + MFIS,5000
9,0.00025889310529777446,LHS GP + MFIS,5000
9,7.726590958825712e-06,LHS GP + MFIS,5000
9,0.0001120330119926973,LHS GP + MFIS,5000
9,0.00029610456094075917,LHS GP + MFIS,5000
9,7.87036953482272e-05,LHS GP + MFIS,5000
9,9.351469114858763e-05,LHS GP + MFIS,5000
9,0.00012578922779777745,LHS GP + MFIS,5000
9,1.758554293124822e-05,LHS GP + MFIS,5000
9,1.9069887146364864e-05,LHS GP + MFIS,5000
9,9.409008389194885e-05,LHS GP + MFIS,5000
9,7.084515941423999e-06,LHS GP + MFIS,5000
9,0.00018571685289538197,LHS GP + MFIS,5000
9,0.00013053208441569507,LHS GP + MFIS,5000
9,7.001226527824256e-05,LHS GP + MFIS,5000
9,1.275738235153364e-07,LHS GP + MFIS,5000
9,4.0283293414427636e-05,LHS GP + MFIS,5000
9,1.1187115996294994e-05,LHS GP + MFIS,5000
9,0.00045330428494575413,LHS GP + MFIS,5000
9,0.000104778443189249,LHS GP + MFIS,5000
9,5.725243786878099e-05,LHS GP + MFIS,5000
9,2.7460407748554306e-05,LHS GP + MFIS,5000
9,0.0002272685001593462,LHS GP + MFIS,5000
9,8.553171606468977e-05,LHS GP + MFIS,5000
9,0.00021520707931873867,LHS GP + MFIS,5000
9,8.544646354035625e-05,LHS GP + MFIS,5000
9,0.00012871525924510482,LHS GP + MFIS,5000
9,9.974256046192372e-05,LHS GP + MFIS,5000
9,0.0001315453822594543,LHS GP + MFIS,5000
9,0.00014793612311069957,LHS GP + MFIS,5000
0,0.001,MC,500
0,0.00042857142857142855,MC,500
0,0.001,MC,500
0,0.001,MC,500
0,0.001,MC,500
0,0.00042857142857142855,MC,500
0,0.0018571428571428571,MC,500
0,0.001,MC,500
0,0.001,MC,500
0,0.001,MC,500
0,0.001,MC,500
0,0.00042857142857142855,MC,500
0,0.001,MC,500
0,0.001,MC,500
0,0.00042857142857142855,MC,500
0,0.001,MC,500
0,0.001,MC,500
0,0.001,MC,500
0,0.001,MC,500
0,0.00042857142857142855,MC,500
0,0.00042857142857142855,MC,500
0,0.0018571428571428571,MC,500
0,0.001,MC,500
0,0.00042857142857142855,MC,500
0,0.00042857142857142855,MC,500
0,0.001,MC,500
0,0.001,MC,500
0,0.001,MC,500
0,0.0018571428571428571,MC,500
0,0.0018571428571428571,MC,500
0,0.0018571428571428571,MC,500
0,0.001,MC,500
0,0.001,MC,500
0,0.001,MC,500
0,0.001,MC,500
0,0.00042857142857142855,MC,500
0,0.00042857142857142855,MC,500
0,0.001,MC,500
0,0.001,MC,500
0,0.001,MC,500
0,0.00042857142857142855,MC,500
0,0.001,MC,500
0,0.001,MC,500
0,0.00042857142857142855,MC,500
0,0.00042857142857142855,MC,500
0,0.00042857142857142855,MC,500
0,0.001,MC,500
0,0.001,MC,500
0,0.001,MC,500
0,0.001,MC,500
1,0.001,MC,1000
1,0.0006666666666666668,MC,1000
1,0.00016666666666666663,MC,1000
1,0.001,MC,1000
1,0.001,MC,1000
1,0.0015,MC,1000
1,0.0015,MC,1000
1,0.00016666666666666663,MC,1000
1,0.001,MC,1000
1,0.001,MC,1000
1,0.0006666666666666668,MC,1000
1,0.00016666666666666663,MC,1000
1,0.0006666666666666668,MC,1000
1,0.001,MC,1000
1,0.0006666666666666668,MC,1000
1,0.001,MC,1000
1,0.001,MC,1000
1,0.00016666666666666663,MC,1000
1,0.001,MC,1000
1,0.00016666666666666663,MC,1000
1,0.0006666666666666668,MC,1000
1,0.0015,MC,1000
1,0.00016666666666666663,MC,1000
1,0.0006666666666666668,MC,1000
1,0.0023333333333333335,MC,1000
1,0.001,MC,1000
1,0.001,MC,1000
1,0.00016666666666666663,MC,1000
1,0.0006666666666666668,MC,1000
1,0.0023333333333333335,MC,1000
1,0.0006666666666666668,MC,1000
1,0.001,MC,1000
1,0.00016666666666666663,MC,1000
1,0.001,MC,1000
1,0.00016666666666666663,MC,1000
1,0.00016666666666666663,MC,1000
1,0.00016666666666666663,MC,1000
1,0.001,MC,1000
1,0.0006666666666666668,MC,1000
1,0.001,MC,1000
1,0.00016666666666666663,MC,1000
1,0.001,MC,1000
1,0.001,MC,1000
1,0.00016666666666666663,MC,1000
1,0.0006666666666666668,MC,1000
1,0.00016666666666666663,MC,1000
1,0.001,MC,1000
1,0.00016666666666666663,MC,1000
1,0.001,MC,1000
1,0.00016666666666666663,MC,1000
2,0.000411764705882353,MC,1500
2,0.0007647058823529412,MC,1500
2,0.000411764705882353,MC,1500
2,0.001,MC,1500
2,0.000411764705882353,MC,1500
2,0.0007647058823529412,MC,1500
2,0.001352941176470588,MC,1500
2,0.000411764705882353,MC,1500
2,0.000411764705882353,MC,1500
2,0.001,MC,1500
2,0.000176470588235294,MC,1500
2,0.0007647058823529412,MC,1500
2,0.000176470588235294,MC,1500
2,0.000411764705882353,MC,1500
2,0.000176470588235294,MC,1500
2,0.001,MC,1500
2,0.001,MC,1500
2,0.000411764705882353,MC,1500
2,0.000411764705882353,MC,1500
2,0.000176470588235294,MC,1500
2,0.001352941176470588,MC,1500
2,0.001352941176470588,MC,1500
2,0.000176470588235294,MC,1500
2,0.000176470588235294,MC,1500
2,0.001352941176470588,MC,1500
2,0.001,MC,1500
2,0.001,MC,1500
2,0.000411764705882353,MC,1500
2,0.000176470588235294,MC,1500
2,0.0019411764705882352,MC,1500
2,0.000176470588235294,MC,1500
2,0.001,MC,1500
2,0.000176470588235294,MC,1500
2,0.001,MC,1500
2,0.000411764705882353,MC,1500
2,0.000176470588235294,MC,1500
2,0.000411764705882353,MC,1500
2,0.000411764705882353,MC,1500
2,0.000176470588235294,MC,1500
2,0.000411764705882353,MC,1500
2,0.000411764705882353,MC,1500
2,0.001,MC,1500
2,0.001,MC,1500
2,0.000411764705882353,MC,1500
2,0.000176470588235294,MC,1500
2,0.000411764705882353,MC,1500
2,0.001,MC,1500
2,0.000411764705882353,MC,1500
2,0.000411764705882353,MC,1500
2,0.000411764705882353,MC,1500
3,0.0005454545454545455,MC,2000
3,0.0003636363636363637,MC,2000
3,0.0005454545454545455,MC,2000
3,0.0005454545454545455,MC,2000
3,0.0003636363636363637,MC,2000
3,0.0003636363636363637,MC,2000
3,0.0012727272727272726,MC,2000
3,0.0005454545454545455,MC,2000
3,9.090909090909093e-05,MC,2000
3,0.0005454545454545455,MC,2000
3,9.090909090909093e-05,MC,2000
3,0.0003636363636363637,MC,2000
3,9.090909090909093e-05,MC,2000
3,0.0005454545454545455,MC,2000
3,0.0008181818181818182,MC,2000
3,0.0005454545454545455,MC,2000
3,0.001,MC,2000
3,9.090909090909093e-05,MC,2000
3,0.0005454545454545455,MC,2000
3,9.090909090909093e-05,MC,2000
3,0.0012727272727272726,MC,2000
3,0.0008181818181818182,MC,2000
3,9.090909090909093e-05,MC,2000
3,9.090909090909093e-05,MC,2000
3,0.0012727272727272726,MC,2000
3,0.001,MC,2000
3,0.001,MC,2000
3,0.0005454545454545455,MC,2000
3,9.090909090909093e-05,MC,2000
3,0.0012727272727272726,MC,2000
3,9.090909090909093e-05,MC,2000
3,9.090909090909093e-05,MC,2000
3,0.0003636363636363637,MC,2000
3,0.001,MC,2000
3,0.0005454545454545455,MC,2000
3,9.090909090909093e-05,MC,2000
3,9.090909090909093e-05,MC,2000
3,0.0005454545454545455,MC,2000
3,0.0003636363636363637,MC,2000
3,0.0005454545454545455,MC,2000
3,0.0005454545454545455,MC,2000
3,0.0005454545454545455,MC,2000
3,0.0003636363636363637,MC,2000
3,0.0005454545454545455,MC,2000
3,0.0003636363636363637,MC,2000
3,0.0005454545454545455,MC,2000
3,0.001,MC,2000
3,0.0005454545454545455,MC,2000
3,0.0005454545454545455,MC,2000
3,0.0005454545454545455,MC,2000
4,0.0006296296296296297,MC,2500
4,0.0004814814814814814,MC,2500
4,0.0006296296296296297,MC,2500
4,0.0002592592592592593,MC,2500
4,0.0004814814814814814,MC,2500
4,0.00011111111111111109,MC,2500
4,0.0008518518518518519,MC,2500
4,0.0006296296296296297,MC,2500
4,0.0002592592592592593,MC,2500
4,0.0006296296296296297,MC,2500
4,0.00011111111111111109,MC,2500
4,0.0004814814814814814,MC,2500
4,0.00011111111111111109,MC,2500
4,0.0006296296296296297,MC,2500
4,0.0004814814814814814,MC,2500
4,0.0002592592592592593,MC,2500
4,0.0006296296296296297,MC,2500
4,0.0002592592592592593,MC,2500
4,0.0006296296296296297,MC,2500
4,0.0002592592592592593,MC,2500
4,0.0008518518518518519,MC,2500
4,0.0008518518518518519,MC,2500
4,0.0002592592592592593,MC,2500
4,0.00011111111111111109,MC,2500
4,0.0015925925925925925,MC,2500
4,0.001,MC,2500
4,0.001,MC,2500
4,0.0006296296296296297,MC,2500
4,0.0002592592592592593,MC,2500
4,0.0008518518518518519,MC,2500
4,0.0002592592592592593,MC,2500
4,0.00011111111111111109,MC,2500
4,0.00011111111111111109,MC,2500
4,0.0006296296296296297,MC,2500
4,0.0006296296296296297,MC,2500
4,0.0002592592592592593,MC,2500
4,0.0004814814814814814,MC,2500
4,0.0002592592592592593,MC,2500
4,0.0004814814814814814,MC,2500
4,0.0002592592592592593,MC,2500
4,0.0002592592592592593,MC,2500
4,0.0002592592592592593,MC,2500
4,0.00011111111111111109,MC,2500
4,0.0006296296296296297,MC,2500
4,0.0004814814814814814,MC,2500
4,0.0002592592592592593,MC,2500
4,0.0006296296296296297,MC,2500
4,0.0002592592592592593,MC,2500
4,0.0002592592592592593,MC,2500
4,0.0006296296296296297,MC,2500
5,0.0006875,MC,3000
5,0.0005625000000000001,MC,3000
5,0.000375,MC,3000
5,0.000375,MC,3000
5,0.00025,MC,3000
5,6.250000000000006e-05,MC,3000
5,0.0005625000000000001,MC,3000
5,0.0006875,MC,3000
5,0.000375,MC,3000
5,0.0006875,MC,3000
5,6.250000000000006e-05,MC,3000
5,0.0005625000000000001,MC,3000
5,6.250000000000006e-05,MC,3000
5,0.0006875,MC,3000
5,0.0005625000000000001,MC,3000
5,0.000375,MC,3000
5,0.000375,MC,3000
5,0.000375,MC,3000
5,0.0006875,MC,3000
5,6.250000000000006e-05,MC,3000
5,0.0008749999999999999,MC,3000
5,0.0005625000000000001,MC,3000
5,0.000375,MC,3000
5,6.250000000000006e-05,MC,3000
5,0.0015,MC,3000
5,0.0006875,MC,3000
5,0.001,MC,3000
5,0.0006875,MC,3000
5,6.250000000000006e-05,MC,3000
5,0.0005625000000000001,MC,3000
5,6.250000000000006e-05,MC,3000
5,0.00025,MC,3000
5,6.250000000000006e-05,MC,3000
5,0.00025,MC,3000
5,0.000375,MC,3000
5,0.000375,MC,3000
5,0.00025,MC,3000
5,0.000375,MC,3000
5,0.00025,MC,3000
5,0.000375,MC,3000
5,0.000375,MC,3000
5,6.250000000000006e-05,MC,3000
5,0.00025,MC,3000
5,0.0006875,MC,3000
5,0.0005625000000000001,MC,3000
5,0.000375,MC,3000
5,0.000375,MC,3000
5,0.000375,MC,3000
5,0.000375,MC,3000
5,6.250000000000006e-05,MC,3000
6,0.0007297297297297297,MC,3500
6,0.0006216216216216215,MC,3500
6,8.108108108108108e-05,MC,3500
6,0.00045945945945945947,MC,3500
6,0.0006216216216216215,MC,3500
6,0.00018918918918918925,MC,3500
6,0.0003513513513513514,MC,3500
6,0.0007297297297297297,MC,3500
6,0.00045945945945945947,MC,3500
6,0.0007297297297297297,MC,3500
6,0.00018918918918918925,MC,3500
6,0.0003513513513513514,MC,3500
6,8.108108108108108e-05,MC,3500
6,0.0007297297297297297,MC,3500
6,0.0006216216216216215,MC,3500
6,0.00045945945945945947,MC,3500
6,0.00045945945945945947,MC,3500
6,0.00045945945945945947,MC,3500
6,0.0007297297297297297,MC,3500
6,0.00018918918918918925,MC,3500
6,0.0011621621621621622,MC,3500
6,0.0006216216216216215,MC,3500
6,8.108108108108108e-05,MC,3500
6,0.0003513513513513514,MC,3500
6,0.0014324324324324323,MC,3500
6,0.0007297297297297297,MC,3500
6,0.001,MC,3500
6,0.0007297297297297297,MC,3500
6,0.0006216216216216215,MC,3500
6,0.0003513513513513514,MC,3500
6,8.108108108108108e-05,MC,3500
6,8.108108108108108e-05,MC,3500
6,0.0003513513513513514,MC,3500
6,8.108108108108108e-05,MC,3500
6,0.00045945945945945947,MC,3500
6,0.00045945945945945947,MC,3500
6,0.0006216216216216215,MC,3500
6,0.00045945945945945947,MC,3500
6,0.0003513513513513514,MC,3500
6,0.00018918918918918925,MC,3500
6,0.00045945945945945947,MC,3500
6,0.00018918918918918925,MC,3500
6,8.108108108108108e-05,MC,3500
6,0.0007297297297297297,MC,3500
6,0.0003513513513513514,MC,3500
6,0.00018918918918918925,MC,3500
6,0.00018918918918918925,MC,3500
6,0.00045945945945945947,MC,3500
6,0.00045945945945945947,MC,3500
6,0.0003513513513513514,MC,3500
7,0.0007619047619047619,MC,4000
7,0.00042857142857142855,MC,4000
7,4.761904761904764e-05,MC,4000
7,0.00028571428571428574,MC,4000
7,0.00042857142857142855,MC,4000
7,0.00028571428571428574,MC,4000
7,0.00019047619047619056,MC,4000
7,0.0007619047619047619,MC,4000
7,0.0005238095238095238,MC,4000
7,0.0005238095238095238,MC,4000
7,0.00028571428571428574,MC,4000
7,0.00042857142857142855,MC,4000
7,4.761904761904764e-05,MC,4000
7,0.0007619047619047619,MC,4000
7,0.00042857142857142855,MC,4000
7,0.0005238095238095238,MC,4000
7,0.00028571428571428574,MC,4000
7,0.0005238095238095238,MC,4000
7,0.0007619047619047619,MC,4000
7,0.00028571428571428574,MC,4000
7,0.0009047619047619047,MC,4000
7,0.0006666666666666668,MC,4000
7,0.00019047619047619056,MC,4000
7,0.0006666666666666668,MC,4000
7,0.001142857142857143,MC,4000
7,0.0005238095238095238,MC,4000
7,0.0007619047619047619,MC,4000
7,0.0007619047619047619,MC,4000
7,0.001142857142857143,MC,4000
7,0.00019047619047619056,MC,4000
7,0.00019047619047619056,MC,4000
7,4.761904761904764e-05,MC,4000
7,0.0006666666666666668,MC,4000
7,0.00019047619047619056,MC,4000
7,4.761904761904764e-05,MC,4000
7,0.0005238095238095238,MC,4000
7,0.00042857142857142855,MC,4000
7,4.761904761904764e-05,MC,4000
7,0.00019047619047619056,MC,4000
7,0.00028571428571428574,MC,4000
7,0.0005238095238095238,MC,4000
7,0.00028571428571428574,MC,4000
7,4.761904761904764e-05,MC,4000
7,0.0005238095238095238,MC,4000
7,0.00019047619047619056,MC,4000
7,0.00028571428571428574,MC,4000
7,0.00028571428571428574,MC,4000
7,0.0005238095238095238,MC,4000
7,0.0005238095238095238,MC,4000
7,0.00019047619047619056,MC,4000
8,0.0007872340425531915,MC,4500
8,0.000276595744680851,MC,4500
8,6.382978723404255e-05,MC,4500
8,0.0003617021276595745,MC,4500
8,0.000276595744680851,MC,4500
8,0.0003617021276595745,MC,4500
8,6.382978723404255e-05,MC,4500
8,0.0007872340425531915,MC,4500
8,0.000574468085106383,MC,4500
8,0.0003617021276595745,MC,4500
8,0.0003617021276595745,MC,4500
8,0.000702127659574468,MC,4500
8,0.000276595744680851,MC,4500
8,0.0007872340425531915,MC,4500
8,0.000276595744680851,MC,4500
8,0.0003617021276595745,MC,4500
8,0.000276595744680851,MC,4500
8,0.0003617021276595745,MC,4500
8,0.000574468085106383,MC,4500
8,0.0003617021276595745,MC,4500
8,0.000702127659574468,MC,4500
8,0.000702127659574468,MC,4500
8,0.000276595744680851,MC,4500
8,0.000702127659574468,MC,4500
8,0.0011276595744680851,MC,4500
8,0.000574468085106383,MC,4500
8,0.000574468085106383,MC,4500
8,0.000574468085106383,MC,4500
8,0.0009148936170212765,MC,4500
8,0.0004893617021276596,MC,4500
8,6.382978723404255e-05,MC,4500
8,0.00014893617021276599,MC,4500
8,0.0004893617021276596,MC,4500
8,0.000276595744680851,MC,4500
8,0.00014893617021276599,MC,4500
8,0.000574468085106383,MC,4500
8,0.000276595744680851,MC,4500
8,0.000276595744680851,MC,4500
8,6.382978723404255e-05,MC,4500
8,0.0003617021276595745,MC,4500
8,0.0003617021276595745,MC,4500
8,0.0003617021276595745,MC,4500
8,0.00014893617021276599,MC,4500
8,0.000574468085106383,MC,4500
8,6.382978723404255e-05,MC,4500
8,6.382978723404255e-05,MC,4500
8,0.00014893617021276599,MC,4500
8,0.000574468085106383,MC,4500
8,0.000574468085106383,MC,4500
8,0.0004893617021276596,MC,4500
9,0.0008076923076923077,MC,5000
9,0.00015384615384615393,MC,5000
9,3.846153846153843e-05,MC,5000
9,0.00042307692307692304,MC,5000
9,0.0003461538461538461,MC,5000
9,0.0002307692307692308,MC,5000
9,0.00015384615384615393,MC,5000
9,0.0008076923076923077,MC,5000
9,0.0002307692307692308,MC,5000
9,0.00042307692307692304,MC,5000
9,0.00042307692307692304,MC,5000
9,0.0007307692307692308,MC,5000
9,0.0003461538461538461,MC,5000
9,0.0008076923076923077,MC,5000
9,0.00015384615384615393,MC,5000
9,0.00042307692307692304,MC,5000
9,0.00015384615384615393,MC,5000
9,3.846153846153843e-05,MC,5000
9,0.00042307692307692304,MC,5000
9,0.0002307692307692308,MC,5000
9,0.0007307692307692308,MC,5000
9,0.0005384615384615384,MC,5000
9,0.00015384615384615393,MC,5000
9,0.0005384615384615384,MC,5000
9,0.0009230769230769232,MC,5000
9,0.00042307692307692304,MC,5000
9,0.00042307692307692304,MC,5000
9,0.00042307692307692304,MC,5000
9,0.0007307692307692308,MC,5000
9,0.0003461538461538461,MC,5000
9,3.846153846153843e-05,MC,5000
9,0.0002307692307692308,MC,5000
9,0.0005384615384615384,MC,5000
9,0.00015384615384615393,MC,5000
9,0.0002307692307692308,MC,5000
9,0.0006153846153846154,MC,5000
9,0.00015384615384615393,MC,5000
9,0.00015384615384615393,MC,5000
9,3.846153846153843e-05,MC,5000
9,0.00042307692307692304,MC,5000
9,0.0002307692307692308,MC,5000
9,0.00042307692307692304,MC,5000
9,0.0002307692307692308,MC,5000
9,0.0006153846153846154,MC,5000
9,0.00015384615384615393,MC,5000
9,0.0003461538461538461,MC,5000
9,0.0002307692307692308,MC,5000
9,0.00042307692307692304,MC,5000
9,0.00042307692307692304,MC,5000
9,0.0005384615384615384,MC,5000
