0.000000000000000000e+00,3.992210321324245192e-02,1.557935735150925149e-01,3.018500486854917148e-02,2.171372930866601880e-01,2.307692307692307820e-01,2.259006815968841175e-01,2.385589094449853953e-01,2.872444011684517906e-01,1.645569620253164445e-01,1.645569620253164445e-01,1.791626095423563825e-01,1.811100292112950427e-01,4.878286270691333804e-01,5.150925024342746239e-01,5.180136319376825726e-01,4.936708860759493889e-01,8.393378773125608205e-01,8.305744888023368633e-01,8.510223953261928376e-01,8.539435248296007863e-01,8.578383641674780513e-01,8.373904576436221880e-01,8.568646543330087351e-01,8.792599805258033419e-01,9.191820837390457521e-01,9.016553067185978376e-01,9.133398247322297436e-01,9.318403115871470854e-01,9.561830574488802137e-01,9.756572541382667607e-01,9.873417721518987777e-01,9.941577409931839915e-01,9.892891918208374102e-01,9.970788704965920513e-01
0.000000000000000000e+00,0.000000000000000000e+00,0.000000000000000000e+00,1.090555014605647521e-01,2.482960077896786688e-01,2.093476144109055470e-01,2.327166504381694145e-01,2.492697176241480128e-01,3.885102239532619017e-01,4.741966893865627863e-01,4.371957156767283248e-01,4.303797468354430555e-01,6.679649464459590513e-01,6.864654333008763931e-01,6.942551119766309231e-01,8.042843232716649915e-01,7.896786757546251367e-01,7.828627069133398120e-01,8.997078870496592051e-01,8.928919182083738804e-01,8.977604673807205726e-01,8.880233690360272991e-01,8.977604673807205726e-01,8.997078870496592051e-01,9.259980525803310769e-01,9.259980525803310769e-01,9.308666017526776582e-01,9.386562804284322992e-01,9.766309639727360770e-01,9.814995131450827692e-01,9.844206426484907180e-01,9.892891918208374102e-01,9.844206426484907180e-01,9.863680623174294615e-01,9.785783836416748205e-01
0.000000000000000000e+00,0.000000000000000000e+00,0.000000000000000000e+00,0.000000000000000000e+00,0.000000000000000000e+00,0.000000000000000000e+00,0.000000000000000000e+00,0.000000000000000000e+00,2.229795520934761410e-01,2.366114897760467350e-01,3.690360272638753547e-01,4.469328140214215983e-01,4.751703992210321581e-01,4.751703992210321581e-01,5.647517039922103077e-01,5.851996105160661710e-01,5.910418695228821795e-01,5.910418695228821795e-01,5.900681596884128632e-01,5.910418695228821795e-01,6.407010710808178633e-01,8.042843232716649915e-01,8.130477117818889488e-01,9.425511197663096752e-01,9.376825705939629829e-01,9.493670886075948889e-01,9.639727361246348547e-01,9.561830574488802137e-01,9.591041869522882735e-01,9.678675754625121197e-01,9.668938656280428035e-01,9.620253164556962222e-01,9.620253164556962222e-01,9.639727361246348547e-01,9.649464459591041710e-01
0.000000000000000000e+00,0.000000000000000000e+00,1.217137293086660160e-01,1.217137293086660160e-01,1.353456669912366239e-01,1.353456669912366239e-01,6.329113924050633333e-02,7.984420642648490385e-02,8.471275559883155448e-02,9.444985394352482799e-02,8.860759493670886111e-02,9.639727361246348825e-02,3.096397273612463419e-01,2.814021421616358376e-01,3.057448880233690214e-01,3.398247322297955342e-01,3.612463485881207137e-01,4.323271665043816880e-01,6.728334956183057436e-01,7.185978578383641624e-01,8.257059396299902820e-01,8.510223953261928376e-01,8.656280428432326923e-01,8.958130477117819401e-01,9.065238558909445299e-01,9.094449853943524786e-01,9.561830574488802137e-01,9.649464459591041710e-01,9.707887049659201795e-01,9.746835443037974445e-01,9.668938656280428035e-01,9.805258033106134530e-01,9.853943524829600342e-01,9.863680623174294615e-01,9.863680623174294615e-01
0.000000000000000000e+00,0.000000000000000000e+00,0.000000000000000000e+00,0.000000000000000000e+00,2.035053554040895940e-01,2.317429406037000983e-01,2.375851996105160790e-01,2.599805258033106026e-01,2.453748782862706923e-01,2.317429406037000983e-01,2.609542356377799188e-01,2.229795520934761410e-01,5.034079844206426069e-01,4.956183057448880214e-01,5.014605647517039744e-01,5.034079844206426069e-01,5.345666991236611709e-01,7.994157740993184103e-01,8.344693281402142393e-01,8.334956183057449230e-01,8.597857838364167948e-01,8.179162609542356410e-01,8.208373904576435898e-01,8.169425511197663248e-01,8.198636806231742735e-01,8.588120740019473676e-01,9.240506329113924444e-01,9.298928919182083419e-01,9.396299902629016154e-01,9.298928919182083419e-01,9.746835443037974445e-01,9.756572541382667607e-01,9.678675754625121197e-01,9.639727361246348547e-01,9.639727361246348547e-01
0.000000000000000000e+00,1.119766309639727425e-01,1.051606621226874455e-01,7.984420642648490385e-02,8.081791626095423398e-02,1.752677702044790620e-01,2.609542356377799188e-01,2.784810126582278333e-01,2.794547224926971496e-01,2.794547224926971496e-01,2.901655306718597949e-01,2.375851996105160790e-01,2.414800389483933718e-01,2.999026290165530684e-01,2.852969814995131581e-01,2.862706913339824744e-01,2.862706913339824744e-01,2.843232716650438419e-01,2.882181110029211069e-01,5.335929892891918547e-01,5.316455696202531112e-01,7.770204479065238035e-01,8.033106134371956752e-01,8.841285296981499231e-01,9.415774099318403589e-01,9.493670886075948889e-01,9.610516066212269060e-01,9.659201557935734872e-01,9.776046738072055042e-01,9.805258033106134530e-01,9.853943524829600342e-01,9.834469328140214017e-01,9.873417721518987777e-01,9.951314508276533077e-01,9.970788704965920513e-01
0.000000000000000000e+00,0.000000000000000000e+00,0.000000000000000000e+00,7.302823758519960684e-02,2.424537487828627158e-01,2.424537487828627158e-01,2.424537487828627158e-01,2.414800389483933718e-01,2.356377799415774188e-01,2.823758519961051539e-01,3.115871470301850299e-01,3.203505355404089316e-01,2.891918208373904786e-01,2.784810126582278333e-01,2.814021421616358376e-01,4.303797468354430555e-01,5.024342745861732906e-01,4.829600778967867436e-01,7.565725413826679402e-01,7.507302823758520427e-01,7.517039922103213589e-01,7.711781888997079060e-01,7.663096397273612137e-01,7.731256085686465385e-01,7.828627069133398120e-01,7.955209347614411453e-01,8.023369036027263590e-01,8.081791626095423675e-01,8.276533592989289145e-01,8.451801363193768291e-01,8.442064264849075128e-01,8.461538461538461453e-01,9.756572541382667607e-01,9.785783836416748205e-01,9.814995131450827692e-01
0.000000000000000000e+00,4.849074975657254316e-01,1.012658227848101250e-01,5.258033106134372275e-02,2.327166504381694145e-01,4.605647517039921923e-01,6.212268743914313163e-01,5.540408958130477179e-01,5.355404089581304872e-01,5.520934761441090854e-01,7.916260954235637692e-01,7.916260954235637692e-01,8.257059396299902820e-01,8.510223953261928376e-01,7.565725413826679402e-01,7.380720545277507094e-01,6.962025316455696666e-01,6.806231742940603846e-01,6.611489776046738376e-01,6.582278481012657778e-01,6.387536514118792308e-01,6.183057448880233675e-01,6.397273612463485470e-01,8.889970788704966154e-01,8.899707887049659316e-01,9.201557935735150684e-01,9.318403115871470854e-01,9.883154819863680940e-01,9.863680623174294615e-01,9.922103213242453590e-01,9.922103213242453590e-01,9.863680623174294615e-01,9.863680623174294615e-01,9.892891918208374102e-01,9.883154819863680940e-01
0.000000000000000000e+00,0.000000000000000000e+00,0.000000000000000000e+00,0.000000000000000000e+00,2.823758519961051469e-02,4.284323271665043537e-02,2.064264849074975705e-01,2.638753651411879231e-01,2.424537487828627158e-01,2.541382667964946496e-01,4.995131450827653419e-01,4.021421616358324957e-01,2.882181110029211069e-01,2.911392405063291111e-01,5.803310613437195897e-01,7.117818889970788376e-01,7.458617332035053504e-01,7.653359298928918975e-01,7.672833495618305300e-01,7.838364167478091282e-01,7.322297955209348119e-01,7.497565725413826154e-01,7.594936708860760000e-01,7.565725413826679402e-01,7.770204479065238035e-01,7.818889970788704957e-01,8.675754625121713248e-01,8.763388510223952821e-01,8.870496592015579829e-01,9.376825705939629829e-01,9.503407984420643162e-01,9.591041869522882735e-01,9.620253164556962222e-01,9.678675754625121197e-01,9.688412852969815470e-01
0.000000000000000000e+00,0.000000000000000000e+00,0.000000000000000000e+00,0.000000000000000000e+00,0.000000000000000000e+00,2.142161635832521838e-01,2.395326192794547115e-01,2.619279454722492906e-01,4.586173320350535598e-01,4.294060370009736838e-01,4.255111976630964188e-01,4.371957156767283248e-01,4.498539435248296026e-01,4.527750730282376068e-01,5.598831548198637265e-01,5.540408958130477179e-01,5.900681596884128632e-01,5.832521908471275385e-01,5.890944498539435470e-01,6.825705939629990171e-01,6.971762414800389829e-01,8.812074001947419744e-01,8.802336903602726581e-01,8.909444985394352479e-01,8.821811100292112906e-01,8.792599805258033419e-01,9.406037000973709317e-01,9.250243427458617607e-01,9.279454722492697094e-01,9.367088607594936667e-01,9.396299902629016154e-01,9.863680623174294615e-01,9.931840311587146752e-01,9.717624148003894957e-01,9.756572541382667607e-01
0.000000000000000000e+00,0.000000000000000000e+00,5.842259006815968617e-03,2.132424537487828675e-01,2.035053554040895940e-01,4.771178188899707906e-01,5.861733203505354872e-01,6.621226874391431538e-01,6.397273612463485470e-01,6.543330087633885128e-01,7.224926971762414274e-01,7.205452775073027949e-01,7.322297955209348119e-01,7.702044790652385897e-01,8.042843232716649915e-01,7.799415774099318632e-01,7.838364167478091282e-01,8.140214216163583760e-01,9.318403115871470854e-01,9.308666017526776582e-01,9.182083739045764359e-01,9.055501460564752136e-01,9.688412852969815470e-01,9.649464459591041710e-01,9.367088607594936667e-01,9.756572541382667607e-01,9.756572541382667607e-01,9.941577409931839915e-01,9.561830574488802137e-01,9.600778967867575897e-01,9.591041869522882735e-01,9.629990262901655385e-01,9.931840311587146752e-01,9.931840311587146752e-01,9.941577409931839915e-01
0.000000000000000000e+00,0.000000000000000000e+00,1.402142161635832607e-01,1.372930866601752564e-01,1.733203505355404017e-01,1.480038948393378739e-01,2.025316455696202500e-01,3.213242453748783034e-01,3.281402142161635727e-01,3.300876338851022607e-01,3.369036027263875299e-01,6.679649464459590513e-01,6.796494644595910684e-01,6.689386562804284786e-01,8.091528724440116838e-01,7.935735150925024017e-01,8.412852969814995641e-01,8.344693281402142393e-01,8.208373904576435898e-01,9.279454722492697094e-01,9.308666017526776582e-01,9.454722492697176239e-01,9.493670886075948889e-01,9.542356377799415812e-01,9.532619279454722649e-01,9.522882181110029487e-01,9.513145082765336324e-01,9.688412852969815470e-01,9.853943524829600342e-01,9.834469328140214017e-01,9.883154819863680940e-01,9.814995131450827692e-01,9.805258033106134530e-01,9.912366114897760427e-01,9.922103213242453590e-01
0.000000000000000000e+00,0.000000000000000000e+00,1.343719571567672799e-01,1.986368062317429295e-01,3.417721518987341667e-01,4.225900681596884145e-01,4.430379746835442778e-01,4.391431353456670128e-01,4.391431353456670128e-01,4.401168451801363291e-01,4.401168451801363291e-01,4.615384615384615641e-01,4.605647517039921923e-01,5.092502434274586154e-01,5.092502434274586154e-01,5.092502434274586154e-01,5.929892891918208120e-01,5.910418695228821795e-01,5.910418695228821795e-01,5.939629990262901282e-01,5.929892891918208120e-01,5.793573515092502735e-01,5.890944498539435470e-01,7.809152872444011795e-01,8.500486854917235213e-01,7.906523855890944530e-01,8.334956183057449230e-01,8.529698149951314701e-01,8.529698149951314701e-01,8.588120740019473676e-01,8.617332035053554273e-01,8.481012658227847778e-01,8.305744888023368633e-01,8.393378773125608205e-01,9.152872444011684872e-01
0.000000000000000000e+00,0.000000000000000000e+00,0.000000000000000000e+00,2.482960077896786688e-01,2.327166504381694145e-01,3.592989289191820812e-01,4.712755598831548376e-01,4.673807205452775171e-01,4.800389483933787949e-01,5.813047711781889060e-01,5.628042843232716752e-01,5.180136319376825726e-01,5.316455696202531112e-01,5.326192794547225384e-01,5.287244401168451624e-01,5.296981499513144787e-01,5.335929892891918547e-01,7.176241480038948461e-01,7.117818889970788376e-01,7.185978578383641624e-01,7.526777020447906752e-01,7.478091528724439829e-01,7.546251217137293077e-01,7.614410905550146325e-01,7.994157740993184103e-01,8.383641674780915043e-01,8.578383641674780513e-01,9.483933787731255727e-01,9.522882181110029487e-01,9.503407984420643162e-01,9.503407984420643162e-01,9.717624148003894957e-01,9.785783836416748205e-01,9.853943524829600342e-01,9.941577409931839915e-01
0.000000000000000000e+00,1.032132424537487853e-01,2.239532619279454850e-01,1.762414800389484060e-01,2.181110029211295043e-01,1.752677702044790620e-01,2.706913339824732478e-01,2.726387536514118803e-01,2.687439143135345598e-01,2.989289191820837521e-01,3.008763388510223846e-01,2.833495618305744701e-01,2.911392405063291111e-01,2.706913339824732478e-01,3.485881207400194914e-01,3.631937682570594017e-01,3.787731256085686282e-01,3.816942551119766325e-01,5.092502434274586154e-01,6.738072054527750598e-01,6.952288218111002394e-01,7.682570593962999572e-01,8.003894839337877265e-01,7.887049659201558205e-01,7.955209347614411453e-01,7.896786757546251367e-01,8.393378773125608205e-01,8.393378773125608205e-01,9.123661148977604274e-01,9.172346640701071196e-01,9.259980525803310769e-01,9.240506329113924444e-01,9.240506329113924444e-01,9.542356377799415812e-01,9.561830574488802137e-01
0.000000000000000000e+00,4.537487828627069231e-01,2.356377799415774188e-01,5.910418695228821795e-01,3.184031158714702991e-01,3.232716650438169359e-01,3.184031158714702991e-01,2.989289191820837521e-01,2.921129503407984274e-01,2.405063291139240556e-01,2.482960077896786688e-01,2.190847127555988205e-01,2.444011684518013761e-01,2.482960077896786688e-01,3.456669912366114872e-01,4.722492697176241538e-01,4.858812074001947479e-01,5.374878286270691197e-01,5.676728334956182564e-01,5.520934761441090854e-01,5.579357351509249829e-01,5.774099318403116410e-01,5.725413826679649487e-01,5.628042843232716752e-01,5.657254138266796240e-01,7.682570593962999572e-01,7.750730282375851710e-01,7.721518987341772222e-01,7.594936708860760000e-01,7.672833495618305300e-01,7.779941577409932307e-01,8.149951314508276923e-01,8.198636806231742735e-01,8.519961051606621538e-01,9.503407984420643162e-01
0.000000000000000000e+00,0.000000000000000000e+00,1.051606621226874455e-01,1.246348588120740064e-01,8.860759493670886111e-02,1.772151898734177222e-01,1.295034079844206432e-01,2.210321324245374808e-01,1.869522882181109957e-01,1.996105160662122735e-01,4.294060370009736838e-01,4.274586173320350513e-01,3.962999026290165427e-01,5.180136319376825726e-01,5.248296007789678974e-01,5.637779941577409915e-01,5.053554040895813504e-01,6.037000973709834017e-01,6.397273612463485470e-01,6.621226874391431538e-01,6.630963972736124701e-01,6.630963972736124701e-01,6.689386562804284786e-01,6.884128529698150256e-01,7.137293086660175812e-01,7.565725413826679402e-01,8.656280428432326923e-01,9.250243427458617607e-01,9.152872444011684872e-01,9.386562804284322992e-01,9.435248296007789914e-01,9.649464459591041710e-01,9.727361246348588120e-01,9.853943524829600342e-01,9.853943524829600342e-01
0.000000000000000000e+00,0.000000000000000000e+00,1.002921129503407949e-01,5.160662122687439263e-02,9.834469328140214850e-02,1.032132424537487853e-01,2.239532619279454850e-01,2.249269717624148013e-01,2.229795520934761410e-01,1.587147030185004914e-01,2.035053554040895940e-01,2.210321324245374808e-01,2.181110029211295043e-01,3.563777994157740769e-01,5.394352482960077522e-01,6.436222005842259231e-01,6.387536514118792308e-01,7.176241480038948461e-01,7.127555988315481539e-01,8.198636806231742735e-01,8.432327166504381966e-01,8.422590068159688803e-01,8.636806231742940598e-01,8.675754625121713248e-01,8.685491723466407521e-01,9.814995131450827692e-01,9.912366114897760427e-01,9.941577409931839915e-01,9.922103213242453590e-01,9.931840311587146752e-01,9.931840311587146752e-01,9.961051606621227350e-01,9.912366114897760427e-01,9.941577409931839915e-01,9.922103213242453590e-01
0.000000000000000000e+00,0.000000000000000000e+00,0.000000000000000000e+00,4.780915287244401068e-01,4.576436222005842436e-01,2.132424537487828675e-01,2.161635832521908440e-01,1.908471275559883162e-01,1.372930866601752564e-01,1.285296981499513269e-01,9.737098344693281837e-02,1.061343719571567618e-01,1.139240506329113889e-01,3.018500486854917009e-01,3.924050632911392222e-01,3.904576436222005897e-01,5.900681596884128632e-01,6.699123661148977948e-01,7.594936708860760000e-01,7.429406037000974017e-01,7.818889970788704957e-01,7.711781888997079060e-01,7.838364167478091282e-01,8.490749756572540941e-01,8.967867575462512564e-01,9.289191820837390257e-01,9.522882181110029487e-01,9.776046738072055042e-01,9.912366114897760427e-01,9.941577409931839915e-01,9.931840311587146752e-01,9.922103213242453590e-01,9.931840311587146752e-01,9.931840311587146752e-01,9.922103213242453590e-01
9.444985394352482799e-02,6.426484907497566346e-02,8.373904576436222436e-02,7.497565725413826709e-02,7.497565725413826709e-02,1.100292112950340823e-01,1.022395326192794551e-01,1.022395326192794551e-01,1.032132424537487853e-01,1.684518013631937650e-01,1.655306718597857885e-01,4.741966893865627863e-01,4.917234664070107009e-01,6.738072054527750598e-01,6.708860759493671111e-01,6.815968841285297009e-01,7.030185004868548804e-01,8.617332035053554273e-01,9.542356377799415812e-01,9.629990262901655385e-01,9.756572541382667607e-01,9.688412852969815470e-01,9.707887049659201795e-01,9.698149951314508632e-01,9.727361246348588120e-01,9.678675754625121197e-01,9.698149951314508632e-01,9.795520934761441367e-01,9.873417721518987777e-01,9.863680623174294615e-01,9.892891918208374102e-01,9.892891918208374102e-01,9.902629016553067265e-01,9.902629016553067265e-01,9.922103213242453590e-01
0.000000000000000000e+00,0.000000000000000000e+00,0.000000000000000000e+00,0.000000000000000000e+00,0.000000000000000000e+00,3.690360272638753547e-01,3.359298928919182137e-01,4.595910418695228761e-01,5.189873417721518889e-01,4.741966893865627863e-01,4.664070107108082008e-01,4.712755598831548376e-01,5.189873417721518889e-01,5.423563777994158119e-01,7.916260954235637692e-01,7.672833495618305300e-01,8.140214216163583760e-01,8.072054527750730513e-01,8.003894839337877265e-01,8.072054527750730513e-01,7.877312560856865042e-01,8.003894839337877265e-01,7.955209347614411453e-01,8.130477117818889488e-01,8.208373904576435898e-01,9.211295034079843846e-01,9.396299902629016154e-01,9.483933787731255727e-01,9.503407984420643162e-01,9.513145082765336324e-01,9.552093476144108974e-01,9.678675754625121197e-01,9.688412852969815470e-01,9.941577409931839915e-01,9.912366114897760427e-01
0.000000000000000000e+00,0.000000000000000000e+00,0.000000000000000000e+00,0.000000000000000000e+00,0.000000000000000000e+00,1.207400194741966859e-01,1.207400194741966859e-01,3.515092502434274402e-01,3.641674780915287180e-01,3.612463485881207137e-01,3.680623174294060385e-01,3.670886075949367222e-01,4.605647517039921923e-01,6.786757546251217521e-01,5.170399221032132564e-01,5.150925024342746239e-01,5.433300876338851282e-01,6.630963972736124701e-01,6.144109055501461025e-01,6.085686465433300940e-01,6.153846153846154188e-01,6.445959104186952393e-01,6.387536514118792308e-01,6.056475170399221453e-01,9.376825705939629829e-01,9.620253164556962222e-01,9.571567672833495299e-01,9.581304771178188462e-01,9.668938656280428035e-01,9.824732229795520855e-01,9.814995131450827692e-01,9.834469328140214017e-01,9.805258033106134530e-01,9.844206426484907180e-01,9.892891918208374102e-01
0.000000000000000000e+00,4.381694255111976549e-02,1.304771178188899594e-01,3.427458617332034829e-01,3.485881207400194914e-01,3.719571567672833590e-01,3.729308666017526752e-01,4.196689386562804103e-01,4.206426484907497820e-01,4.089581304771178205e-01,5.384615384615384359e-01,4.936708860759493889e-01,6.825705939629990171e-01,6.621226874391431538e-01,6.426484907497566068e-01,6.475170399221031881e-01,6.660175267770204188e-01,6.465433300876338718e-01,7.137293086660175812e-01,7.370983446932813932e-01,7.964946445959104615e-01,7.887049659201558205e-01,8.919182083739045641e-01,9.386562804284322992e-01,9.191820837390457521e-01,9.279454722492697094e-01,9.367088607594936667e-01,9.493670886075948889e-01,9.513145082765336324e-01,9.376825705939629829e-01,9.425511197663096752e-01,9.444985394352483077e-01,9.571567672833495299e-01,9.678675754625121197e-01,9.659201557935734872e-01
0.000000000000000000e+00,0.000000000000000000e+00,0.000000000000000000e+00,0.000000000000000000e+00,8.081791626095423398e-02,1.518987341772151944e-01,2.025316455696202500e-01,3.563777994157740769e-01,5.102239532619279316e-01,5.530671859785784017e-01,4.556962025316455556e-01,3.320350535540408932e-01,4.050632911392405000e-01,4.449853943524829658e-01,4.693281402142161496e-01,6.786757546251217521e-01,6.679649464459590513e-01,6.669912366114897351e-01,6.747809152872443761e-01,5.910418695228821795e-01,5.647517039922103077e-01,5.842259006815968547e-01,5.696202531645570000e-01,6.027263875365140855e-01,7.224926971762414274e-01,8.276533592989289145e-01,8.354430379746835555e-01,8.286270691333982308e-01,8.266796494644595983e-01,8.276533592989289145e-01,8.276533592989289145e-01,8.257059396299902820e-01,8.198636806231742735e-01,8.510223953261928376e-01,8.373904576436221880e-01
0.000000000000000000e+00,0.000000000000000000e+00,0.000000000000000000e+00,0.000000000000000000e+00,0.000000000000000000e+00,6.815968841285297009e-02,1.032132424537487853e-01,1.032132424537487853e-01,1.012658227848101250e-01,1.002921129503407949e-01,1.012658227848101250e-01,1.090555014605647521e-01,2.035053554040895940e-01,1.002921129503407949e-01,1.012658227848101250e-01,9.931840311587146475e-02,9.347614410905549787e-02,9.542356377799415812e-02,9.639727361246348825e-02,2.336903602726387585e-01,4.099318403115871368e-01,3.807205452775073162e-01,6.708860759493671111e-01,7.088607594936708889e-01,7.604673807205453162e-01,6.815968841285297009e-01,6.932814021421616069e-01,6.884128529698150256e-01,7.020447906523855641e-01,7.098344693281402051e-01,7.887049659201558205e-01,8.218111002921129060e-01,8.159688412852970085e-01,8.091528724440116838e-01,7.867575462512171880e-01
0.000000000000000000e+00,2.112950340798442073e-01,2.015579357351509338e-01,2.960077896786757479e-01,2.268743914313534615e-01,3.281402142161635727e-01,3.252190847127556239e-01,3.680623174294060385e-01,3.904576436222005897e-01,3.729308666017526752e-01,4.527750730282376068e-01,5.082765335929892991e-01,5.102239532619279316e-01,4.907497565725413846e-01,4.673807205452775171e-01,4.683544303797468333e-01,4.771178188899707906e-01,4.508276533592989188e-01,3.777994157740993120e-01,4.381694255111976410e-01,8.013631937682570427e-01,7.312560856864653847e-01,7.614410905550146325e-01,8.286270691333982308e-01,8.257059396299902820e-01,8.471275559883154616e-01,7.740993184031158547e-01,7.964946445959104615e-01,7.964946445959104615e-01,8.364167478091528718e-01,9.026290165530671539e-01,9.493670886075948889e-01,9.396299902629016154e-01,9.668938656280428035e-01,9.513145082765336324e-01
0.000000000000000000e+00,0.000000000000000000e+00,2.424537487828627158e-01,2.424537487828627158e-01,2.317429406037000983e-01,2.950340798442064316e-01,4.761441090555014743e-01,5.491723466407010257e-01,5.988315481986368205e-01,7.127555988315481539e-01,7.166504381694255299e-01,7.156767283349562137e-01,7.215189873417721111e-01,7.205452775073027949e-01,7.147030185004868974e-01,7.156767283349562137e-01,7.166504381694255299e-01,7.234664070107108547e-01,7.224926971762414274e-01,7.020447906523855641e-01,7.020447906523855641e-01,7.117818889970788376e-01,7.147030185004868974e-01,7.108081791626095214e-01,9.600778967867575897e-01,9.620253164556962222e-01,9.698149951314508632e-01,9.863680623174294615e-01,9.951314508276533077e-01,9.951314508276533077e-01,9.980525803310613675e-01,9.980525803310613675e-01,1.000000000000000000e+00,1.000000000000000000e+00,9.990262901655306838e-01
0.000000000000000000e+00,0.000000000000000000e+00,0.000000000000000000e+00,0.000000000000000000e+00,1.207400194741966859e-01,1.918208373904576325e-01,2.239532619279454850e-01,2.327166504381694145e-01,1.976630963972736132e-01,2.181110029211295043e-01,1.927945472249269765e-01,2.122687439143135235e-01,2.297955209347614380e-01,2.239532619279454850e-01,2.161635832521908440e-01,2.220058422590068248e-01,2.638753651411879231e-01,5.014605647517039744e-01,7.049659201557936239e-01,8.549172346640701026e-01,7.692307692307692735e-01,7.799415774099318632e-01,7.809152872444011795e-01,7.750730282375851710e-01,7.663096397273612137e-01,7.779941577409932307e-01,7.740993184031158547e-01,7.721518987341772222e-01,7.740993184031158547e-01,7.955209347614411453e-01,9.250243427458617607e-01,9.542356377799415812e-01,9.600778967867575897e-01,9.425511197663096752e-01,9.474196689386562564e-01
0.000000000000000000e+00,0.000000000000000000e+00,0.000000000000000000e+00,0.000000000000000000e+00,1.898734177215190000e-01,1.918208373904576325e-01,3.154819863680622949e-01,3.651411879259980342e-01,4.079844206426485043e-01,4.488802336903602863e-01,4.595910418695228761e-01,4.800389483933787949e-01,5.628042843232716752e-01,5.774099318403116410e-01,6.241480038948393760e-01,9.026290165530671539e-01,9.036027263875364701e-01,9.289191820837390257e-01,9.279454722492697094e-01,9.221032132424537009e-01,9.162609542356378034e-01,9.113924050632911111e-01,9.727361246348588120e-01,9.717624148003894957e-01,9.600778967867575897e-01,9.503407984420643162e-01,9.532619279454722649e-01,9.503407984420643162e-01,9.620253164556962222e-01,9.902629016553067265e-01,9.951314508276533077e-01,9.951314508276533077e-01,9.961051606621227350e-01,1.000000000000000000e+00,1.000000000000000000e+00
0.000000000000000000e+00,6.913339824732230021e-02,1.470301850048685577e-01,1.441090555014605534e-01,1.694255111976631090e-01,1.635832521908471282e-01,1.548198636806231709e-01,1.587147030185004914e-01,1.772151898734177222e-01,3.164556962025316666e-01,3.398247322297955342e-01,3.407984420642648504e-01,5.102239532619279316e-01,5.666991236611489402e-01,5.657254138266796240e-01,5.657254138266796240e-01,5.793573515092502735e-01,9.230769230769231282e-01,9.055501460564752136e-01,8.958130477117819401e-01,9.746835443037974445e-01,9.727361246348588120e-01,9.493670886075948889e-01,8.442064264849075128e-01,8.393378773125608205e-01,8.383641674780915043e-01,8.344693281402142393e-01,8.364167478091528718e-01,8.851022395326192393e-01,9.269717624148003932e-01,9.211295034079843846e-01,9.045764362220058974e-01,9.113924050632911111e-01,9.074975657254138461e-01,9.990262901655306838e-01
