ECL,ECL(UCB),LHS,LHS(UCB),MC
1.97E-04,1.75E-04,9.24E-07,1.95E-04,0.00E+00
1.82E-04,1.85E-04,5.14E-05,1.46E-04,0.00E+00
1.93E-04,1.87E-04,0.00E+00,1.07E-04,0.00E+00
1.89E-04,1.89E-04,2.43E-08,1.28E-04,0.00E+00
1.76E-04,1.77E-04,0.00E+00,1.44E-04,0.00E+00
1.79E-04,1.90E-04,2.58E-06,1.34E-04,0.00E+00
1.96E-04,1.97E-04,0.00E+00,1.97E-04,0.00E+00
1.50E-04,1.95E-04,1.66E-05,1.17E-04,0.00E+00
1.45E-04,1.85E-04,0.00E+00,1.14E-04,0.00E+00
1.86E-04,1.93E-04,2.46E-06,3.18E-04,0.00E+00
1.84E-04,1.96E-04,0.00E+00,2.94E-04,0.00E+00
2.28E-04,2.02E-04,5.82E-09,1.68E-04,0.00E+00
2.00E-04,1.75E-04,8.08E-09,1.29E-04,1.00E-03
1.88E-04,1.96E-04,4.57E-05,1.22E-04,0.00E+00
1.80E-04,1.96E-04,1.90E-08,1.64E-04,0.00E+00
1.74E-04,1.90E-04,0.00E+00,6.26E-05,0.00E+00
1.84E-04,1.92E-04,0.00E+00,1.26E-04,0.00E+00
1.85E-04,1.94E-04,4.37E-08,1.52E-04,0.00E+00
2.12E-04,1.81E-04,7.00E-05,1.62E-04,0.00E+00
1.96E-04,1.98E-04,0.00E+00,2.12E-04,0.00E+00
1.81E-04,2.01E-04,1.99E-08,1.65E-04,3.00E-03
1.91E-04,1.89E-04,0.00E+00,1.57E-04,0.00E+00
1.92E-04,1.94E-04,0.00E+00,1.15E-04,0.00E+00
1.85E-04,1.80E-04,1.43E-08,1.45E-04,0.00E+00
1.83E-04,1.87E-04,2.78E-05,1.47E-04,0.00E+00
1.79E-04,1.83E-04,0.00E+00,1.58E-04,0.00E+00
1.93E-04,1.94E-04,0.00E+00,1.52E-04,1.00E-03
1.52E-04,1.78E-04,9.75E-05,1.42E-04,0.00E+00
1.96E-04,1.84E-04,1.81E-08,1.74E-04,0.00E+00
1.80E-04,1.72E-04,0.00E+00,1.21E-04,0.00E+00
