0.000000000000000000e+00,3.992210321324245192e-02,2.035053554040895940e-01,2.366114897760467350e-01,2.385589094449853953e-01,2.619279454722492906e-01,2.551119766309639658e-01,2.960077896786757479e-01,2.132424537487828675e-01,1.509250243427458504e-01,1.450827653359298974e-01,1.509250243427458504e-01,5.335929892891918547e-01,5.462512171372930769e-01,6.231742940603700598e-01,6.397273612463485470e-01,7.575462512171372564e-01,7.633885102239532650e-01,7.711781888997079060e-01,7.692307692307692735e-01,7.887049659201558205e-01,7.925998052580330855e-01,7.896786757546251367e-01,8.081791626095423675e-01,8.081791626095423675e-01,8.091528724440116838e-01,8.101265822784810000e-01,8.334956183057449230e-01,8.354430379746835555e-01,8.412852969814995641e-01,8.344693281402142393e-01,8.519961051606621538e-01,8.519961051606621538e-01,8.549172346640701026e-01,8.549172346640701026e-01
0.000000000000000000e+00,0.000000000000000000e+00,0.000000000000000000e+00,5.939629990262901976e-02,3.573515092502434487e-01,3.330087633885102094e-01,3.505355404089581239e-01,3.515092502434274402e-01,3.933787731256085940e-01,3.505355404089581239e-01,3.700097370983446710e-01,3.700097370983446710e-01,3.700097370983446710e-01,3.700097370983446710e-01,3.700097370983446710e-01,3.700097370983446710e-01,3.700097370983446710e-01,4.001947419668938632e-01,3.982473222979552308e-01,4.381694255111976410e-01,6.757546251217136923e-01,6.533592989289191966e-01,6.650438169425511026e-01,6.640701071080817863e-01,6.611489776046738376e-01,8.218111002921129060e-01,8.305744888023368633e-01,8.451801363193768291e-01,9.113924050632911111e-01,9.191820837390457521e-01,8.870496592015579829e-01,8.704965920155793846e-01,9.036027263875364701e-01,8.909444985394352479e-01,9.503407984420643162e-01
0.000000000000000000e+00,0.000000000000000000e+00,0.000000000000000000e+00,2.239532619279454781e-02,0.000000000000000000e+00,0.000000000000000000e+00,3.222979552093476197e-01,3.894839337877312735e-01,3.261927945472249402e-01,5.998052580331061368e-01,5.861733203505354872e-01,5.881207400194742307e-01,5.920155793573514957e-01,5.851996105160661710e-01,6.192794547224926838e-01,6.942551119766309231e-01,7.000973709834469316e-01,7.370983446932813932e-01,7.322297955209348119e-01,7.293086660175267522e-01,7.127555988315481539e-01,7.166504381694255299e-01,7.176241480038948461e-01,7.205452775073027949e-01,7.098344693281402051e-01,7.069133398247322564e-01,7.176241480038948461e-01,7.409931840311587692e-01,7.370983446932813932e-01,7.370983446932813932e-01,7.341772151898734444e-01,7.341772151898734444e-01,7.419668938656280854e-01,7.838364167478091282e-01,7.799415774099318632e-01
0.000000000000000000e+00,0.000000000000000000e+00,0.000000000000000000e+00,8.666017526777020086e-02,8.763388510223953098e-02,1.295034079844206432e-01,1.061343719571567618e-01,9.444985394352482799e-02,1.051606621226874455e-01,1.051606621226874455e-01,9.931840311587146475e-02,3.651411879259980342e-01,2.638753651411879231e-01,2.940603700097371154e-01,3.242453748782862522e-01,3.933787731256085940e-01,4.001947419668938632e-01,6.183057448880233675e-01,6.582278481012657778e-01,6.689386562804284786e-01,6.504381694255112478e-01,7.332035053554041282e-01,9.483933787731255727e-01,9.610516066212269060e-01,9.785783836416748205e-01,9.756572541382667607e-01,9.756572541382667607e-01,9.795520934761441367e-01,9.912366114897760427e-01,9.824732229795520855e-01,9.659201557935734872e-01,9.892891918208374102e-01,9.464459591041869402e-01,9.133398247322297436e-01,9.191820837390457521e-01
0.000000000000000000e+00,0.000000000000000000e+00,0.000000000000000000e+00,1.022395326192794551e-01,1.207400194741966859e-01,1.567672833495618312e-01,2.132424537487828675e-01,3.914313534566699060e-01,3.758519961051606795e-01,3.758519961051606795e-01,5.335929892891918547e-01,7.098344693281402051e-01,7.195715676728334786e-01,7.224926971762414274e-01,7.234664070107108547e-01,6.845180136319376496e-01,6.796494644595910684e-01,6.669912366114897351e-01,7.069133398247322564e-01,7.108081791626095214e-01,6.884128529698150256e-01,7.848101265822784445e-01,7.799415774099318632e-01,7.867575462512171880e-01,8.695228821811100683e-01,8.773125608568647094e-01,9.172346640701071196e-01,9.357351509250243504e-01,9.376825705939629829e-01,9.406037000973709317e-01,9.376825705939629829e-01,9.425511197663096752e-01,9.474196689386562564e-01,9.483933787731255727e-01,9.493670886075948889e-01
0.000000000000000000e+00,7.205452775073027671e-02,6.913339824732230021e-02,7.010710808179163034e-02,7.010710808179163034e-02,7.010710808179163034e-02,1.217137293086660160e-01,2.083739045764362308e-01,2.697176241480038761e-01,2.979552093476144359e-01,2.005842259006815897e-01,4.751703992210321581e-01,5.316455696202531112e-01,7.585199610516065727e-01,7.672833495618305300e-01,7.682570593962999572e-01,7.643622200584225812e-01,7.487828627069132992e-01,7.351509250243427607e-01,7.302823758519960684e-01,7.818889970788704957e-01,7.770204479065238035e-01,8.286270691333982308e-01,8.442064264849075128e-01,8.442064264849075128e-01,8.451801363193768291e-01,8.685491723466407521e-01,8.695228821811100683e-01,8.704965920155793846e-01,9.104186952288217949e-01,8.704965920155793846e-01,8.714703018500487008e-01,8.851022395326192393e-01,8.997078870496592051e-01,9.065238558909445299e-01
0.000000000000000000e+00,0.000000000000000000e+00,0.000000000000000000e+00,0.000000000000000000e+00,0.000000000000000000e+00,1.265822784810126563e-02,3.505355404089581517e-02,7.205452775073027671e-02,7.400194741966893697e-02,2.171372930866601880e-01,2.531645569620253333e-01,2.590068159688412863e-01,2.005842259006815897e-01,1.830574488802337030e-01,1.645569620253164445e-01,2.317429406037000983e-01,3.378773125608568462e-01,3.437195715676728547e-01,3.320350535540408932e-01,3.164556962025316666e-01,3.154819863680622949e-01,3.836416747809152650e-01,3.612463485881207137e-01,6.436222005842259231e-01,9.065238558909445299e-01,9.367088607594936667e-01,9.298928919182083419e-01,9.571567672833495299e-01,9.493670886075948889e-01,9.620253164556962222e-01,9.649464459591041710e-01,9.678675754625121197e-01,9.737098344693281282e-01,9.766309639727360770e-01,9.863680623174294615e-01
0.000000000000000000e+00,0.000000000000000000e+00,0.000000000000000000e+00,0.000000000000000000e+00,0.000000000000000000e+00,0.000000000000000000e+00,2.629016553067186068e-01,2.979552093476144359e-01,2.950340798442064316e-01,4.186952288218110940e-01,3.524829600778968119e-01,3.690360272638753547e-01,4.829600778967867436e-01,4.625121713729308803e-01,4.556962025316455556e-01,4.615384615384615641e-01,4.634858812074001966e-01,4.673807205452775171e-01,4.829600778967867436e-01,5.034079844206426069e-01,6.747809152872443761e-01,7.273612463485881197e-01,6.981499513145082991e-01,8.169425511197663248e-01,8.023369036027263590e-01,8.081791626095423675e-01,8.111002921129503163e-01,8.081791626095423675e-01,8.023369036027263590e-01,7.916260954235637692e-01,7.994157740993184103e-01,8.354430379746835555e-01,8.704965920155793846e-01,9.240506329113924444e-01,9.639727361246348547e-01
0.000000000000000000e+00,0.000000000000000000e+00,0.000000000000000000e+00,1.411879259980525769e-01,1.606621226874391517e-01,2.346640701071080748e-01,2.366114897760467350e-01,2.414800389483933718e-01,2.268743914313534615e-01,2.346640701071080748e-01,2.414800389483933718e-01,2.015579357351509338e-01,2.220058422590068248e-01,4.673807205452775171e-01,4.586173320350535598e-01,4.829600778967867436e-01,4.985394352482960256e-01,4.985394352482960256e-01,5.004868549172346581e-01,5.004868549172346581e-01,5.949367088607594445e-01,5.939629990262901282e-01,6.144109055501461025e-01,6.153846153846154188e-01,6.105160662122687265e-01,6.144109055501461025e-01,6.007789678675754530e-01,6.056475170399221453e-01,6.173320350535540513e-01,6.553067185978578291e-01,7.049659201557936239e-01,7.156767283349562137e-01,7.302823758519960684e-01,7.672833495618305300e-01,7.721518987341772222e-01
0.000000000000000000e+00,0.000000000000000000e+00,0.000000000000000000e+00,0.000000000000000000e+00,0.000000000000000000e+00,2.278481012658227778e-01,2.356377799415774188e-01,2.161635832521908440e-01,2.395326192794547115e-01,4.732229795520934701e-01,7.409931840311587692e-01,7.390457643622200257e-01,7.380720545277507094e-01,7.234664070107108547e-01,7.273612463485881197e-01,7.409931840311587692e-01,7.468354430379746667e-01,7.458617332035053504e-01,7.429406037000974017e-01,7.497565725413826154e-01,7.682570593962999572e-01,7.682570593962999572e-01,7.682570593962999572e-01,8.412852969814995641e-01,8.218111002921129060e-01,8.529698149951314701e-01,8.500486854917235213e-01,8.500486854917235213e-01,8.860759493670885556e-01,9.036027263875364701e-01,8.763388510223952821e-01,8.714703018500487008e-01,8.899707887049659316e-01,8.919182083739045641e-01,8.851022395326192393e-01
0.000000000000000000e+00,0.000000000000000000e+00,1.723466407010710855e-01,6.231742940603700320e-02,8.081791626095423398e-02,1.295034079844206432e-01,3.631937682570594017e-01,3.690360272638753547e-01,2.200584225900681645e-01,2.395326192794547115e-01,2.463485881207400086e-01,4.099318403115871368e-01,4.206426484907497820e-01,4.537487828627069231e-01,4.508276533592989188e-01,4.469328140214215983e-01,4.469328140214215983e-01,5.034079844206426069e-01,5.053554040895813504e-01,4.498539435248296026e-01,4.508276533592989188e-01,4.605647517039921923e-01,4.605647517039921923e-01,4.556962025316455556e-01,5.189873417721518889e-01,5.774099318403116410e-01,7.166504381694255299e-01,7.283349561830574359e-01,7.409931840311587692e-01,8.977604673807205726e-01,9.152872444011684872e-01,9.152872444011684872e-01,9.191820837390457521e-01,9.688412852969815470e-01,9.795520934761441367e-01
0.000000000000000000e+00,0.000000000000000000e+00,0.000000000000000000e+00,0.000000000000000000e+00,9.834469328140214850e-02,7.302823758519960684e-02,9.347614410905549787e-02,2.161635832521908440e-01,2.268743914313534615e-01,3.398247322297955342e-01,3.894839337877312735e-01,4.488802336903602863e-01,5.803310613437195897e-01,6.582278481012657778e-01,6.494644595910418206e-01,6.592015579357352051e-01,7.536514118792599914e-01,6.981499513145082991e-01,7.020447906523855641e-01,7.049659201557936239e-01,7.409931840311587692e-01,7.244401168451801709e-01,7.604673807205453162e-01,7.624148003894839487e-01,8.072054527750730513e-01,8.052580331061344188e-01,8.617332035053554273e-01,8.812074001947419744e-01,8.870496592015579829e-01,8.899707887049659316e-01,8.899707887049659316e-01,9.143135345666991709e-01,9.269717624148003932e-01,9.844206426484907180e-01,9.863680623174294615e-01
0.000000000000000000e+00,1.197663096397273558e-01,1.148977604673807190e-01,1.197663096397273558e-01,2.210321324245374808e-01,3.485881207400194914e-01,3.476144109055501197e-01,2.239532619279454850e-01,2.239532619279454850e-01,2.239532619279454850e-01,2.239532619279454850e-01,4.868549172346640641e-01,4.449853943524829658e-01,5.219084712755598376e-01,5.180136319376825726e-01,5.043816942551119231e-01,5.121713729308665641e-01,6.270691333982473248e-01,7.108081791626095214e-01,7.098344693281402051e-01,7.585199610516065727e-01,7.643622200584225812e-01,7.663096397273612137e-01,7.653359298928918975e-01,7.682570593962999572e-01,7.575462512171372564e-01,7.760467380720544872e-01,9.513145082765336324e-01,9.629990262901655385e-01,9.629990262901655385e-01,9.873417721518987777e-01,9.883154819863680940e-01,9.863680623174294615e-01,9.873417721518987777e-01,9.892891918208374102e-01
0.000000000000000000e+00,0.000000000000000000e+00,7.497565725413826709e-02,2.405063291139240556e-01,3.388510223953262179e-01,3.631937682570594017e-01,3.310613437195715769e-01,3.242453748782862522e-01,3.154819863680622949e-01,3.242453748782862522e-01,3.242453748782862522e-01,3.855890944498539530e-01,4.771178188899707906e-01,4.858812074001947479e-01,5.481986368062317094e-01,5.618305744888023590e-01,5.676728334956182564e-01,5.394352482960077522e-01,5.413826679649464957e-01,5.520934761441090854e-01,5.452775073028237607e-01,5.540408958130477179e-01,5.501460564751704529e-01,5.452775073028237607e-01,5.618305744888023590e-01,5.637779941577409915e-01,6.475170399221031881e-01,8.967867575462512564e-01,9.152872444011684872e-01,9.221032132424537009e-01,9.396299902629016154e-01,9.912366114897760427e-01,9.961051606621227350e-01,9.990262901655306838e-01,9.970788704965920513e-01
0.000000000000000000e+00,0.000000000000000000e+00,0.000000000000000000e+00,8.276533592989289423e-02,2.434274586173320321e-01,3.086660175267770256e-01,4.518013631937682351e-01,4.556962025316455556e-01,5.073028237585199829e-01,5.657254138266796240e-01,5.764362220058422137e-01,5.920155793573514957e-01,5.978578383641675043e-01,5.929892891918208120e-01,5.452775073028237607e-01,5.443037974683544444e-01,6.027263875365140855e-01,6.075949367088607778e-01,6.192794547224926838e-01,6.387536514118792308e-01,8.948393378773125129e-01,8.880233690360272991e-01,9.513145082765336324e-01,9.610516066212269060e-01,9.552093476144108974e-01,9.659201557935734872e-01,9.785783836416748205e-01,9.776046738072055042e-01,9.814995131450827692e-01,9.814995131450827692e-01,9.844206426484907180e-01,9.834469328140214017e-01,9.863680623174294615e-01,9.746835443037974445e-01,9.834469328140214017e-01
0.000000000000000000e+00,1.129503407984420588e-01,1.976630963972736132e-01,3.242453748782862522e-01,3.359298928919182137e-01,3.836416747809152650e-01,4.138266796494644573e-01,4.498539435248296026e-01,4.956183057448880214e-01,5.131450827653358804e-01,5.024342745861732906e-01,6.562804284323271453e-01,6.669912366114897351e-01,6.747809152872443761e-01,6.757546251217136923e-01,6.757546251217136923e-01,7.098344693281402051e-01,8.179162609542356410e-01,7.964946445959104615e-01,8.023369036027263590e-01,8.072054527750730513e-01,8.276533592989289145e-01,8.276533592989289145e-01,8.422590068159688803e-01,8.899707887049659316e-01,9.094449853943524786e-01,9.191820837390457521e-01,9.182083739045764359e-01,9.396299902629016154e-01,9.279454722492697094e-01,9.308666017526776582e-01,9.347614410905550342e-01,9.386562804284322992e-01,9.396299902629016154e-01,9.406037000973709317e-01
0.000000000000000000e+00,9.834469328140214850e-02,2.726387536514118803e-02,2.424537487828627158e-01,1.840311587147030192e-01,1.918208373904576325e-01,1.937682570593962927e-01,2.901655306718597949e-01,4.206426484907497820e-01,5.920155793573514957e-01,5.413826679649464957e-01,5.491723466407010257e-01,6.825705939629990171e-01,7.672833495618305300e-01,7.682570593962999572e-01,8.072054527750730513e-01,8.101265822784810000e-01,8.149951314508276923e-01,8.159688412852970085e-01,8.928919182083738804e-01,8.987341772151898889e-01,9.016553067185978376e-01,9.113924050632911111e-01,8.753651411879259658e-01,9.211295034079843846e-01,9.376825705939629829e-01,9.376825705939629829e-01,9.522882181110029487e-01,9.649464459591041710e-01,9.639727361246348547e-01,9.659201557935734872e-01,9.629990262901655385e-01,9.629990262901655385e-01,9.659201557935734872e-01,9.746835443037974445e-01
0.000000000000000000e+00,0.000000000000000000e+00,1.119766309639727425e-01,1.119766309639727425e-01,1.090555014605647521e-01,1.100292112950340823e-01,1.295034079844206432e-01,1.168451801363193793e-01,1.460564751703992137e-01,1.441090555014605534e-01,1.304771178188899594e-01,1.295034079844206432e-01,1.421616358325219209e-01,1.256085686465433227e-01,1.470301850048685577e-01,1.363193768257059402e-01,3.310613437195715769e-01,3.583252190847127649e-01,3.933787731256085940e-01,4.284323271665043675e-01,4.995131450827653419e-01,4.936708860759493889e-01,5.910418695228821795e-01,5.842259006815968547e-01,8.958130477117819401e-01,8.909444985394352479e-01,8.812074001947419744e-01,8.880233690360272991e-01,8.977604673807205726e-01,9.152872444011684872e-01,9.211295034079843846e-01,9.396299902629016154e-01,9.552093476144108974e-01,9.542356377799415812e-01,9.688412852969815470e-01
0.000000000000000000e+00,0.000000000000000000e+00,1.665043816942551047e-01,1.567672833495618312e-01,2.220058422590068248e-01,2.103213242453748910e-01,2.074001947419668868e-01,2.103213242453748910e-01,2.103213242453748910e-01,2.181110029211295043e-01,1.528724440116845107e-01,1.538461538461538547e-01,1.888997078870496560e-01,4.430379746835442778e-01,5.890944498539435470e-01,5.764362220058422137e-01,8.597857838364167948e-01,8.578383641674780513e-01,8.373904576436221880e-01,8.325219084712756068e-01,8.237585199610516495e-01,8.383641674780915043e-01,8.422590068159688803e-01,7.663096397273612137e-01,7.653359298928918975e-01,9.065238558909445299e-01,9.172346640701071196e-01,9.230769230769231282e-01,9.415774099318403589e-01,9.591041869522882735e-01,9.698149951314508632e-01,9.863680623174294615e-01,9.902629016553067265e-01,9.834469328140214017e-01,9.863680623174294615e-01
9.444985394352482799e-02,1.129503407984420588e-01,1.869522882181109957e-01,2.414800389483933718e-01,2.580331061343719701e-01,2.375851996105160790e-01,2.346640701071080748e-01,2.444011684518013761e-01,2.814021421616358376e-01,2.570593962999026538e-01,4.118792599805258248e-01,3.369036027263875299e-01,4.186952288218110940e-01,4.518013631937682351e-01,4.615384615384615641e-01,6.640701071080817863e-01,6.426484907497566068e-01,6.689386562804284786e-01,6.806231742940603846e-01,7.166504381694255299e-01,6.708860759493671111e-01,7.760467380720544872e-01,7.789678675754625470e-01,7.799415774099318632e-01,8.218111002921129060e-01,8.305744888023368633e-01,8.334956183057449230e-01,8.383641674780915043e-01,9.756572541382667607e-01,9.824732229795520855e-01,9.834469328140214017e-01,9.892891918208374102e-01,9.824732229795520855e-01,9.863680623174294615e-01,9.892891918208374102e-01
0.000000000000000000e+00,0.000000000000000000e+00,0.000000000000000000e+00,0.000000000000000000e+00,1.119766309639727425e-01,1.178188899707887094e-01,2.891918208373904786e-01,2.950340798442064316e-01,2.960077896786757479e-01,2.765335929892892008e-01,2.648490749756572393e-01,2.823758519961051539e-01,3.018500486854917009e-01,2.755598831548198846e-01,4.225900681596884145e-01,4.527750730282376068e-01,5.413826679649464957e-01,6.105160662122687265e-01,6.017526777020447692e-01,5.929892891918208120e-01,7.857838364167477607e-01,8.305744888023368633e-01,8.286270691333982308e-01,8.296007789678675470e-01,7.974683544303797778e-01,8.490749756572540941e-01,8.636806231742940598e-01,8.481012658227847778e-01,8.451801363193768291e-01,8.558909444985394188e-01,8.597857838364167948e-01,8.675754625121713248e-01,8.802336903602726581e-01,8.870496592015579829e-01,9.561830574488802137e-01
0.000000000000000000e+00,0.000000000000000000e+00,0.000000000000000000e+00,0.000000000000000000e+00,0.000000000000000000e+00,0.000000000000000000e+00,1.119766309639727425e-01,1.100292112950340823e-01,9.055501460564752136e-02,9.055501460564752136e-02,2.327166504381694145e-01,2.327166504381694145e-01,2.891918208373904786e-01,2.609542356377799188e-01,2.599805258033106026e-01,2.736124634858811966e-01,2.794547224926971496e-01,3.174294060370009829e-01,3.446932814021421709e-01,3.661148977604674060e-01,4.040895813047711838e-01,6.144109055501461025e-01,7.848101265822784445e-01,7.828627069133398120e-01,7.906523855890944530e-01,8.928919182083738804e-01,8.958130477117819401e-01,8.909444985394352479e-01,8.948393378773125129e-01,8.909444985394352479e-01,8.928919182083738804e-01,9.104186952288217949e-01,9.824732229795520855e-01,9.912366114897760427e-01,9.931840311587146752e-01
0.000000000000000000e+00,0.000000000000000000e+00,9.737098344693282184e-03,2.697176241480038761e-01,1.509250243427458504e-01,2.765335929892892008e-01,3.768257059396299957e-01,3.768257059396299957e-01,3.777994157740993120e-01,3.777994157740993120e-01,4.780915287244401068e-01,4.586173320350535598e-01,4.245374878286270470e-01,4.157740993184030898e-01,4.157740993184030898e-01,4.800389483933787949e-01,4.527750730282376068e-01,4.703018500486854658e-01,5.628042843232716752e-01,5.666991236611489402e-01,5.676728334956182564e-01,6.825705939629990171e-01,7.925998052580330855e-01,8.344693281402142393e-01,8.432327166504381966e-01,8.471275559883154616e-01,8.471275559883154616e-01,8.481012658227847778e-01,8.510223953261928376e-01,8.519961051606621538e-01,8.568646543330087351e-01,8.666017526777020086e-01,8.646543330087633761e-01,8.753651411879259658e-01,8.773125608568647094e-01
0.000000000000000000e+00,0.000000000000000000e+00,0.000000000000000000e+00,0.000000000000000000e+00,0.000000000000000000e+00,0.000000000000000000e+00,0.000000000000000000e+00,0.000000000000000000e+00,0.000000000000000000e+00,0.000000000000000000e+00,4.868549172346641092e-03,1.217137293086660160e-01,1.217137293086660160e-01,1.694255111976631090e-01,1.840311587147030192e-01,1.898734177215190000e-01,1.918208373904576325e-01,1.927945472249269765e-01,2.278481012658227778e-01,2.775073028237585171e-01,2.784810126582278333e-01,3.125608568646543461e-01,3.086660175267770256e-01,3.933787731256085940e-01,4.040895813047711838e-01,5.102239532619279316e-01,5.647517039922103077e-01,6.027263875365140855e-01,6.231742940603700598e-01,6.436222005842259231e-01,6.426484907497566068e-01,6.397273612463485470e-01,6.864654333008763931e-01,6.718597857838364273e-01,6.767283349561830086e-01
0.000000000000000000e+00,0.000000000000000000e+00,0.000000000000000000e+00,0.000000000000000000e+00,0.000000000000000000e+00,4.965920155793573237e-02,1.032132424537487853e-01,1.528724440116845107e-01,1.032132424537487853e-01,1.032132424537487853e-01,1.032132424537487853e-01,1.100292112950340823e-01,1.480038948393378739e-01,1.187925998052580395e-01,1.041869522882181154e-01,1.577409931840311474e-01,1.655306718597857885e-01,2.482960077896786688e-01,2.979552093476144359e-01,3.115871470301850299e-01,3.135345666991236624e-01,3.047711781888997051e-01,2.833495618305744701e-01,2.765335929892892008e-01,3.145082765335929786e-01,5.501460564751704529e-01,4.975657254138266539e-01,5.550146056475170342e-01,5.705939629990263162e-01,6.144109055501461025e-01,7.779941577409932307e-01,7.945472249269717180e-01,7.799415774099318632e-01,7.643622200584225812e-01,7.789678675754625470e-01
0.000000000000000000e+00,0.000000000000000000e+00,3.437195715676728547e-01,4.956183057448880214e-01,5.959104186952288718e-01,7.020447906523855641e-01,2.960077896786757479e-01,3.174294060370009829e-01,2.424537487828627158e-01,2.453748782862706923e-01,2.862706913339824744e-01,3.076923076923077094e-01,2.414800389483933718e-01,2.590068159688412863e-01,2.473222979552093526e-01,2.891918208373904786e-01,2.609542356377799188e-01,2.687439143135345598e-01,5.511197663096397692e-01,5.355404089581304872e-01,5.365141187925998034e-01,5.998052580331061368e-01,5.647517039922103077e-01,5.842259006815968547e-01,7.740993184031158547e-01,7.887049659201558205e-01,8.617332035053554273e-01,8.880233690360272991e-01,9.454722492697176239e-01,9.620253164556962222e-01,9.698149951314508632e-01,9.756572541382667607e-01,9.766309639727360770e-01,9.814995131450827692e-01,9.805258033106134530e-01
0.000000000000000000e+00,0.000000000000000000e+00,0.000000000000000000e+00,8.276533592989289423e-02,9.347614410905549787e-02,6.815968841285297009e-02,1.557935735150925149e-01,2.921129503407984274e-01,4.216163583252190983e-01,4.333008763388510043e-01,4.313534566699123718e-01,4.206426484907497820e-01,5.189873417721518889e-01,4.780915287244401068e-01,4.761441090555014743e-01,4.868549172346640641e-01,4.858812074001947479e-01,7.195715676728334786e-01,7.614410905550146325e-01,8.325219084712756068e-01,8.208373904576435898e-01,8.325219084712756068e-01,9.036027263875364701e-01,9.094449853943524786e-01,9.055501460564752136e-01,8.997078870496592051e-01,8.987341772151898889e-01,9.036027263875364701e-01,9.766309639727360770e-01,9.776046738072055042e-01,9.727361246348588120e-01,9.746835443037974445e-01,9.727361246348588120e-01,9.737098344693281282e-01,9.746835443037974445e-01
0.000000000000000000e+00,0.000000000000000000e+00,0.000000000000000000e+00,0.000000000000000000e+00,0.000000000000000000e+00,0.000000000000000000e+00,1.187925998052580395e-01,3.349561830574488974e-01,3.310613437195715769e-01,3.378773125608568462e-01,2.999026290165530684e-01,3.476144109055501197e-01,3.339824732229795257e-01,3.719571567672833590e-01,6.114897760467380428e-01,6.358325219084712820e-01,6.523855890944498803e-01,7.098344693281402051e-01,7.302823758519960684e-01,7.322297955209348119e-01,7.409931840311587692e-01,7.224926971762414274e-01,7.117818889970788376e-01,7.234664070107108547e-01,7.614410905550146325e-01,7.633885102239532650e-01,7.779941577409932307e-01,7.643622200584225812e-01,8.023369036027263590e-01,8.120740019474196325e-01,8.169425511197663248e-01,8.198636806231742735e-01,8.227848101265823333e-01,9.474196689386562564e-01,9.561830574488802137e-01
0.000000000000000000e+00,0.000000000000000000e+00,0.000000000000000000e+00,0.000000000000000000e+00,6.815968841285297009e-03,0.000000000000000000e+00,1.168451801363193793e-01,1.703992210321324252e-01,3.330087633885102094e-01,4.089581304771178205e-01,7.117818889970788376e-01,7.020447906523855641e-01,7.010710808179162479e-01,7.185978578383641624e-01,7.254138266796494872e-01,8.179162609542356410e-01,8.490749756572540941e-01,8.500486854917235213e-01,8.529698149951314701e-01,8.597857838364167948e-01,8.841285296981499231e-01,9.201557935735150684e-01,9.474196689386562564e-01,9.503407984420643162e-01,9.873417721518987777e-01,9.873417721518987777e-01,9.863680623174294615e-01,9.941577409931839915e-01,9.912366114897760427e-01,9.902629016553067265e-01,9.922103213242453590e-01,9.922103213242453590e-01,9.941577409931839915e-01,9.931840311587146752e-01,9.931840311587146752e-01
0.000000000000000000e+00,7.497565725413826709e-02,1.392405063291139167e-01,1.392405063291139167e-01,2.921129503407984308e-03,1.207400194741966859e-01,3.193768257059396154e-01,3.709834469328140427e-01,3.690360272638753547e-01,3.914313534566699060e-01,4.654333008763388291e-01,5.141187925998053077e-01,5.277507302823758462e-01,5.481986368062317094e-01,5.988315481986368205e-01,6.153846153846154188e-01,6.202531645569620000e-01,6.319376825705940171e-01,7.244401168451801709e-01,8.013631937682570427e-01,8.851022395326192393e-01,8.743914313534566496e-01,8.919182083739045641e-01,8.851022395326192393e-01,9.230769230769231282e-01,9.259980525803310769e-01,9.649464459591041710e-01,9.668938656280428035e-01,9.659201557935734872e-01,9.552093476144108974e-01,9.591041869522882735e-01,9.659201557935734872e-01,9.659201557935734872e-01,9.698149951314508632e-01,9.756572541382667607e-01
