5.523121598847332336e+00,1.492062049227257425e+01,2.087115270662670241e+02,2.573556100479789777e+00,1.134063939596723181e+01,7.582701916599522463e+01,-2.783589602916848982e+00,3.647447295892499053e+00,6.128817073319586939e+01,6.998836345002622750e+00,1.116372892919823112e+00,1.724904336009732475e+01,-2.221540576792227384e+00,4.419240431116359780e+00,3.714814684619194907e+01,1.329273637958275245e+00,7.690054641256233836e+00,2.512644069432960947e+01,6.795560949878680645e-01,1.323929159120913113e+01,8.573547257781424946e+01,1.877905311587984016e-01,1.998356944403969271e+00,3.317686472358486327e+01,4.844948955148268510e+00,1.085811501630113796e+01,1.033549078194800899e+02,6.728148962101181851e+00,1.141452547618839297e+01,1.266077786184322207e+02,-2.598506835280621985e+00,7.631291772943613161e+00,1.306597497352034942e+01,1.532339306137775026e+00,1.154568091494217974e+01,6.946051365822975754e+01,-1.354196321863732067e-01,1.449411058070609881e+00,4.225220949978260165e+01,5.729725933322299625e+00,5.510327784941406737e-01,1.840653779452364347e+01,2.722645910469750241e+00,5.167574095124965794e+00,7.791924159040171993e+00,6.504573986593035428e+00,7.603082924111133067e+00,6.288652281091418672e+01,4.468003044342523822e+00,1.184016773231176067e+01,1.163127919872936928e+02,-4.021855495058572316e+00,1.447633183213182129e+01,3.884662414556746768e+00,8.172753299799689231e+00,1.270551484916506091e+01,1.336276781921339136e+02,8.607561957763637750e+00,9.878658549862333160e+00,7.057782813737546235e+01,7.079440506355476614e+00,3.546175927108874859e+00,2.279614876398335355e+01,-2.531071046948373926e+00,3.225927956927920448e+00,6.010196129714997682e+01,-3.055421974757763781e+00,1.253806141143856578e+01,6.764046069685250018e-01,6.572097126908833076e+00,1.975904863043885795e+00,2.013601635018244806e+01,-3.546272769815001613e+00,1.287475854242232387e+01,1.304571199256834291e+00,3.004554283911367918e+00,5.583609231638242409e-02,5.803671689154257685e+00,-4.969269531504776793e+00,1.290307113533601147e+01,2.952333791853031641e+01,8.834881611498913045e+00,2.638029734957594297e+00,2.682251315336230846e+00,6.246921944758989653e+00,8.726882486425434848e+00,7.929793894575338697e+01,8.443536555664799437e+00,5.451528797358588641e+00,1.956424154840974339e+01
2.144716536324778211e+00,8.906019816203105677e+00,3.769841368380668456e+01,5.647773102358671693e+00,1.432310167515459831e+01,1.938731303393275027e+02,8.100808430307377961e-01,6.982990416249732490e+00,2.141250742200335111e+01,4.115089531731857875e+00,1.810022558530658188e+00,4.645748235306144558e+00,4.465903736400251844e+00,1.075880038720476861e+01,9.490265779617296005e+01,7.804785159220392288e+00,2.857957074576539469e+00,1.292056450118789357e+01,1.579613451402998692e+00,7.734294977191705556e+00,2.537839842335516849e+01,5.306553361228333543e+00,1.194653987037383303e+01,1.325720340080910091e+02,8.189081919716210578e+00,1.384059470794421820e+01,1.601199967252343299e+02,-4.634594495702626382e+00,6.129581668406726358e+00,1.085950647292684579e+02,8.393046062408719976e+00,1.348273711886603898e+01,1.471322009930744628e+02,4.367376604784924510e+00,1.048722178655991266e+00,6.925649472326475653e+00,-4.603967291086686231e+00,6.539242026872918778e+00,9.869432242592806404e+01,-4.698844176255247973e-01,1.324315948548800037e+01,6.038807913089030421e+01,-4.952801449111133181e+00,1.406398223136441139e+01,2.084447919482542844e+01,7.484285193017347737e+00,2.675098941494695737e+00,1.569677136113445037e+01,-3.474495074303849407e+00,4.946725608395804663e+00,6.673052310017041577e+01,-2.953544290564516395e+00,1.159128245945972324e+01,6.130724768304069983e-01,-1.333949576576408891e+00,5.598303017538531989e+00,1.981613126139750847e+01,3.547604648421396334e+00,2.043109259859408056e+00,1.187595493630313470e+00,2.313555568091914871e+00,1.477636796780785211e+01,1.422883832579306898e+02,5.770150185958726752e+00,1.379080026851704766e+01,1.811188375022011599e+02,-1.772234580947745552e+00,3.905970862820953293e+00,3.630059601719331397e+01,7.639385715854338343e+00,1.480636457684009066e+01,1.962824469540286429e+02,9.039695335621056316e-01,1.500262204370781616e+00,2.595305310887433947e+01,8.856584937843560823e+00,8.083236557130586419e+00,4.090042258211776982e+01,5.223567950522959080e+00,1.429829480238377926e+01,1.877801642981784767e+02,8.305826258834576592e-01,7.501211619307430745e+00,2.396044367623056814e+01,-4.219241153954006229e+00,1.375147023239596145e+01,6.938629079058095783e+00,-9.122903058328457604e-01,1.287629969422612142e+01,4.416695683562048202e+01
-1.743336279076445727e+00,2.378547609731303525e-01,8.794770883692719110e+01,-1.356327733686427450e+00,2.499610215319829187e+00,4.675977880367219797e+01,-1.607573651941763604e+00,5.002279295537467085e+00,2.472896366912592114e+01,5.452884769145294186e-01,6.478028536341944310e+00,1.992104123233091428e+01,2.057450005762006207e+00,9.540621237060770810e+00,4.493554310391722595e+01,9.507008017682396783e-01,9.847504954545645006e+00,4.310169304140746505e+01,8.699870121460916650e+00,4.445992210321358051e+00,1.013630405122924216e+01,8.560516980534432108e+00,9.718100690433194799e+00,6.875013011839257615e+01,2.853993920603310031e+00,7.096647206955031706e+00,2.201955168559941001e+01,1.981903897753661603e+00,4.378007801902344953e-01,1.460399583408659296e+01,-3.909930572266556492e+00,1.352631629826348636e+01,3.495779095432232531e+00,-4.426118613809506108e+00,6.107187833752366402e+00,9.599424306497323300e+01,3.677844185087050022e+00,1.015624777599494166e+01,7.057868749944027797e+01,2.516200735027556590e+00,1.084388350538124257e+01,6.696425606485649951e+01,4.203063239247242677e+00,1.445181047720692114e+00,5.328692213974337122e+00,9.864843675637290588e+00,1.038615294098816833e+01,6.155257928365118403e+01,3.468619600851246432e+00,3.049224328556594532e-01,3.791288296599391039e+00,5.614415933328864128e+00,7.535496070782118139e+00,5.950918494072849541e+01,8.519899429873481367e+00,1.950602487569711663e+00,4.168471996454547579e+00,-2.199009851305264718e-01,8.437122992421164369e+00,2.370150930759750452e+01,5.628873876035845214e+00,1.029776813817174030e+01,1.030620978707108151e+02,3.969154785238309557e+00,7.153636943536402448e+00,3.348308184966631984e+01,1.886029044749152561e+00,7.361645926154781527e+00,2.233331293854493538e+01,-9.734620089601344617e-01,7.293422742091236755e-01,6.356406544383300172e+01,2.652930755042513411e+00,7.348500266903173817e+00,2.341841368774835175e+01,6.800629791560792725e+00,1.186230876168771609e+01,1.355992657406186197e+02,3.922979073350296275e+00,6.033514554495404969e-01,4.397875658984647274e+00,3.246802400797623278e+00,1.146637700848417651e+00,1.493506324444123123e+00,7.720924542558782022e+00,2.571240287196126850e+00,1.298849510203527657e+01,5.271772454567889454e+00,1.193667816007517857e+01,1.318893200408290909e+02
-4.776982629375285505e+00,5.595985413356806326e+00,1.293633234470290461e+02,7.870319518662469704e+00,3.432885495223803041e+00,1.431149503501254472e+01,4.634466122117409270e+00,1.367634596191345331e+01,1.613325430176912505e+02,8.223030009892584147e+00,9.404664740463985595e+00,6.939063051542584049e+01,8.609060995544943751e-01,6.622923037966433668e+00,1.986525166265976594e+01,-4.895121172508555496e+00,3.624520938317875807e+00,1.860153835191079565e+02,-3.856776720166810613e+00,1.102619156493567232e+01,1.172647701908888962e+01,3.626874979764252771e+00,1.237568331820623335e+01,1.113795196414286153e+02,-1.449383630944342638e+00,5.362781334914628495e+00,2.146733075911188138e+01,9.883798054769114216e+00,9.847393050528644665e+00,5.331006682722993162e+01,6.866249029201744847e+00,1.149001459078101561e+01,1.271545749600392128e+02,8.910028097912002565e+00,9.991370219880503001e+00,6.753494595316365690e+01,-5.698080561265870259e-01,5.473464099000659999e+00,2.025927573146410765e+01,4.474894092463962636e+00,1.418821937622563212e+01,1.709180326390878975e+02,7.393469958004473597e+00,2.707476211316499626e+00,1.667392497470972046e+01,-8.997384889080120018e-01,1.461253947458203939e+01,6.606928834440171272e+01,1.849297407433738272e+00,8.583592483432202158e+00,3.330606995484869515e+01,-1.454582384416729379e+00,7.135125534640988754e+00,1.320975929907224078e+01,4.048297773574285330e+00,1.481503741425862586e+01,1.778587450913882151e+02,-1.241953420805318675e+00,1.388727896184887101e+01,4.576558538281252453e+01,-4.104305534135050948e+00,6.766128669332080570e+00,6.691743067385891663e+01,9.271515269606101839e+00,8.016371291782260045e+00,3.514789025600694572e+01,2.045890292929151144e-01,1.013827538392067673e+01,3.928086090333831493e+01,9.593010255282829135e+00,5.953961510156588588e+00,1.325338370429505908e+01,7.242304177433753765e+00,3.098735620697311344e+00,1.944315929722155545e+01,3.681542141251235023e-01,5.144434385086779749e+00,1.904095796233366755e+01,-4.896903554818692328e-01,7.918872450884336445e+00,1.970383980886672504e+01,-4.179905375208421425e+00,9.890371325159804883e+00,2.987547600872278863e+01,1.481020492806705668e+00,1.274682249460563810e+01,8.876162241854511592e+01,-3.490092348459671534e+00,1.383584802383719214e+01,1.520466655948153445e+00
8.133595544895971585e+00,4.033801745488354129e+00,1.411071797190658828e+01,2.321620649567536887e+00,4.665144820648786883e+00,6.262968307636663567e+00,2.766442381659713234e+00,7.234465422001834511e-02,7.285800864713949387e+00,-4.091557860340798491e+00,4.799578168143491474e+00,1.010941932981063047e+02,-4.911679915420540610e+00,1.218666519113164526e+01,3.385893460731757898e+01,4.076222274859651051e+00,4.720800551617819529e+00,1.392955296425915535e+01,-3.420917257353684349e+00,1.028659138308384691e+01,7.740326428481390408e+00,-2.349617360307359348e+00,8.009577815920032151e+00,9.155899826895522509e+00,-2.232812922350989382e+00,1.176621641048885669e+00,8.524922894893893499e+01,9.305061722237830679e-01,3.011962603594517951e+00,1.835045605378314804e+01,4.401651523445046621e+00,7.183781405335708747e+00,3.995902028458552735e+01,8.480762949021384500e+00,5.530130762243196330e+00,1.972250643739541687e+01,9.130983362676985848e+00,8.601520391168595125e+00,4.403182810146486759e+01,-3.824699925511620524e+00,6.031707359637807464e+00,6.509194425781501536e+01,-2.933943278020919809e+00,9.130966140473869785e+00,7.514581536087758806e+00,-4.301255102845370715e+00,3.912825994616190073e+00,1.333104136433713620e+02,5.881039663968508080e-01,1.247072562179510768e+01,7.220145747367882905e+01,4.279031827259458964e+00,9.625560731382705626e+00,7.185110977818706601e+01,1.292804701039244719e+00,7.174685803996754707e+00,2.175890345915370006e+01,2.185313827274326215e+00,6.941404896971236305e+00,1.901496398329406645e+01,-7.675655101335880914e-01,1.013919446460176399e-01,6.867549315439967472e+01,7.093990132578131380e+00,5.504608211271631468e+00,3.616335113583922123e+01,7.612884086231263225e+00,8.258155419023365695e+00,6.177297713525747724e+01,5.141128548929271957e+00,9.081814304251492942e+00,7.666476517847273442e+01,6.090568367282726214e+00,1.364906335848782737e+00,1.955428669679864839e+01,-1.218202788626831623e+00,2.722723253636079921e+00,4.251978800680048920e+01,-1.362436417189412552e+00,3.645947917846498854e+00,3.462035771608161383e+01,-2.037441389175455697e+00,1.446788671690879013e+01,2.776487847852291679e+01,2.884441568529437561e+00,6.385962894849452898e-01,4.042102748020273140e+00,2.081685556950162663e+00,3.666249788900904250e+00,5.490366095185431838e+00
2.511585582337050759e+00,7.195114169979961893e+00,2.154412315048221416e+01,2.743809421859921827e-02,7.285267852777962183e+00,2.136431836072048185e+01,2.288334651360016458e+00,1.980101530701902313e+00,4.770210042957970131e+00,2.513354326975923314e+00,1.070341357944379190e+01,6.469643187931086459e+01,-1.660492688382898319e+00,5.919314332227007647e+00,1.858105711597900012e+01,3.826864889900381428e+00,1.274992144933697169e+01,1.232527043260630109e+02,2.870374655581494849e+00,4.996109623025173363e+00,7.104153277546460643e+00,1.631345744299633083e+00,6.032979183436924409e+00,1.467354811255175662e+01,-3.620356994059978462e+00,9.039854219390495160e+00,2.068067005290561866e+01,3.375047151287157376e+00,8.379083224872521996e+00,4.044869483042072034e+01,5.425102009911899614e-01,3.402528709079915892e+00,2.136095468297352795e+01,-3.055172507019274342e+00,2.206327838791613871e+00,9.722596963720842211e+01,-2.253771289009155687e+00,3.059635162528604013e+00,5.535868965616680271e+01,9.197791301790312346e+00,9.591839548384269776e+00,5.713361090574676382e+01,-3.005142188069491738e-01,6.327061007150627248e+00,1.919824647605108936e+01,-3.436293049697462632e+00,1.407087565505498850e+00,1.343866607134878564e+02,-5.176862271064059939e-01,1.385774830305534344e+01,6.734227098456635474e+01,9.973440146801589634e+00,1.254832625847689620e+00,3.967876567273005861e+00,-2.638813202864978891e+00,1.178908395783062346e+01,2.086547224253394006e+00,-4.122295132009461405e+00,1.289404112079632547e+01,7.965858731593318254e+00,2.512016958393651578e+00,1.290020764927528596e+01,1.042287705232672579e+02,-3.546312568800565224e+00,1.244579960625777559e+01,1.799523652286252329e+00,3.753749042863649521e+00,1.152675951460514270e+01,9.655068108738198873e+01,1.555773927063079931e+00,6.463792419852368631e+00,1.707867966283404115e+01,-1.101636623222752132e+00,5.182496802717984075e+00,2.176446266801382379e+01,8.487556696098124576e+00,7.182473486745197810e+00,3.530721905215267498e+01,1.453908622478448542e+00,6.506953648009468516e+00,1.763863910635683041e+01,8.150922874110101191e+00,4.427624484145487926e+00,1.610550272822656126e+01,4.830113625374830022e+00,9.064306341956738677e+00,7.191932426378049570e+01,5.313195585552712430e-01,6.681513063350124959e+00,2.050257427206179983e+01
5.040437605339620930e+00,1.294977930075188155e+01,1.512544186107058408e+02,9.816452586942640224e+00,1.238305075778327335e+01,9.720300433070536883e+01,9.776560734237083494e+00,1.206774075026201842e+01,9.165683659746221679e+01,-3.040257589712171082e+00,1.433918721468623403e+01,5.875143649887345276e+00,7.903205333314252456e+00,8.527392942629294481e+00,6.129557271495572479e+01,-3.406937845807395782e+00,1.445166951928059440e+01,3.165318489258302392e+00,-1.743758377821773120e+00,7.382689376008165771e-01,7.927952232758374862e+01,-1.149329666272447703e+00,1.156111952020838718e+00,6.071934895060453385e+01,9.254504724626661627e+00,1.288438001415591394e+01,1.164479646098192802e+02,-1.774994392126566733e+00,1.216293933554778484e+01,1.669011106704204295e+01,9.593719893859733006e+00,5.561488632687003886e+00,1.060527453654609253e+01,6.465799972955037944e+00,3.332767458123191862e+00,2.486456745465315876e+01,5.842172568392385301e+00,1.238777329014082973e+01,1.478043443124140595e+02,8.121926442915428979e+00,5.408505346657355162e+00,2.330063238528845204e+01,1.356145636429965329e+00,1.348191343286340427e+01,1.005436858180554935e+02,8.901807713923091114e-01,1.278742352193713039e+01,8.171437792000013189e+01,8.183343905295474840e+00,1.789498572971435886e+00,7.004659852671387021e+00,1.671322929965235460e-02,2.109672712457268506e+00,3.452943405531618026e+01,5.936657950227930414e+00,7.529954658101254417e+00,6.147326000894958042e+01,4.805670966643670994e+00,9.908163778882042028e-01,1.097601303173363263e+01,-3.244386485625824434e+00,7.872963926705119242e+00,2.182788292519301265e+01,1.751077357737298001e+00,1.640297380820161965e+00,1.212429164862377817e+01,4.596789049246616798e+00,8.211673620129295026e-01,9.183010520261293053e+00,-2.021845164417062968e+00,7.750629550695887993e+00,9.754452554883444648e+00,2.278245350534347402e+00,1.495095085548073044e+01,1.458345450225504578e+02,-3.930331377798706338e+00,1.328443476178386362e+01,4.092943570420650268e+00,5.912460022088650291e+00,4.969207339060876194e+00,3.456652029915272806e+01,5.576256187964606426e+00,1.229824954998280262e+01,1.435252903319939151e+02,9.524771718146109123e+00,4.351378431518235779e+00,4.528432099468711947e+00,2.550304482907074011e+00,9.008720988974163291e+00,4.101449828444096113e+01
-2.829717729357287048e+00,1.168178791323606980e+01,8.879950082639300746e-01,-4.869387294672051780e+00,1.205694980257448146e+00,2.532167671815544168e+02,-4.349051284959871921e+00,1.107566142070203874e+01,2.457849979326379497e+01,1.921619307395780574e+00,1.205852569787509587e+01,8.150872851551959286e+01,6.295019930876289749e+00,5.181477710758281008e-01,1.983363888784051454e+01,9.696180077346344461e+00,1.073791734890670568e+01,6.902014319756737848e+01,7.036729836916602920e+00,2.050422907381721505e+00,1.795999022406052603e+01,7.284814577391216517e+00,3.763130473172663581e+00,2.212371612003906307e+01,2.016423284442049990e+00,4.377865408574824535e+00,7.010751534129402884e+00,4.044175438242650245e+00,1.880484394803496384e+00,4.110977127219403116e+00,-1.861551033353981754e+00,5.564710298112082176e-01,8.548441387364678690e+01,3.537802457092309893e+00,8.986636845382758310e+00,5.059146664605929544e+01,1.328304690754923634e+00,1.460966661513138654e+01,1.225612689754727995e+02,1.160821498121210382e+00,2.368582552703372368e+00,1.764763871163105691e+01,6.555056385922192419e+00,7.723335208360441406e+00,6.432687393833188594e+01,3.859887746396280406e+00,6.410241036367678724e+00,2.454648267556467189e+01,9.542216540844503214e+00,6.191966514695777413e+00,1.526162838856445703e+01,3.207106979085590837e+00,3.780612565633298061e+00,2.921854979085388493e+00,-1.207532253902305897e-01,4.157840883570635526e+00,2.367826395150351360e+01,6.115680111500113370e+00,1.090625123864130153e+01,1.175311401236676687e+02,9.316076312330530129e-01,1.075363276285767533e+01,5.326101704784375102e+01,5.215301863156803108e+00,1.146963663502150155e+01,1.212379124816761902e+02,9.362792447187718636e+00,2.063979536886765498e+00,4.351466008553082077e-01,-4.768096128171252168e+00,1.232724793039658806e+01,2.768086504844759332e+01,4.799212144114644474e+00,8.839915261358754606e+00,6.800145607458384234e+01,1.842139272408036099e+00,3.704652134360018501e+00,7.469121800510393427e+00,8.209969379070534146e+00,2.296545582787194562e+00,7.336364964967599711e+00,4.609514418396319257e+00,4.635117111784914812e+00,1.977458670655833117e+01,6.321733401428257793e-01,1.091441551029168622e+01,5.220259785459779067e+01,5.753800039928860244e+00,7.708562161285324343e+00,6.281759289199757745e+01
8.877747573627592814e+00,9.279414497543033491e+00,5.695686920399971598e+01,5.341220720390726484e+00,1.020679562769619331e+01,9.835640704084939046e+01,8.299839041192424105e+00,8.152147170035950907e+00,4.990995350967146749e+01,8.811121432390510932e+00,8.951634151959492414e+00,5.316187439367474354e+01,3.923955737440902425e+00,1.840060285973489806e+00,3.207963145102846525e+00,-1.717281550960477521e+00,7.093056654574955822e+00,1.265297831443760579e+01,6.814222957475104536e+00,6.028241015352381105e+00,4.320503687604659149e+01,-3.568616357214864365e+00,1.373268136395260264e+01,1.453858996006621496e+00,6.903314382901953650e+00,1.657466105524631139e+00,1.818482237764997933e+01,-2.611966593183106422e+00,1.417294199469986360e+01,1.164728860549262457e+01,2.373079408068461404e+00,9.825290810469125447e+00,5.055390421463928874e+01,-1.986405443120597081e+00,1.455935479093938945e+01,3.011504762214892850e+01,7.209832664035733529e+00,1.132891504640277347e+01,1.202179655145651509e+02,-2.205898686796453401e+00,4.303771715136692322e+00,3.821438838175996011e+01,-1.058361212417348263e+00,3.236805308435005024e+00,3.577138826749573752e+01,4.399022882175160021e+00,1.092720353447802850e+01,9.686459194653726001e+01,-3.694373772069226458e+00,9.339624751245079182e+00,2.005012411115399118e+01,2.342675950848000177e+00,4.709257912810826951e+00,6.339558761295393197e+00,-3.620188941240150449e+00,7.108259536912518994e-01,1.630398890567668104e+02,-3.372486567265327473e+00,4.668520175233090264e+00,6.690336034739304694e+01,4.911008473584379530e+00,5.820364871849105448e+00,3.288842924432412218e+01,-1.079987612375662209e+00,7.232963988685827683e-01,6.555230450804072007e+01,6.332826073357880503e+00,1.485510804030162646e+01,2.115456549591463613e+02,3.482762924984573516e+00,1.152635003859533214e+01,9.183136693078208168e+01,-2.134766982707200000e+00,1.165164299204369769e+01,7.679140288920724089e+00,4.857838938330072409e+00,1.412054522198589268e+01,1.768546129249645560e+02,9.547849392683435354e+00,1.030266848880295782e+01,6.371775009703075909e+01,-1.741510548681461046e+00,1.060264559773358783e+01,1.046204856598818544e+01,-2.299473668171317708e+00,6.700766483146323615e+00,1.677313498518757484e+01,-4.128643094931792490e+00,1.697063892825390052e-02,2.211751671537563482e+02
-2.490446125168315206e-01,2.229399316168915846e+00,3.673501722851811735e+01,-2.178037017567532097e+00,8.097989466948625648e+00,8.399060054858667357e+00,6.483436940850202390e+00,9.817854164831674169e+00,9.707523871625441814e+01,-1.875596338374260430e+00,4.216274910166337264e+00,3.430805563995009777e+01,9.201352294737352722e+00,1.472826623418015934e+01,1.606524885691383986e+02,6.587033923785513778e+00,1.015788815269751399e+00,1.916227654150775450e+01,4.034804183732205729e+00,1.366272979896142914e+01,1.485203102028901867e+02,6.457031159542763632e+00,5.488620151836004268e+00,3.957074161485799380e+01,-6.394434339768118036e-02,7.937269454517200451e+00,2.294964369366895696e+01,7.309269100760404925e+00,5.128429242857355241e+00,3.093624839589013220e+01,3.766203997354489630e+00,2.286098054173536731e+00,2.444858583975367594e+00,8.516899909500050825e-01,1.255646876070395912e+01,7.747908300747775456e+01,4.309299003818420459e+00,2.195280900176102445e+00,6.725999408648439370e+00,-1.084716596137909495e+00,7.719694662256197049e+00,1.450999860491551097e+01,9.813631705942311712e+00,1.054074741005594085e+01,6.451068141941961187e+01,1.679408327189564787e+00,4.698724840246471857e+00,9.988104897035187335e+00,6.754323999833488301e+00,3.791406281617391016e+00,2.619177132784029283e+01,8.052396637458846484e+00,1.209540809723077004e+01,1.225753432680295418e+02,3.455594426929035734e+00,9.045440175911148017e+00,5.032804192236512364e+01,7.367047431822983938e+00,3.001020032428548312e+00,1.792378299129786257e+01,8.620403473556219609e+00,2.481157642677964237e+00,3.963354194602618286e+00,-6.863382393218575572e-02,1.023526202946888652e+01,3.659868907650496084e+01,-4.746147261734060763e+00,5.989181848060714408e+00,1.188481129886150001e+02,6.668169505170418176e-02,3.824799213328482494e+00,2.386416906334760668e+01,9.420537916472001783e+00,1.004903936094450678e+01,6.127559426798354991e+01,-2.401223183055076760e+00,9.852562839181295828e+00,3.400637197780763898e+00,-3.406729910091382152e+00,1.055411828774357197e+01,6.198510274623973082e+00,2.059184880210079172e+00,6.835055567589258807e+00,1.827754818673072634e+01,-1.925207542400588334e+00,5.892666223817786708e+00,1.992327616935098078e+01,9.347566018001835175e+00,1.858426006678468800e+00,5.359808932961254158e-01
-4.967253258921485504e+00,2.630729787804979639e-02,3.015660385812266213e+02,-4.995828916031115341e+00,1.536236346374225459e+00,2.552933261917502250e+02,7.705182939838666201e-01,1.473482022761176502e+01,1.146219100540505309e+02,-4.778693134729994796e+00,2.094335473281637439e-02,2.821206219955644769e+02,3.630543804615898651e+00,1.478355384733646538e+01,1.677362053074922130e+02,-4.257684510478620510e+00,2.049476410087058831e+00,1.753750981351240057e+02,9.099400742456380087e+00,1.157384356655609992e+01,9.247439527814918847e+01,6.456561077681156391e+00,1.496161828266615323e+01,2.142786528463988986e+02,5.509567101961852842e+00,1.464362081376443570e+01,2.009550166688826209e+02,-4.510148137785299660e+00,1.989430597958525004e-01,2.500434094279383999e+02,6.438256957772576783e+00,1.487772119200769616e+01,2.119935141238159417e+02,6.113462203781191207e+00,1.481692568123989773e+01,2.102707770357601476e+02,7.568889814786455617e+00,1.496901365713930865e+01,2.020286350760285643e+02,6.593563745918487484e+00,1.480401771591900051e+01,2.093575149611561699e+02,8.321428604878997604e-01,1.325944631836397036e+01,8.864945510044273647e+01,7.940978755940420797e+00,1.490969675876353229e+01,1.930833194183931312e+02,9.596042499808156379e+00,1.398997672690103400e+01,1.350977592792272617e+02,-4.365636906254933614e+00,3.564283328993941846e-02,2.416324715391218660e+02,8.096823238598579664e+00,1.494183649274076053e+01,1.906232835357075146e+02,4.399878280010184994e+00,1.492523746777392013e+01,1.886510727137529386e+02,-4.892101069891134024e+00,3.057289724016629240e+00,2.010494522144603025e+02,6.149675398821914385e+00,1.381608161573417703e+01,1.837107485605115471e+02,6.160049673452432373e+00,1.480561192241762747e+01,2.100713104607964112e+02,8.101014989534109034e+00,1.464316861040327034e+01,1.825433300781208743e+02,6.144556618955443028e+00,1.469599433041612713e+01,2.070235891765906615e+02,6.320403157861383292e+00,1.489284692065046833e+01,2.126017841846465330e+02,5.336023770332470662e+00,1.411587308079312741e+01,1.846660946090182733e+02,7.416977541898356563e+00,1.454709614091466285e+01,1.932030275343380481e+02,7.939217694613061482e+00,1.359394750397961360e+01,1.591620745422150378e+02,-3.830761897755074585e+00,2.756188392102294493e-01,1.897264039936285371e+02
6.889033003033732783e+00,1.490489520441671267e+01,2.099485865596415124e+02,5.672688272584128555e+00,1.493744192610391330e+01,2.108063314863251207e+02,-4.049741085937588636e+00,2.612816884517437863e-02,2.142374678605739575e+02,-3.928968710039435930e+00,1.691094760011509157e+00,1.599026700511495278e+02,-4.836544235599371078e+00,1.652814121067437969e-01,2.832731113546203687e+02,-4.975446810218852711e+00,1.601716525668851032e+00,2.512679633010954205e+02,-4.977447536805251538e+00,8.711463989964064458e-01,2.745828203148930697e+02,7.409202711183219492e+00,1.480419487005020507e+01,2.002795245956709209e+02,4.832200256898920188e+00,1.497951597885801434e+01,1.991904760025863368e+02,-4.464029176531451704e+00,4.950220665305650192e-01,2.366641655910437976e+02,5.295402354993017369e+00,1.467633478443980088e+01,1.989636434300034011e+02,8.926499014752199201e+00,1.435738119945003888e+01,1.571275446743387363e+02,6.739593210995892036e+00,1.494369573680891428e+01,2.123108606618750116e+02,5.530035416661176484e+00,1.490126095958581232e+01,2.082579606058147874e+02,6.526155371271263661e+00,1.483322332345550265e+01,2.104713434172018651e+02,-4.822622658631109616e+00,3.888765526872861589e-01,2.745402142455051262e+02,9.833706646334029244e+00,1.147059885241025690e+01,7.993756738240480786e+01,-4.980269425832259067e+00,2.274212948542894797e+00,2.313885930680468448e+02,-3.461242768565127914e+00,8.044418963313283433e-01,1.502519635100236428e+02,6.444602313719331121e+00,1.489461237373645730e+01,2.124458508780123509e+02,9.832478124386899054e+00,1.498744127300895990e+01,1.547453940319865069e+02,6.289072777116812674e+00,1.469658928282101584e+01,2.071983839524654911e+02,8.151408671671404704e+00,1.460523681723691780e+01,1.804555752250940373e+02,5.767231296722847844e+00,1.488691039940980687e+01,2.102631363010769121e+02,5.222189042776685497e+00,1.479763060962469723e+01,2.011464494479824907e+02,7.490484620589752396e+00,1.477246039281192047e+01,1.980438344555375636e+02,3.206404266337020914e+00,1.493763363198697114e+01,1.626919408321701042e+02,9.135274682911735056e+00,1.378843360182737143e+01,1.390526931988863737e+02,9.909544897106211891e+00,1.207741630761526608e+01,9.008784539190864393e+01,-4.108138618547215515e+00,1.786924036237808266e+00,1.706671542444122167e+02
-3.586436439457309611e+00,5.254963473102861604e-01,1.654682630642457184e+02,7.546777110791454746e+00,1.463030769359510508e+01,1.932171750641369954e+02,-4.746938453180402639e+00,5.243968190233213589e-01,2.626484487425851171e+02,9.991087008481608578e+00,1.349777635436436363e+01,1.175992814556901180e+02,-2.046298916709690108e+00,5.285783653302686957e-01,9.132486067546315667e+01,-4.333064089684159015e+00,7.797395853402960819e-01,2.165344646594640494e+02,-3.699551965037370493e+00,4.122277797941155120e-01,1.763379508160022056e+02,-4.902437014189351849e+00,4.226546115836445072e-02,2.941927811512620679e+02,5.998652531949971944e+00,1.498673708866561149e+01,2.145581313522710047e+02,-3.712331869501197978e+00,6.398777842122891357e-01,1.712818556323684618e+02,-4.790060447723006654e+00,5.293239059725877160e-01,2.667537527006782057e+02,4.628997018089556548e+00,1.460827573720643180e+01,1.850732567128789015e+02,5.253328005479533047e+00,1.466788270492071433e+01,1.981016443333046766e+02,5.964909494754307318e+00,1.432212667507567794e+01,1.962572449276488555e+02,8.020817710892485408e+00,1.493539141934740577e+01,1.920888232727767218e+02,-4.725656245590598381e+00,2.608282503518607687e+00,1.989477456781679336e+02,5.941809343623546624e+00,1.481051331424058759e+01,2.093708409238865329e+02,-4.007456066795200833e+00,1.144846691016087714e+00,1.797966727803457445e+02,6.107181433229674994e+00,7.128472675540982628e+00,5.696387680078119331e+01,-3.959975161362245810e+00,1.483799285663183731e+01,3.739754437657911268e+00,-4.772331884435829785e+00,1.491549543668690880e+01,1.302262288446960525e+01,8.221529541890667758e+00,1.494314073574611967e+01,1.879175507106501470e+02,7.006227858293060606e+00,1.461833121048838002e+01,2.008595558747120151e+02,-4.568442888572987748e+00,1.171281189286184493e-01,2.581701871187283928e+02,7.119674680780857301e+00,1.459903271534059499e+01,1.989653703538776881e+02,7.169842851339776502e+00,1.489864387016841540e+01,2.064830714539220367e+02,5.838012784168931546e+00,1.488238588241834393e+01,2.106906389041570264e+02,6.148057116345686524e+00,1.485571757182891872e+01,2.114314095208179083e+02,5.940551112268469325e+00,1.487498494660905735e+01,2.111467935534905678e+02,-4.699940830908678535e+00,1.670501167460547221e+00,2.232550822257284153e+02
6.463570838170257460e+00,1.461234873894007613e+01,2.046301738474914487e+02,-4.372834198711821330e+00,2.600181786393493510e+00,1.701606402646683875e+02,-4.803679355758023739e+00,3.453326529453816462e+00,1.828652632854827118e+02,1.231256945083529786e-01,1.646452729241781321e-01,5.135384590919910153e+01,-4.925161023098360680e+00,2.499045708301079749e+00,2.197277516448290271e+02,6.399451593672120353e+00,1.498393302202295985e+01,2.150397889153481970e+02,-4.896509296819814061e+00,4.475465894784403709e+00,1.643827878919051955e+02,-4.636066410252578152e+00,3.768725983929385848e+00,1.613445303963702315e+02,6.594062087441887599e+00,1.469201555270816151e+01,2.062780974181063982e+02,-4.859889325656351566e+00,2.747466928032737066e+00,2.068126722113752862e+02,-4.921072900791684468e+00,4.986257626321102698e+00,1.539085480239329797e+02,7.264252649789371574e+00,1.469702593761362408e+01,1.996240908485225418e+02,-4.895774734495419445e+00,1.489420490010500764e+01,1.548877341818142916e+01,-4.866972941779632578e+00,2.292072054340036080e-01,2.842853668343600475e+02,6.731249099803573444e+00,1.441840415239637352e+01,1.980261101215099586e+02,6.303661715202618865e+00,1.461524303385235513e+01,2.049734965672456326e+02,4.476226224106442331e+00,1.488816771474116685e+01,1.893192234392598152e+02,-4.406557263268680913e+00,1.389183485895886472e+00,2.054498674360481232e+02,-3.620572903393682207e+00,9.152119987520592304e+00,1.971492560554444395e+01,5.738280267376886457e+00,1.491377714286657863e+01,2.107596393772946328e+02,-3.278261235263130402e+00,3.304926990285248056e+00,8.648913635448775494e+01,-4.672602419588566924e+00,6.446328702511334996e-02,2.700344936582501987e+02,6.178210608650891444e-01,8.257974905647008868e+00,2.802185714034137121e+01,-4.948357174688731597e+00,4.651404374103702111e+00,1.641595465560620823e+02,6.520270199852205906e+00,1.467269675442687316e+01,2.060815263824559054e+02,-4.713989026839989549e+00,1.910372564196984591e-01,2.700606446890746497e+02,8.579663079870691433e+00,1.395803556688765745e+01,1.546741534023636007e+02,5.928342715260916052e+00,1.445674541205157304e+01,1.996589716881962602e+02,5.025361531858166586e+00,1.478369902916186973e+01,1.974629889742859348e+02,6.425217817283950694e+00,1.489717272024998174e+01,2.125658249478017581e+02
4.890261614295734915e+00,1.499429971963983377e+01,2.007220255768216077e+02,6.962730230819959232e+00,1.492037459623866269e+01,2.096210629622923989e+02,6.401955434539612355e+00,1.496003485772392239e+01,2.143671615948383362e+02,6.109422504056501779e+00,1.496199955556789085e+01,2.142881796267202787e+02,7.291195070097446163e+00,1.449332619978765635e+01,1.937367005963860720e+02,7.821919651789968952e+00,1.496299809098011657e+01,1.969887935395703948e+02,6.458748948414141822e+00,1.494525246694746556e+01,2.138157160394520986e+02,-3.795760316424302339e+00,2.456108806392660882e-01,1.878927167213381892e+02,7.295034277770779951e+00,1.493472692259418011e+01,2.056715221147614443e+02,8.024253145198064985e+00,1.498907262597631096e+01,1.934730785102723019e+02,-4.849176630700637425e+00,2.998141893506423905e+00,1.989366285499670823e+02,-4.792027280485464225e+00,1.182237831140737327e+00,2.464746566356262463e+02,6.764031255085930283e+00,1.460926800726921115e+01,2.029292518064059720e+02,-4.811646417718550950e+00,2.356664277638718996e+00,2.135450768863434803e+02,4.879439203876795972e+00,1.475816931817111133e+01,1.940789180757187182e+02,6.733365564152610006e+00,1.456127122971968646e+01,2.018580104953470880e+02,7.769521111777512701e+00,1.479732415781065313e+01,1.935335569881715969e+02,6.537812650042621243e+00,1.458437500878709514e+01,2.036047306513971193e+02,2.270626643740547124e+00,2.131297745625372109e+00,4.639624284564187739e+00,5.936732482340120853e+00,1.468734300959952854e+01,2.059590269960179398e+02,-4.087651254007966806e+00,2.723345808847788541e-01,2.102940443349891382e+02,-4.350500291926793217e+00,1.295975010463463528e+00,2.033059946506438393e+02,1.251439013609765283e-01,3.903527220499475980e+00,2.313429944732213883e+01,-3.839275849714341327e+00,4.239167393645423831e-01,1.863342957290336983e+02,6.635317197085505825e+00,1.492464936505520257e+01,2.124716731782624208e+02,-3.853414106862680821e+00,7.510845451117552363e-02,1.970088960844364294e+02,-4.940889425389444867e+00,2.837600515179051694e-02,2.987037503302132109e+02,6.245164377405453493e+00,1.468363223098719317e+01,2.068319536105756526e+02,6.350706094563943083e+00,1.462150826561908978e+01,2.051099900073923550e+02,7.379827195048600075e+00,1.461069745556023669e+01,1.955122776420759010e+02
9.861411661641618309e+00,1.003781391926897304e-01,7.655354166397470905e+00,5.963728499203590161e+00,1.467550227712134081e+01,2.057823193681392695e+02,6.201285185287822799e+00,1.462081538018899352e+01,2.050733966558852899e+02,6.740151696661200731e+00,1.467183049342713552e+01,2.048133759455667757e+02,-4.147361218269834282e+00,1.483242761882404670e+00,1.816414623241728634e+02,6.242513886445898663e+00,1.447406590657458025e+01,2.011389784011363986e+02,7.836311327452817110e+00,1.483998400889752212e+01,1.933516838680725130e+02,6.593664675040622924e+00,1.448689368721788462e+01,2.007101396968035658e+02,-4.650113912979748854e+00,1.476124540566275734e+01,1.130211556720407984e+01,6.384258637056099417e+00,1.488155115325068856e+01,2.122146505117983679e+02,-4.330858965180094167e+00,1.477994792301986493e+00,1.965970999370041739e+02,-4.852796873076908213e+00,3.118065026024142039e+00,1.959774631524677488e+02,9.730757307506399556e+00,1.347920283853836221e-01,6.463418801600586683e+00,-4.887395382542008448e+00,2.734623452840327928e+00,2.096138436596547763e+02,6.683143605513905072e+00,1.468784725140127456e+01,2.056472282948244867e+02,-4.181088341569910938e+00,6.858025330423763721e-01,2.062829998546502281e+02,6.661409773088287523e+00,1.462727914949249985e+01,2.041327202023672100e+02,4.622616470088900087e+00,1.496801759958752776e+01,1.946102537098062157e+02,-4.887794196781712230e+00,1.255797782095775084e+00,2.534513774185764419e+02,-3.515317079705357894e+00,9.879127979532958292e+00,1.182408645820477311e+01,7.706647020153848615e+00,1.492979288123114578e+01,1.983650840350136946e+02,-3.860681974501818381e+00,4.255801740125025878e-01,1.879151295532941219e+02,1.082377510410897692e+00,1.152351725015976491e+01,6.488432533716877515e+01,-4.482058379551641991e+00,1.626521089405075227e+00,2.052434636956041061e+02,-4.370450355346591209e+00,4.215944037615465545e-01,2.303827295820865686e+02,-4.653932834874538571e+00,4.234740749545840899e+00,1.514152811047020748e+02,-4.842082159161900989e+00,4.436012958338771739e+00,1.610555307240217928e+02,-4.956961967155249837e+00,3.313908238664521555e+00,1.996687630292098561e+02,9.860959169303013638e+00,1.472800890002314311e+01,1.478717892298923857e+02,5.403060469791764575e+00,1.487053337670355724e+01,2.057968087284580747e+02
-4.981371945310184124e+00,1.442551913540016884e+01,1.954948354144645606e+01,-3.934853812162565578e+00,1.012014773766693576e+00,1.778063912152399837e+02,-4.950098188819928247e+00,3.105176327666243630e+00,2.048197325776047819e+02,5.389298870872030633e+00,1.455910522302727195e+01,1.971298886462410280e+02,7.044564251868967730e+00,1.483478692817612909e+01,2.063260593892634347e+02,4.912937438091832476e+00,1.491348417313529495e+01,1.989371935859560949e+02,6.112748928442130136e+00,1.457360532105971629e+01,2.036058853405299374e+02,9.803608149407194716e+00,1.487442158382661006e+01,1.524863585790281206e+02,9.970456324017245464e+00,5.652618770633067946e+00,1.038117307255747868e+01,4.527156163205843242e+00,1.483004526997646622e+01,1.888516313948773870e+02,-3.886952405448282022e+00,2.272728801615915908e-02,2.011073016647890768e+02,-3.921996412367676044e+00,6.221918003916107054e-01,1.872676081594026698e+02,-4.961112484462225858e+00,6.478048111149391497e-01,2.801860416020766706e+02,-4.324253128972919136e+00,1.197377467119377537e+00,2.038573141308102379e+02,-4.905281588247865088e+00,2.687846568355529708e-01,2.869253088963852178e+02,-4.847873054511145696e+00,1.477750549580956374e+01,1.496292248603820774e+01,-4.878876325010836901e+00,5.776512220814379317e-01,2.740980611007911421e+02,6.871132089043024749e+00,1.471042885993382576e+01,2.047669999636985381e+02,7.404121694409365517e+00,1.450574218076028643e+01,1.923072367465623813e+02,5.760185605197138514e+00,6.943331835123492723e+00,5.323115413133629659e+01,-4.825884419634239642e+00,2.683917368205001264e+00,2.055873791577920429e+02,5.303111481778314484e+00,1.483417066143337415e+01,2.033811065059503562e+02,7.204958538512675759e+00,1.489528536916183832e+01,2.059035500422928067e+02,6.784109477074762751e+00,1.456598236671274194e+01,2.015970216116065217e+02,-4.975377899336134391e+00,2.380820693570520064e+00,2.277907834743898263e+02,-4.005363641628443716e+00,2.059777939173656758e-01,2.054202662247456601e+02,-4.091444276916449851e+00,1.003728380637376683e+00,1.901397251593251667e+02,-4.994515227964249071e+00,1.418292112455216580e+00,2.588515103382180769e+02,6.673912248150799087e+00,1.466484597706802795e+01,2.050783791168401251e+02,6.553566257388636629e+00,1.469832337255610355e+01,2.066437447039131143e+02
9.677895033512394107e+00,1.495193106134211014e+01,1.567637156608644204e+02,-4.921246306312519359e+00,3.002968431161967988e+00,2.051110869547414097e+02,7.200699068011926940e+00,1.489888369481075436e+01,2.060626886541528791e+02,-4.821622790103707423e+00,1.720827327051607014e+00,2.329800070844503921e+02,9.837993064137192434e+00,1.362119596964934121e-01,7.278530124002478452e+00,-3.378545059735209577e-01,3.049378411581846887e-03,6.195025195285074204e+01,-4.506320933857808519e+00,1.891259410801767293e+00,1.999319076323451725e+02,5.283583088269061534e-01,1.491539270762869229e+01,1.127894950212020149e+02,-4.617502021595801587e+00,2.274726943565973797e-02,2.659425689245803142e+02,7.055862115819566682e+00,1.462107756424675031e+01,2.003551068666861568e+02,7.368602170625134562e+00,3.427900720092923875e-03,1.579262922848456974e+01,-4.542017956254456479e+00,1.658355603064694428e+00,2.095380161528421183e+02,-4.004047168241737786e+00,5.398583872968535369e-01,1.959443827457008354e+02,-4.109171390879897245e+00,4.792886253002927588e-01,2.061702664693969780e+02,-4.853734736779641068e+00,3.454094043415292692e+00,1.870374982482725841e+02,3.504713597707040051e+00,1.488340641110877449e+01,1.675803066035748827e+02,-2.948504724177279712e+00,3.751220680242652872e-01,1.309615866052131423e+02,4.335951043496546475e-01,1.494762232900748700e+01,1.111406041755076188e+02,6.524768327142082214e+00,1.470369688169003197e+01,2.069120480176263186e+02,-6.507245149850762189e-01,6.946118476689452592e+00,1.766037213306536913e+01,5.998879291261950186e+00,1.474605646075822918e+01,2.078893806218439124e+02,9.555995727935766126e+00,1.187734971076445378e-01,5.488303496948088167e+00,-4.229702735389796686e+00,4.519226468185411072e-02,2.291183184962803239e+02,5.784929359254231684e-01,1.490232221753681330e+01,1.137006073825153010e+02,-4.812345627519946767e+00,3.192885454435800519e+00,1.904989118376468582e+02,4.775187084203338372e+00,1.498229484143121581e+01,1.981359563430741844e+02,-4.833167147689568566e+00,2.035141861972411093e+00,2.247726243784889277e+02,-3.268362955320320395e+00,2.185214319308851127e+00,1.080007005143195897e+02,-4.443080431997216806e+00,1.828741771868755694e-01,2.442582319363251884e+02,9.750489126895059755e+00,1.313421226874168823e+01,1.135084357004331679e+02
-4.251181680481516345e+00,7.918662222433169307e-01,2.091603501794465387e+02,1.443318793318058901e+00,1.487086206691541612e+01,1.301209844264731430e+02,6.684375275811341055e+00,1.470712791599853375e+01,2.061666076337356799e+02,7.193854088327901408e+00,1.484863430952226793e+01,2.047747256289877669e+02,5.791234824482268451e+00,1.448667201930707726e+01,1.995279148635916897e+02,9.434467263335985621e+00,1.493141426537239447e+01,1.610208037818094340e+02,9.998705776454011485e+00,1.491821781909894007e+01,1.500399915082883524e+02,9.976219048245013710e+00,1.662025024973957654e+00,2.956092108393201912e+00,-4.798326505468970105e+00,2.921955752924711103e+00,1.966237961337100444e+02,9.938688406376186890e+00,3.887874882411955779e-01,6.944861980064729323e+00,9.728735786847710898e+00,1.474997974065583861e+01,1.508122791243879419e+02,-4.958299142052300823e+00,1.457266174830664340e+01,1.825414376774931569e+01,-4.620101660573573632e+00,2.470712894157259587e+00,1.936897745302527767e+02,9.890288431517921808e+00,3.847828720996793739e-01,6.541263310868467684e+00,-3.771507390082384337e+00,8.282650180354431679e-01,1.706121324176837106e+02,9.915832086298307146e+00,1.447357143970116411e+01,1.408259203798632200e+02,-3.980342016770590519e+00,4.930243148956341415e-01,1.953613462553848592e+02,9.834134691474199386e+00,1.472339358299820944e+01,1.482411705825695094e+02,-4.486919384712662051e+00,1.951536504140986894e+00,1.966250157083933914e+02,-2.458240607055456550e+00,9.879395439556618586e-01,9.644655263705833192e+01,6.170398536723707750e+00,1.468543190350762728e+01,2.067880551800178637e+02,9.942687272461155246e+00,1.486834723877355025e+01,1.498204840753966209e+02,-4.654565644568186222e+00,2.102637893960073168e+00,2.068260970866826653e+02,9.954046477089288913e+00,1.469548587969984155e+01,1.454437042173505574e+02,-3.901805301499471135e+00,3.559133537085377164e-01,1.929892598901238614e+02,1.858983083128809000e-01,1.494893223966743001e+01,1.048220680957017095e+02,6.417833434791294422e+00,1.455736314582890856e+01,2.032550400883306452e+02,-4.225047332876059158e+00,7.930198959020071658e-01,2.069223744406865535e+02,-4.848906906695825469e+00,1.807486168298010121e+00,2.329475916019533770e+02,6.158186043948139954e+00,1.522449843281946597e-03,2.052810776689238281e+01
1.030197819092890654e-01,1.486072881837727699e+01,1.009719719162352334e+02,-4.949364385077434036e+00,1.441555575776967579e+01,1.882874995604815282e+01,9.727709308751405715e+00,4.837239127278298301e-01,4.911323174522044255e+00,-4.974399892409379298e+00,3.101171023054310361e+00,2.070835159599749886e+02,-4.094029095552553343e+00,5.838747935216518359e-01,2.019707743397472086e+02,9.459304400879176455e+00,2.282891712165847076e-01,4.603392455338804368e+00,5.222555186839063168e+00,1.469460061188230782e+01,1.983490386079018322e+02,-4.541250634137615982e+00,2.139430998414922236e+00,1.960580607860431144e+02,-4.193899967786401284e+00,7.524890528332990325e-01,2.054627863422624046e+02,-4.871040777118192722e+00,1.400697165858112569e+01,1.908278268493662821e+01,1.197250353362013797e+00,1.471775821232620807e+01,1.225330527324134948e+02,9.932992888311861890e+00,1.703945029712406800e+00,2.578120047276380333e+00,-1.443253068917582205e+00,1.487663228980419028e+01,5.111083896581872210e+01,9.935500670127360934e+00,1.472051705232719776e+01,1.463696361640970167e+02,-4.574782449905327120e+00,1.918404996071292778e+00,2.050534656454081812e+02,9.960908234104657311e+00,8.223951345082870512e-01,5.319691915831691986e+00,-4.995788394971005353e+00,4.254279655375288627e+00,1.780059088276239265e+02,6.977007622088036598e+00,1.243943929227422363e-01,1.825934608798735326e+01,5.632874969004307175e+00,1.479640807264559221e+01,2.065081183495815083e+02,2.295846439774729575e+00,8.443217400885405510e+00,3.311271470274537876e+01,9.480964300194324679e+00,1.135892838730169885e+01,8.256581650684336182e+01,3.912652536888208132e-01,1.490406466917359296e+01,1.092669913336539906e+02,-4.024711160839717472e+00,2.463558853459563713e-01,2.058493770468604680e+02,9.789892373959263594e+00,9.380102092467461350e-02,7.100310898458417341e+00,9.648017653144920658e+00,9.388980342636531473e-01,2.871371771891322311e+00,9.919567981967643888e+00,1.429250601706095836e+01,1.365217886908099558e+02,9.789395239794931314e+00,1.486804893803918404e+01,1.525912751489341588e+02,-4.081707552983083076e+00,5.843498878747150904e-01,2.009526416904345751e+02,-4.569859378363609004e+00,2.001728679810293343e+00,2.023013731662192356e+02,-4.739522732558740792e+00,2.644306092263267072e+00,1.991542078613128979e+02
5.654427280357829488e+00,2.692904494881935840e-01,1.837540771548533769e+01,6.080125881878092997e+00,4.243901579660972444e-03,2.040678697358166360e+01,6.717657887386867088e+00,4.070636164102375831e-02,1.967668582457877591e+01,-4.244658639747053819e+00,9.386815526258042164e-01,2.044468893485417027e+02,-1.506493111460551759e-01,1.494898000689084050e+01,9.529371024988823535e+01,-4.777928932766121406e+00,1.481365231472924116e+01,1.345777469970712303e+01,9.958126380628094410e+00,1.302371607706416246e-01,8.389040970889736215e+00,4.821571390302455740e+00,2.982372499485914583e-02,1.258574519596925079e+01,-4.301362194146474138e-02,1.480146348375938814e+01,9.585451797390041406e+01,6.444140438778749314e-01,1.484716895969128281e+01,1.141125838881102084e+02,-4.598887239537261529e+00,1.936510501461576439e+00,2.066381166433102692e+02,-3.803815499682716705e-02,1.257607065254902068e-01,5.481894254262766708e+01,9.968099295210187449e+00,1.402414496250722031e+01,1.295700026825431053e+02,-4.650698088593546053e+00,1.454771394435777587e+01,1.194708254157699656e+01,9.989935549470690290e+00,1.498681913606811023e+01,1.518708762429193939e+02,2.785867650868817158e+00,3.577250592260460688e-02,7.315867498298159077e+00,-4.038116411672919348e+00,2.128086520184605812e-01,2.079029834467740159e+02,-4.874221514080647744e+00,3.483784266380705930e+00,1.879791534813299734e+02,-4.942597385917826713e+00,1.420475062548327472e+01,1.978456872872402528e+01,1.961734104615715069e+00,8.447586868725943887e+00,3.217162752054223773e+01,-8.099717661071377250e-01,1.490994650776705477e+01,7.343845516917384941e+01,-4.990484482290690416e+00,1.429539446801738123e+01,2.048416938545922150e+01,5.347309657295447494e+00,1.493657422660395184e+01,2.068435996775648107e+02,3.394034248753641236e+00,6.817102172103813029e-02,4.658396183679662350e+00,9.583143984385523950e+00,1.430494930345637172e+01,1.427415401935643331e+02,9.865286987407273500e+00,2.510309110470692606e-01,6.950866194438518164e+00,9.634478563340573842e+00,9.613717891994462417e-02,6.019940861072277549e+00,1.641841132488969457e+00,1.493806042723967487e+01,1.349763204751500894e+02,-4.274291480308900049e+00,1.009793180198725437e+00,2.049290088595805344e+02,-4.872321764103044295e+00,1.488607810827805977e+01,1.504518448113861062e+01
-4.421397776158376480e+00,2.043618907610885937e+00,1.886626893356874177e+02,9.513055075119696724e+00,1.471854601470390733e+01,1.541285807220665163e+02,-1.886950707160007124e+00,1.482348749752604178e+01,3.584458708010560457e+01,-4.844260800602832262e+00,1.448134439136032370e+01,1.610543728525976803e+01,-3.069409930005913001e+00,1.497680887770477121e+01,8.824034718291397184e+00,6.521283319025217295e-01,1.499911939688698581e+01,1.172950374610873325e+02,-2.466309167609162856e+00,1.480489266093694845e+01,1.939127616777287599e+01,4.295067173662232562e+00,1.495481100745432812e+01,1.871238096072993358e+02,-3.880175756696849554e+00,3.915503011881658196e-02,2.001106340902670979e+02,9.718188563871288821e+00,1.420347377199958139e+01,1.379108452376061678e+02,9.667740126333317363e+00,3.449543738386635638e-01,5.114573020717216423e+00,5.954511916260543103e+00,1.411097765103964363e+01,1.906272867041146242e+02,6.845570638220118909e+00,1.911350733884114098e-02,1.916557505608088263e+01,6.972750308214353154e+00,1.475653565483996843e+01,2.049972359532955295e+02,9.886464491194837834e+00,6.624602203351179774e-01,5.331269282277876442e+00,-4.904431331021935847e+00,3.558871250780565099e+00,1.885412866362215709e+02,9.953345695703321283e+00,1.216293738516860956e-01,8.387283834404820837e+00,9.966457726718491728e+00,1.064976936132969598e+01,6.468201564652980551e+01,9.523319292118941348e+00,1.491535096744475730e+01,1.588444258370782052e+02,-2.099140502384610141e+00,1.316630873792717482e+00,7.881594068479678583e+01,3.162919413736762664e+00,1.472637178905512323e-01,4.750726822232459234e+00,-4.754997589824188076e+00,3.110600774662971801e+00,1.878528054293076366e+02,9.908546646195942387e+00,1.496021779512823358e+01,1.526816823463547337e+02,4.360081969473036168e+00,1.487633679796567954e+01,1.864594652173444160e+02,-4.996309595727960406e+00,1.342795101036763228e+01,2.627294391758503878e+01,5.829888524567932606e+00,9.000511124555701792e-02,1.950850976783535629e+01,-9.671948013970599334e-02,1.494058642128957892e+01,9.674167998207832397e+01,8.995382443830392205e+00,9.650314624012388265e+00,6.084737448454579578e+01,1.635611851302147812e-01,1.490357009644536568e+01,1.033886757815942445e+02,1.431279702704702395e+00,1.482592667303271483e+01,1.289368815833697397e+02
2.322217152230807713e+00,1.727279074085905086e-01,1.136536840957582051e+01,9.843101653111505200e+00,5.447224528127945220e-01,5.470835314412162198e+00,-4.347750182694871235e+00,1.434694773498439213e+00,1.992037687827858292e+02,9.882307365369197072e+00,9.791005570142153891e-01,4.146086826174835593e+00,9.913943619753379011e+00,1.486688729770454387e+01,1.502984927000416917e+02,-3.577358755201803575e+00,2.008409298218360728e-01,1.732597491203160871e+02,-4.888611925569236405e+00,1.985413648871919845e+00,2.313702388423425020e+02,-4.961010255457679818e+00,3.540287224986268022e+00,1.938711423519094126e+02,9.937838816723020940e+00,1.488703291813582297e+01,1.503623042647834041e+02,6.560455061864134407e+00,5.365774689257805929e-02,2.014946025791556394e+01,3.972651827981545480e+00,1.495845992621417508e+01,1.799473738713244870e+02,7.886333634916230295e+00,5.243908043704383071e-02,1.131010349649294433e+01,-4.921311687051891148e+00,4.313687310184292301e+00,1.704048433814150769e+02,-4.282682721540172821e+00,1.001479850083366374e+00,2.058709825470459123e+02,1.004565769938180253e+00,1.300249389392902077e-01,3.450203244999620722e+01,-2.436404575200779021e-01,2.823327190415998375e-02,5.985786002811310880e+01,-4.545297365070156026e+00,1.452434332770885206e+01,1.016211382946168484e+01,3.132079669987769321e+00,1.499619296944890401e+01,1.626705400968416768e+02,-4.988672002438388375e+00,4.599122636078486259e+00,1.686831247944523966e+02,-3.830993834371044571e+00,8.465775015376925339e+00,3.273352082985711320e+01,9.991561722234232334e+00,2.160718196288514914e+00,2.236909552862110573e+00,5.352185491134141770e+00,2.087056692289535331e-01,1.654469921992435033e+01,-4.972964527430271175e+00,1.394814296517196439e+01,2.207588910752335920e+01,-2.596646973425968952e+00,1.493507299205021610e+01,1.737875167049951841e+01,-4.618706400059566342e+00,2.407689876190432177e+00,1.952876768511644343e+02,-4.947159138857564642e+00,1.464996648892472031e+01,1.763181977862369010e+01,7.179632222443803613e-01,1.412695494833850207e-01,4.009303241782417615e+01,4.355274593989289400e+00,1.499730958859487195e+01,1.896113659195736716e+02,-4.990575440995873358e+00,5.492043582401807456e+00,1.473144106592876881e+02,9.030644161524426394e+00,1.491128825693790105e+01,1.689727371560322524e+02
7.547682534363936213e+00,1.478495271046294590e+01,1.973781004393424325e+02,-2.010978068640038696e+00,1.499979613925236777e+01,3.386131981828696524e+01,1.235847105022358505e-02,1.011327921279058101e-01,5.416657701401566527e+01,4.532230265678485637e+00,1.498104431356019361e+01,1.930423098631254959e+02,9.988206844094566605e+00,8.626968912805633494e+00,3.655536033442908206e+01,3.341315787827568329e+00,1.033787823842325510e-01,4.559769809035859822e+00,6.258472271532262710e-01,1.089862479787407495e-01,4.223081484701921084e+01,-4.979339178776080566e+00,1.340726026811949190e+01,2.591228963393811568e+01,4.445424287676660313e+00,5.057976137684567358e-02,9.363509216765690368e+00,-7.040715359833296105e-01,6.672269712141223885e-02,6.796520853086471448e+01,8.360369929428971503e+00,1.497961934493743996e+01,1.857924637892575106e+02,2.417579370178417619e+00,1.486995156393895456e+01,1.462648950620139772e+02,1.905155654579705704e+00,3.201485473792878289e-02,1.837857110808697314e+01,-4.944015992345934585e+00,2.992377285682161325e+00,2.074223973962365051e+02,-3.272070060577663586e+00,1.472953481066145365e+01,5.170571920954995626e+00,5.984077293518046403e+00,1.005417451475521112e-01,2.000531302465844519e+01,6.771689568962866446e-01,2.847865300190881022e-01,3.953152454225860879e+01,-1.334542949360017161e+00,9.038482541621878141e+00,1.272210415329943700e+01,6.097314123664045127e+00,5.236909654680349524e-02,2.034303858822052291e+01,8.900120159377141960e+00,4.524009856347275260e+00,8.747239104082130012e+00,5.798747217263837683e+00,6.393023052348065227e-02,1.943001751609897454e+01,2.818864804680948133e+00,1.498529679080278854e+01,1.562769870558994398e+02,7.416378731274850367e+00,3.119668265219279757e-01,1.479272125297276474e+01,8.545112389038422407e+00,3.365757908737072590e-01,5.599332233785387025e+00,-8.888624227245065512e-01,1.481297611798806280e+01,6.931652443942491004e+01,5.592238256110505290e+00,1.475014008539694110e+01,2.048070194790954872e+02,6.514075948291505824e+00,1.537566056651470392e-01,2.007490191154322901e+01,-4.826328611362611376e+00,1.446622826810651219e+01,1.578005467376125281e+01,4.882670729954821098e-01,1.016023146411940692e-01,4.501793549597621080e+01,-4.394669781409702658e+00,1.460757069509491135e+00,2.024298630962145467e+02
9.032007798165283319e+00,3.610797638959515776e+00,3.864172847150295631e+00,6.251157032759563137e+00,1.461347885768292088e+01,2.049204573781574936e+02,4.205637389014029281e+00,1.487997549077914172e+01,1.831171815268648402e+02,-1.807810547585573246e-01,1.489412751332629092e+01,9.344461843513091992e+01,-4.998593892700718300e+00,3.535675728215442959e+00,1.972450976356538490e+02,3.447558708256469373e+00,1.489986415574660761e+01,1.667765692970441478e+02,3.953791065161114560e+00,1.497719485872167944e+01,1.800180754962005665e+02,9.990219219276530893e+00,1.155163006622560040e+01,7.952919909278075750e+01,9.798159016483975137e+00,6.548593335475623167e-01,4.707291584078673097e+00,8.785383259350648899e+00,4.415169109641705059e-01,4.121126459603087433e+00,-4.965922969337406734e+00,1.415625362885865002e+01,2.064842573735108289e+01,4.995206843719355305e+00,1.494042487961255361e+01,2.012013936662342530e+02,7.065559104621502939e+00,2.604270416662475274e+00,1.914117562982278287e+01,5.576362629411452332e+00,1.477998571599158772e+01,2.054498827753389207e+02,5.585878635333513031e+00,1.451395121588006276e+01,1.983269565095270934e+02,-3.483112213028444870e+00,1.474788314066423212e+01,3.733973943538401841e+00,2.178136495887063262e+00,1.497411065476161696e+01,1.447023261763207245e+02,-2.539096062996183623e+00,1.203830445613217925e+01,3.482610608516241157e+00,9.874998979917625874e+00,2.731757611784494943e-01,6.927967894545805194e+00,-3.643003907700913313e+00,6.212873345507441414e+00,5.437461024291543765e+01,4.202139095243126121e+00,1.496673181310928236e+01,1.853594169598438839e+02,-6.915369507216828637e-01,2.922356720957285936e-01,6.457862487948088415e+01,-4.141382064653971184e+00,8.126552788956220574e-01,1.994340785757900676e+02,8.755130260787058916e+00,1.732066932788367764e+00,2.473306307873540000e+00,3.255307157293657383e+00,2.980786272795789005e-01,3.930925169372958550e+00,4.466324201121455673e+00,1.294188927117998311e+01,1.404593352511096782e+02,-2.853376203269544220e+00,2.529454366391699627e-01,1.289252414638550590e+02,6.088825328408493220e+00,4.799994023324458126e-02,2.033675553215309861e+01,8.149464885237090783e+00,1.498739950222785033e+01,1.907053414981408821e+02,-6.124139028209238944e-01,1.704982996606642029e-02,6.692900851001272144e+01
-3.000288373663555053e+00,6.016060123836777684e+00,3.529332013480804875e+01,1.238145524965774236e+00,1.979660253395800276e-02,3.080742418959555451e+01,9.170064219880313061e+00,1.478897484556855701e+01,1.628485093603393068e+02,8.569238706295200458e+00,5.965640403544343329e-01,4.837734295727562639e+00,8.355506239639250765e+00,1.496646973703488585e-02,7.721317810375753155e+00,-1.562431809336126243e+00,1.314242303026015435e+01,2.897285514739876078e+01,-4.684832417003128135e+00,1.404999526344207084e+01,1.451337271896843717e+01,2.430781207137062694e-01,1.393808301021801732e+01,8.850014071995758513e+01,-2.371294350425366293e+00,1.463453368760364270e+01,2.031722316917344884e+01,1.037525521397720141e+00,2.356816942917422164e+00,1.941068696078122358e+01,6.562332234257519659e+00,8.226689492115282221e+00,7.131292001869402952e+01,-1.605719364586734699e+00,1.412227396135833146e+01,3.712382473692082385e+01,4.162799763112611018e+00,1.499167729192293486e+01,1.851411981421046278e+02,8.551662652140496590e+00,2.369480802544693746e-02,6.481751179026220555e+00,4.306917912763788436e+00,1.005089177969547265e+01,7.942163253129403699e+01,5.313247422301515144e+00,1.386977201980944052e+01,1.780068951971878732e+02,8.673807299857362096e+00,1.136161646295839844e+01,9.586766967692646801e+01,-4.998079952304062878e+00,1.490326722109887569e+01,1.761353648388565318e+01,4.681597835160644649e-03,1.497029627595912338e+01,1.002019036238625347e+02,-4.717965700895381254e+00,1.872258583849343960e+00,2.190230569648530548e+02,-1.652708131210864018e+00,9.830067813006689192e+00,9.943258466111752014e+00,-1.671323423677967046e+00,1.112757388206957998e+01,1.350450998727843910e+01,9.998086140428341650e+00,1.096000321151302792e+01,6.937258132474477179e+01,-2.074134379201808986e+00,9.803232346051359514e+00,5.370223567323716196e+00,4.841776905785744489e+00,7.233145332511600190e-01,1.153034368631972839e+01,2.108405995986421644e+00,1.128296968277055079e+01,7.029804023042729000e+01,8.959346979124726218e+00,1.499276409737687210e+01,1.726549905645977105e+02,-1.091087197672148790e+00,1.363844980051485689e-01,7.450817865328082235e+01,9.728663702424370285e+00,1.091583867750724468e-01,6.570816424485403040e+00,9.997215066976357534e+00,5.194455199598773554e+00,7.918501168445590821e+00
2.845628143198362991e+00,6.657066400158955233e+00,1.812472990945278895e+01,7.521793266784948528e+00,1.779367590513719399e+00,1.347367069526248073e+01,-4.964397605855439544e+00,1.450554556067466372e+01,1.872904472922731500e+01,9.566313772553174388e+00,1.494927343899442995e+01,1.588536194740545398e+02,1.751470421545904266e+00,2.192767379445833553e-01,1.971042270818264797e+01,3.921073364948016504e+00,2.591907046991015040e+00,3.953882601198663416e+00,2.763676768877454393e-01,3.214369489770502852e+00,2.478589083461497822e+01,-2.220938789958526893e+00,1.297540630119204863e+01,1.211744703760233577e+01,2.011623538124291954e-01,1.176914595778693950e+01,5.642574040760511878e+01,-1.737971474990288812e+00,1.076308331771543969e+01,1.100871094553139429e+01,9.071015970788819160e+00,1.262127325487409202e+01,1.141369373019005167e+02,8.919516133835655225e+00,9.927074429078253104e+00,6.634894403389350259e+01,7.441739933764319304e+00,6.282387409842538517e+00,3.998375064252311972e+01,1.454548557807075149e+00,1.499689289578449269e+01,1.330818992016232016e+02,2.263973813362510690e+00,1.021534217289151414e+01,5.526478674005485914e+01,-1.076274139254014273e-01,7.381413132783470665e+00,2.100739142217106803e+01,9.357809670388792966e+00,3.665505204386386162e-01,3.770967841861425640e+00,8.853639634691187865e+00,2.941690985581951523e+00,3.142624010660322043e+00,9.977553333613622399e+00,8.790163280968959825e+00,3.857066325071245672e+01,9.407762708240214877e+00,1.473915849100512787e+01,1.567158376762451724e+02,-2.496756243182811197e+00,6.639844746113341856e+00,1.932831509401648873e+01,7.667245612917700015e+00,2.470524310203681684e-01,1.277380546368696024e+01,9.527680773512807733e-01,1.484693688313548776e+01,1.205923067917964318e+02,-3.036241715337027358e+00,2.971264797343651232e+00,8.196735688757797789e+01,1.892972227567822685e+00,1.020606212479246100e+00,1.281834950128414619e+01,5.610449989648623514e+00,1.472379428570935644e+01,2.042825520087532709e+02,2.299684172538522198e+00,2.903260948217537774e+00,3.615942411607320217e+00,9.976121608505314597e+00,3.474763345622126076e-01,7.484012614965872778e+00,5.612367399602630869e+00,1.243140292253055446e-01,1.839135399344590382e+01,2.769972862283619719e+00,1.084553867169841723e+01,6.965018671835164810e+01
-3.183408829704623244e+00,4.664262087817571789e+00,5.947762057383746992e+01,-1.479445070743436119e+00,9.733991677629971306e+00,1.209072937116282276e+01,1.530963726944415626e+00,2.862784232832514153e+00,1.137730917243461803e+01,7.424773616051023595e+00,1.402832340972843639e+01,1.794595949741933225e+02,5.067838011494082195e+00,6.676739526479767761e+00,4.347808309102530444e+01,9.997154604793681898e+00,2.762328489929932740e+00,1.928545364774143067e+00,-3.440058865748314432e+00,7.418517378397578632e+00,3.168377459685827091e+01,2.272621155792958092e+00,4.667266750339512882e+00,6.458066011928437433e+00,-2.434816377589100078e+00,9.336099933560952024e+00,4.361729892882634907e+00,4.376766237452338615e+00,3.259507407256719613e+00,1.007459902791569384e+01,1.870513807557495412e+00,1.096015093573253080e-01,1.843116150205062098e+01,5.032677829580041617e+00,7.455178123914927291e+00,5.217474285091803665e+01,5.636490847002074034e+00,7.571791725278522733e+00,6.015832397940192067e+01,2.983551819186993193e+00,1.953636943894438149e-01,5.285507722577961864e+00,1.033716116450118960e+00,1.449761183212653748e+01,1.150625055508564287e+02,-3.723920651848486862e+00,1.487565697490009775e+01,3.402526983846450470e+00,7.371120298398135873e+00,1.140439531547288610e+01,1.196129788943198520e+02,2.477695344783255038e+00,8.214762074723181984e-01,6.488205097886766026e+00,-4.195050818312478391e+00,1.031974170906731558e+01,2.628028367507317142e+01,-4.264469314473009476e+00,1.133265781231553637e+00,2.006418684589851864e+02,-2.323561517160228185e+00,8.322146015943392428e+00,7.677791464323355797e+00,-4.977901170920553398e+00,7.828335916933530036e+00,9.776053494126539078e+01,5.608809401462394817e+00,1.471986509318560543e+01,2.041576963217274852e+02,4.807237551583689594e-01,1.236885172946834999e+01,6.899027437178729372e+01,8.180935733942861887e+00,5.332198105047652348e+00,2.194009107349535981e+01,5.725161131276136572e+00,1.485941258000974408e+01,2.091371946780065514e+02,9.420622140172119074e-01,1.818131150105471439e-01,3.528317677363344274e+01,6.144621472331069256e+00,1.464609370063010729e+01,2.056595928377817586e+02,4.694910790304103188e-01,1.242329561478200972e+01,6.957984474052949508e+01,2.492022531198116120e+00,4.338363831693301975e+00,4.657779385657821791e+00
5.687314244075780678e+00,1.505836180771272570e+00,1.815968243602743115e+01,6.798142650685925048e+00,1.245242070806932944e+01,1.487466462941501959e+02,-3.390390963382766021e+00,1.400197985666121880e+01,2.016454835798464629e+00,-1.160706558745014050e+00,8.842774756013312754e+00,1.450861514062390967e+01,3.480784078597334741e+00,3.856155272834432601e+00,4.410173942858064855e+00,-7.208754092586877604e-01,4.693698083179941527e+00,2.356088850281599179e+01,5.318236789476754822e+00,4.076381905576134668e-02,1.662829497121926892e+01,6.863342382010154452e+00,2.427146590459482223e+00,1.994787189100626179e+01,1.732047128500235900e+00,6.373860277074719360e-02,2.112893135229641217e+01,5.869386591965447764e+00,4.435382906476315057e+00,3.044501786329824711e+01,4.642068527207134920e+00,1.028473442141452843e+01,8.931382245525644237e+01,-2.376822680346002414e-03,1.446110294697523990e+01,9.112833696520765159e+01,9.018560715781873682e+00,2.642630144302230200e+00,1.662296125123770452e+00,5.450621679978116418e+00,1.473966037137537555e+01,2.028356108623067371e+02,1.655306371635845153e-01,1.826105010996449174e+00,3.478959331502101548e+01,-6.182539984725297089e-01,8.211089248229783144e-02,6.613110064404105515e+01,7.609420442562651488e+00,1.467469240531143626e+01,1.932792558894788044e+02,-4.432522201330077571e+00,1.295109023131413828e+01,1.406527435352863620e+01,1.687717599080827746e+00,9.251805201489127217e-01,1.643954041514285791e+01,8.133139034540050716e+00,1.487466355700979470e+01,1.880205884412593207e+02,7.911182694995254394e+00,1.123388884226002560e+01,1.074257059446185139e+02,-2.809722088556804831e+00,4.920457412322267743e+00,4.384017198820605188e+01,7.764394978465489316e+00,1.898808106461905787e+00,1.124463375657156305e+01,8.807258235317485529e-01,3.875123519945947947e+00,1.678731942247473441e+01,5.403793073037688188e-01,9.059755651521697040e-01,3.647510584868960848e+01,5.834082665802222678e+00,1.458865787239545675e+01,2.026079767635571613e+02,9.375780463437335399e+00,7.511019141117553310e+00,2.849629544273832238e+01,-2.479746330217976080e+00,1.154626680894763835e+00,9.402569410351507884e+01,6.265106446003967378e+00,7.232746441814983385e+00,5.844715567791597977e+01,1.119705253320502081e+00,7.045078336702529365e-01,2.767117423815980004e+01
8.837077263452698617e+00,3.755276383825795761e-01,4.113016305194086009e+00,5.533904764018457101e+00,1.474429312651640700e+01,2.039865439411630916e+02,5.018242899492090459e+00,1.389281913184141182e+01,1.739316002667284238e+02,-3.794056828412774252e+00,1.393461712267324160e+01,2.375593686185458964e+00,6.627516937700335120e+00,1.838311346234763555e+00,1.971629561364134275e+01,4.096976483255547308e+00,7.059958266740244071e+00,3.420969355751967811e+01,-3.287732864812078493e+00,9.474908730148317915e+00,1.027637014444249175e+01,8.714532186977539396e-01,7.292580637139401745e+00,2.285476626233907638e+01,1.550178862153170911e-01,5.579430183607409610e+00,1.951826322677681702e+01,1.073188291888596879e+00,1.649069466696651443e+00,2.236055012506243500e+01,5.183085002699467481e+00,1.259048926069686125e+01,1.451644643649174498e+02,5.316303191826676766e+00,2.747298025969222013e-01,1.616452099723757740e+01,7.671057368114832187e+00,3.890016149879846452e+00,1.874832157812089406e+01,5.122545912855349215e+00,1.494767904367483347e+01,2.036365007277266557e+02,6.815806814137562952e+00,1.477262817999226741e+01,2.069689155365633155e+02,2.967635489840069418e+00,1.130815488697000326e+01,8.003592891979896251e+01,-1.976984735382285141e+00,9.762398601498617268e+00,6.220722822120084317e+00,6.966814363597018556e+00,2.117843830613852507e+00,1.856512749131523066e+01,9.038160325995093558e+00,4.501539936319953306e+00,7.559591142153057497e+00,9.676072120306738356e+00,1.301405739025678265e+01,1.121304269623731358e+02,-4.382632446802229076e+00,1.373334035618473514e+01,9.694630692879577794e+00,1.219627657068588000e+00,1.296294956144860677e+01,8.926571148832242386e+01,5.515314066950992355e+00,1.464241393983242823e+01,2.009911575973852393e+02,-2.578631062329180601e+00,1.336463587280223564e+01,7.728692432075907170e+00,9.220389223721648264e+00,1.347632681615932881e+01,1.301860001609983044e+02,6.551539121070707239e+00,1.435416059172841052e+01,1.973485313892585111e+02,6.538167387879649795e+00,7.533332737161776649e+00,6.186856426186629676e+01,6.571402541363459804e+00,1.459212961444004542e+01,2.036661430984925119e+02,3.610954992977056577e+00,4.938862891813444733e+00,1.064428644181451311e+01,8.222067356398381932e+00,1.173226668534612926e+01,1.117334922380683508e+02
