5.523121598847332336e+00,1.492062049227257425e+01,2.087115270662670241e+02,2.573556100479789777e+00,1.134063939596723181e+01,7.582701916599522463e+01,-2.783589602916848982e+00,3.647447295892499053e+00,6.128817073319586939e+01,6.998836345002622750e+00,1.116372892919823112e+00,1.724904336009732475e+01,-2.221540576792227384e+00,4.419240431116359780e+00,3.714814684619194907e+01,1.329273637958275245e+00,7.690054641256233836e+00,2.512644069432960947e+01,6.795560949878680645e-01,1.323929159120913113e+01,8.573547257781424946e+01,1.877905311587984016e-01,1.998356944403969271e+00,3.317686472358486327e+01,4.844948955148268510e+00,1.085811501630113796e+01,1.033549078194800899e+02,6.728148962101181851e+00,1.141452547618839297e+01,1.266077786184322207e+02,-2.598506835280621985e+00,7.631291772943613161e+00,1.306597497352034942e+01,1.532339306137775026e+00,1.154568091494217974e+01,6.946051365822975754e+01,-1.354196321863732067e-01,1.449411058070609881e+00,4.225220949978260165e+01,5.729725933322299625e+00,5.510327784941406737e-01,1.840653779452364347e+01,2.722645910469750241e+00,5.167574095124965794e+00,7.791924159040171993e+00,6.504573986593035428e+00,7.603082924111133067e+00,6.288652281091418672e+01,4.468003044342523822e+00,1.184016773231176067e+01,1.163127919872936928e+02,-4.021855495058572316e+00,1.447633183213182129e+01,3.884662414556746768e+00,8.172753299799689231e+00,1.270551484916506091e+01,1.336276781921339136e+02,8.607561957763637750e+00,9.878658549862333160e+00,7.057782813737546235e+01,7.079440506355476614e+00,3.546175927108874859e+00,2.279614876398335355e+01,-2.531071046948373926e+00,3.225927956927920448e+00,6.010196129714997682e+01,-3.055421974757763781e+00,1.253806141143856578e+01,6.764046069685250018e-01,6.572097126908833076e+00,1.975904863043885795e+00,2.013601635018244806e+01,-3.546272769815001613e+00,1.287475854242232387e+01,1.304571199256834291e+00,3.004554283911367918e+00,5.583609231638242409e-02,5.803671689154257685e+00,-4.969269531504776793e+00,1.290307113533601147e+01,2.952333791853031641e+01,8.834881611498913045e+00,2.638029734957594297e+00,2.682251315336230846e+00,6.246921944758989653e+00,8.726882486425434848e+00,7.929793894575338697e+01,8.443536555664799437e+00,5.451528797358588641e+00,1.956424154840974339e+01
2.144716536324778211e+00,8.906019816203105677e+00,3.769841368380668456e+01,5.647773102358671693e+00,1.432310167515459831e+01,1.938731303393275027e+02,8.100808430307377961e-01,6.982990416249732490e+00,2.141250742200335111e+01,4.115089531731857875e+00,1.810022558530658188e+00,4.645748235306144558e+00,4.465903736400251844e+00,1.075880038720476861e+01,9.490265779617296005e+01,7.804785159220392288e+00,2.857957074576539469e+00,1.292056450118789357e+01,1.579613451402998692e+00,7.734294977191705556e+00,2.537839842335516849e+01,5.306553361228333543e+00,1.194653987037383303e+01,1.325720340080910091e+02,8.189081919716210578e+00,1.384059470794421820e+01,1.601199967252343299e+02,-4.634594495702626382e+00,6.129581668406726358e+00,1.085950647292684579e+02,8.393046062408719976e+00,1.348273711886603898e+01,1.471322009930744628e+02,4.367376604784924510e+00,1.048722178655991266e+00,6.925649472326475653e+00,-4.603967291086686231e+00,6.539242026872918778e+00,9.869432242592806404e+01,-4.698844176255247973e-01,1.324315948548800037e+01,6.038807913089030421e+01,-4.952801449111133181e+00,1.406398223136441139e+01,2.084447919482542844e+01,7.484285193017347737e+00,2.675098941494695737e+00,1.569677136113445037e+01,-3.474495074303849407e+00,4.946725608395804663e+00,6.673052310017041577e+01,-2.953544290564516395e+00,1.159128245945972324e+01,6.130724768304069983e-01,-1.333949576576408891e+00,5.598303017538531989e+00,1.981613126139750847e+01,3.547604648421396334e+00,2.043109259859408056e+00,1.187595493630313470e+00,2.313555568091914871e+00,1.477636796780785211e+01,1.422883832579306898e+02,5.770150185958726752e+00,1.379080026851704766e+01,1.811188375022011599e+02,-1.772234580947745552e+00,3.905970862820953293e+00,3.630059601719331397e+01,7.639385715854338343e+00,1.480636457684009066e+01,1.962824469540286429e+02,9.039695335621056316e-01,1.500262204370781616e+00,2.595305310887433947e+01,8.856584937843560823e+00,8.083236557130586419e+00,4.090042258211776982e+01,5.223567950522959080e+00,1.429829480238377926e+01,1.877801642981784767e+02,8.305826258834576592e-01,7.501211619307430745e+00,2.396044367623056814e+01,-4.219241153954006229e+00,1.375147023239596145e+01,6.938629079058095783e+00,-9.122903058328457604e-01,1.287629969422612142e+01,4.416695683562048202e+01
-1.743336279076445727e+00,2.378547609731303525e-01,8.794770883692719110e+01,-1.356327733686427450e+00,2.499610215319829187e+00,4.675977880367219797e+01,-1.607573651941763604e+00,5.002279295537467085e+00,2.472896366912592114e+01,5.452884769145294186e-01,6.478028536341944310e+00,1.992104123233091428e+01,2.057450005762006207e+00,9.540621237060770810e+00,4.493554310391722595e+01,9.507008017682396783e-01,9.847504954545645006e+00,4.310169304140746505e+01,8.699870121460916650e+00,4.445992210321358051e+00,1.013630405122924216e+01,8.560516980534432108e+00,9.718100690433194799e+00,6.875013011839257615e+01,2.853993920603310031e+00,7.096647206955031706e+00,2.201955168559941001e+01,1.981903897753661603e+00,4.378007801902344953e-01,1.460399583408659296e+01,-3.909930572266556492e+00,1.352631629826348636e+01,3.495779095432232531e+00,-4.426118613809506108e+00,6.107187833752366402e+00,9.599424306497323300e+01,3.677844185087050022e+00,1.015624777599494166e+01,7.057868749944027797e+01,2.516200735027556590e+00,1.084388350538124257e+01,6.696425606485649951e+01,4.203063239247242677e+00,1.445181047720692114e+00,5.328692213974337122e+00,9.864843675637290588e+00,1.038615294098816833e+01,6.155257928365118403e+01,3.468619600851246432e+00,3.049224328556594532e-01,3.791288296599391039e+00,5.614415933328864128e+00,7.535496070782118139e+00,5.950918494072849541e+01,8.519899429873481367e+00,1.950602487569711663e+00,4.168471996454547579e+00,-2.199009851305264718e-01,8.437122992421164369e+00,2.370150930759750452e+01,5.628873876035845214e+00,1.029776813817174030e+01,1.030620978707108151e+02,3.969154785238309557e+00,7.153636943536402448e+00,3.348308184966631984e+01,1.886029044749152561e+00,7.361645926154781527e+00,2.233331293854493538e+01,-9.734620089601344617e-01,7.293422742091236755e-01,6.356406544383300172e+01,2.652930755042513411e+00,7.348500266903173817e+00,2.341841368774835175e+01,6.800629791560792725e+00,1.186230876168771609e+01,1.355992657406186197e+02,3.922979073350296275e+00,6.033514554495404969e-01,4.397875658984647274e+00,3.246802400797623278e+00,1.146637700848417651e+00,1.493506324444123123e+00,7.720924542558782022e+00,2.571240287196126850e+00,1.298849510203527657e+01,5.271772454567889454e+00,1.193667816007517857e+01,1.318893200408290909e+02
-4.776982629375285505e+00,5.595985413356806326e+00,1.293633234470290461e+02,7.870319518662469704e+00,3.432885495223803041e+00,1.431149503501254472e+01,4.634466122117409270e+00,1.367634596191345331e+01,1.613325430176912505e+02,8.223030009892584147e+00,9.404664740463985595e+00,6.939063051542584049e+01,8.609060995544943751e-01,6.622923037966433668e+00,1.986525166265976594e+01,-4.895121172508555496e+00,3.624520938317875807e+00,1.860153835191079565e+02,-3.856776720166810613e+00,1.102619156493567232e+01,1.172647701908888962e+01,3.626874979764252771e+00,1.237568331820623335e+01,1.113795196414286153e+02,-1.449383630944342638e+00,5.362781334914628495e+00,2.146733075911188138e+01,9.883798054769114216e+00,9.847393050528644665e+00,5.331006682722993162e+01,6.866249029201744847e+00,1.149001459078101561e+01,1.271545749600392128e+02,8.910028097912002565e+00,9.991370219880503001e+00,6.753494595316365690e+01,-5.698080561265870259e-01,5.473464099000659999e+00,2.025927573146410765e+01,4.474894092463962636e+00,1.418821937622563212e+01,1.709180326390878975e+02,7.393469958004473597e+00,2.707476211316499626e+00,1.667392497470972046e+01,-8.997384889080120018e-01,1.461253947458203939e+01,6.606928834440171272e+01,1.849297407433738272e+00,8.583592483432202158e+00,3.330606995484869515e+01,-1.454582384416729379e+00,7.135125534640988754e+00,1.320975929907224078e+01,4.048297773574285330e+00,1.481503741425862586e+01,1.778587450913882151e+02,-1.241953420805318675e+00,1.388727896184887101e+01,4.576558538281252453e+01,-4.104305534135050948e+00,6.766128669332080570e+00,6.691743067385891663e+01,9.271515269606101839e+00,8.016371291782260045e+00,3.514789025600694572e+01,2.045890292929151144e-01,1.013827538392067673e+01,3.928086090333831493e+01,9.593010255282829135e+00,5.953961510156588588e+00,1.325338370429505908e+01,7.242304177433753765e+00,3.098735620697311344e+00,1.944315929722155545e+01,3.681542141251235023e-01,5.144434385086779749e+00,1.904095796233366755e+01,-4.896903554818692328e-01,7.918872450884336445e+00,1.970383980886672504e+01,-4.179905375208421425e+00,9.890371325159804883e+00,2.987547600872278863e+01,1.481020492806705668e+00,1.274682249460563810e+01,8.876162241854511592e+01,-3.490092348459671534e+00,1.383584802383719214e+01,1.520466655948153445e+00
8.133595544895971585e+00,4.033801745488354129e+00,1.411071797190658828e+01,2.321620649567536887e+00,4.665144820648786883e+00,6.262968307636663567e+00,2.766442381659713234e+00,7.234465422001834511e-02,7.285800864713949387e+00,-4.091557860340798491e+00,4.799578168143491474e+00,1.010941932981063047e+02,-4.911679915420540610e+00,1.218666519113164526e+01,3.385893460731757898e+01,4.076222274859651051e+00,4.720800551617819529e+00,1.392955296425915535e+01,-3.420917257353684349e+00,1.028659138308384691e+01,7.740326428481390408e+00,-2.349617360307359348e+00,8.009577815920032151e+00,9.155899826895522509e+00,-2.232812922350989382e+00,1.176621641048885669e+00,8.524922894893893499e+01,9.305061722237830679e-01,3.011962603594517951e+00,1.835045605378314804e+01,4.401651523445046621e+00,7.183781405335708747e+00,3.995902028458552735e+01,8.480762949021384500e+00,5.530130762243196330e+00,1.972250643739541687e+01,9.130983362676985848e+00,8.601520391168595125e+00,4.403182810146486759e+01,-3.824699925511620524e+00,6.031707359637807464e+00,6.509194425781501536e+01,-2.933943278020919809e+00,9.130966140473869785e+00,7.514581536087758806e+00,-4.301255102845370715e+00,3.912825994616190073e+00,1.333104136433713620e+02,5.881039663968508080e-01,1.247072562179510768e+01,7.220145747367882905e+01,4.279031827259458964e+00,9.625560731382705626e+00,7.185110977818706601e+01,1.292804701039244719e+00,7.174685803996754707e+00,2.175890345915370006e+01,2.185313827274326215e+00,6.941404896971236305e+00,1.901496398329406645e+01,-7.675655101335880914e-01,1.013919446460176399e-01,6.867549315439967472e+01,7.093990132578131380e+00,5.504608211271631468e+00,3.616335113583922123e+01,7.612884086231263225e+00,8.258155419023365695e+00,6.177297713525747724e+01,5.141128548929271957e+00,9.081814304251492942e+00,7.666476517847273442e+01,6.090568367282726214e+00,1.364906335848782737e+00,1.955428669679864839e+01,-1.218202788626831623e+00,2.722723253636079921e+00,4.251978800680048920e+01,-1.362436417189412552e+00,3.645947917846498854e+00,3.462035771608161383e+01,-2.037441389175455697e+00,1.446788671690879013e+01,2.776487847852291679e+01,2.884441568529437561e+00,6.385962894849452898e-01,4.042102748020273140e+00,2.081685556950162663e+00,3.666249788900904250e+00,5.490366095185431838e+00
2.511585582337050759e+00,7.195114169979961893e+00,2.154412315048221416e+01,2.743809421859921827e-02,7.285267852777962183e+00,2.136431836072048185e+01,2.288334651360016458e+00,1.980101530701902313e+00,4.770210042957970131e+00,2.513354326975923314e+00,1.070341357944379190e+01,6.469643187931086459e+01,-1.660492688382898319e+00,5.919314332227007647e+00,1.858105711597900012e+01,3.826864889900381428e+00,1.274992144933697169e+01,1.232527043260630109e+02,2.870374655581494849e+00,4.996109623025173363e+00,7.104153277546460643e+00,1.631345744299633083e+00,6.032979183436924409e+00,1.467354811255175662e+01,-3.620356994059978462e+00,9.039854219390495160e+00,2.068067005290561866e+01,3.375047151287157376e+00,8.379083224872521996e+00,4.044869483042072034e+01,5.425102009911899614e-01,3.402528709079915892e+00,2.136095468297352795e+01,-3.055172507019274342e+00,2.206327838791613871e+00,9.722596963720842211e+01,-2.253771289009155687e+00,3.059635162528604013e+00,5.535868965616680271e+01,9.197791301790312346e+00,9.591839548384269776e+00,5.713361090574676382e+01,-3.005142188069491738e-01,6.327061007150627248e+00,1.919824647605108936e+01,-3.436293049697462632e+00,1.407087565505498850e+00,1.343866607134878564e+02,-5.176862271064059939e-01,1.385774830305534344e+01,6.734227098456635474e+01,9.973440146801589634e+00,1.254832625847689620e+00,3.967876567273005861e+00,-2.638813202864978891e+00,1.178908395783062346e+01,2.086547224253394006e+00,-4.122295132009461405e+00,1.289404112079632547e+01,7.965858731593318254e+00,2.512016958393651578e+00,1.290020764927528596e+01,1.042287705232672579e+02,-3.546312568800565224e+00,1.244579960625777559e+01,1.799523652286252329e+00,3.753749042863649521e+00,1.152675951460514270e+01,9.655068108738198873e+01,1.555773927063079931e+00,6.463792419852368631e+00,1.707867966283404115e+01,-1.101636623222752132e+00,5.182496802717984075e+00,2.176446266801382379e+01,8.487556696098124576e+00,7.182473486745197810e+00,3.530721905215267498e+01,1.453908622478448542e+00,6.506953648009468516e+00,1.763863910635683041e+01,8.150922874110101191e+00,4.427624484145487926e+00,1.610550272822656126e+01,4.830113625374830022e+00,9.064306341956738677e+00,7.191932426378049570e+01,5.313195585552712430e-01,6.681513063350124959e+00,2.050257427206179983e+01
5.040437605339620930e+00,1.294977930075188155e+01,1.512544186107058408e+02,9.816452586942640224e+00,1.238305075778327335e+01,9.720300433070536883e+01,9.776560734237083494e+00,1.206774075026201842e+01,9.165683659746221679e+01,-3.040257589712171082e+00,1.433918721468623403e+01,5.875143649887345276e+00,7.903205333314252456e+00,8.527392942629294481e+00,6.129557271495572479e+01,-3.406937845807395782e+00,1.445166951928059440e+01,3.165318489258302392e+00,-1.743758377821773120e+00,7.382689376008165771e-01,7.927952232758374862e+01,-1.149329666272447703e+00,1.156111952020838718e+00,6.071934895060453385e+01,9.254504724626661627e+00,1.288438001415591394e+01,1.164479646098192802e+02,-1.774994392126566733e+00,1.216293933554778484e+01,1.669011106704204295e+01,9.593719893859733006e+00,5.561488632687003886e+00,1.060527453654609253e+01,6.465799972955037944e+00,3.332767458123191862e+00,2.486456745465315876e+01,5.842172568392385301e+00,1.238777329014082973e+01,1.478043443124140595e+02,8.121926442915428979e+00,5.408505346657355162e+00,2.330063238528845204e+01,1.356145636429965329e+00,1.348191343286340427e+01,1.005436858180554935e+02,8.901807713923091114e-01,1.278742352193713039e+01,8.171437792000013189e+01,8.183343905295474840e+00,1.789498572971435886e+00,7.004659852671387021e+00,1.671322929965235460e-02,2.109672712457268506e+00,3.452943405531618026e+01,5.936657950227930414e+00,7.529954658101254417e+00,6.147326000894958042e+01,4.805670966643670994e+00,9.908163778882042028e-01,1.097601303173363263e+01,-3.244386485625824434e+00,7.872963926705119242e+00,2.182788292519301265e+01,1.751077357737298001e+00,1.640297380820161965e+00,1.212429164862377817e+01,4.596789049246616798e+00,8.211673620129295026e-01,9.183010520261293053e+00,-2.021845164417062968e+00,7.750629550695887993e+00,9.754452554883444648e+00,2.278245350534347402e+00,1.495095085548073044e+01,1.458345450225504578e+02,-3.930331377798706338e+00,1.328443476178386362e+01,4.092943570420650268e+00,5.912460022088650291e+00,4.969207339060876194e+00,3.456652029915272806e+01,5.576256187964606426e+00,1.229824954998280262e+01,1.435252903319939151e+02,9.524771718146109123e+00,4.351378431518235779e+00,4.528432099468711947e+00,2.550304482907074011e+00,9.008720988974163291e+00,4.101449828444096113e+01
-2.829717729357287048e+00,1.168178791323606980e+01,8.879950082639300746e-01,-4.869387294672051780e+00,1.205694980257448146e+00,2.532167671815544168e+02,-4.349051284959871921e+00,1.107566142070203874e+01,2.457849979326379497e+01,1.921619307395780574e+00,1.205852569787509587e+01,8.150872851551959286e+01,6.295019930876289749e+00,5.181477710758281008e-01,1.983363888784051454e+01,9.696180077346344461e+00,1.073791734890670568e+01,6.902014319756737848e+01,7.036729836916602920e+00,2.050422907381721505e+00,1.795999022406052603e+01,7.284814577391216517e+00,3.763130473172663581e+00,2.212371612003906307e+01,2.016423284442049990e+00,4.377865408574824535e+00,7.010751534129402884e+00,4.044175438242650245e+00,1.880484394803496384e+00,4.110977127219403116e+00,-1.861551033353981754e+00,5.564710298112082176e-01,8.548441387364678690e+01,3.537802457092309893e+00,8.986636845382758310e+00,5.059146664605929544e+01,1.328304690754923634e+00,1.460966661513138654e+01,1.225612689754727995e+02,1.160821498121210382e+00,2.368582552703372368e+00,1.764763871163105691e+01,6.555056385922192419e+00,7.723335208360441406e+00,6.432687393833188594e+01,3.859887746396280406e+00,6.410241036367678724e+00,2.454648267556467189e+01,9.542216540844503214e+00,6.191966514695777413e+00,1.526162838856445703e+01,3.207106979085590837e+00,3.780612565633298061e+00,2.921854979085388493e+00,-1.207532253902305897e-01,4.157840883570635526e+00,2.367826395150351360e+01,6.115680111500113370e+00,1.090625123864130153e+01,1.175311401236676687e+02,9.316076312330530129e-01,1.075363276285767533e+01,5.326101704784375102e+01,5.215301863156803108e+00,1.146963663502150155e+01,1.212379124816761902e+02,9.362792447187718636e+00,2.063979536886765498e+00,4.351466008553082077e-01,-4.768096128171252168e+00,1.232724793039658806e+01,2.768086504844759332e+01,4.799212144114644474e+00,8.839915261358754606e+00,6.800145607458384234e+01,1.842139272408036099e+00,3.704652134360018501e+00,7.469121800510393427e+00,8.209969379070534146e+00,2.296545582787194562e+00,7.336364964967599711e+00,4.609514418396319257e+00,4.635117111784914812e+00,1.977458670655833117e+01,6.321733401428257793e-01,1.091441551029168622e+01,5.220259785459779067e+01,5.753800039928860244e+00,7.708562161285324343e+00,6.281759289199757745e+01
8.877747573627592814e+00,9.279414497543033491e+00,5.695686920399971598e+01,5.341220720390726484e+00,1.020679562769619331e+01,9.835640704084939046e+01,8.299839041192424105e+00,8.152147170035950907e+00,4.990995350967146749e+01,8.811121432390510932e+00,8.951634151959492414e+00,5.316187439367474354e+01,3.923955737440902425e+00,1.840060285973489806e+00,3.207963145102846525e+00,-1.717281550960477521e+00,7.093056654574955822e+00,1.265297831443760579e+01,6.814222957475104536e+00,6.028241015352381105e+00,4.320503687604659149e+01,-3.568616357214864365e+00,1.373268136395260264e+01,1.453858996006621496e+00,6.903314382901953650e+00,1.657466105524631139e+00,1.818482237764997933e+01,-2.611966593183106422e+00,1.417294199469986360e+01,1.164728860549262457e+01,2.373079408068461404e+00,9.825290810469125447e+00,5.055390421463928874e+01,-1.986405443120597081e+00,1.455935479093938945e+01,3.011504762214892850e+01,7.209832664035733529e+00,1.132891504640277347e+01,1.202179655145651509e+02,-2.205898686796453401e+00,4.303771715136692322e+00,3.821438838175996011e+01,-1.058361212417348263e+00,3.236805308435005024e+00,3.577138826749573752e+01,4.399022882175160021e+00,1.092720353447802850e+01,9.686459194653726001e+01,-3.694373772069226458e+00,9.339624751245079182e+00,2.005012411115399118e+01,2.342675950848000177e+00,4.709257912810826951e+00,6.339558761295393197e+00,-3.620188941240150449e+00,7.108259536912518994e-01,1.630398890567668104e+02,-3.372486567265327473e+00,4.668520175233090264e+00,6.690336034739304694e+01,4.911008473584379530e+00,5.820364871849105448e+00,3.288842924432412218e+01,-1.079987612375662209e+00,7.232963988685827683e-01,6.555230450804072007e+01,6.332826073357880503e+00,1.485510804030162646e+01,2.115456549591463613e+02,3.482762924984573516e+00,1.152635003859533214e+01,9.183136693078208168e+01,-2.134766982707200000e+00,1.165164299204369769e+01,7.679140288920724089e+00,4.857838938330072409e+00,1.412054522198589268e+01,1.768546129249645560e+02,9.547849392683435354e+00,1.030266848880295782e+01,6.371775009703075909e+01,-1.741510548681461046e+00,1.060264559773358783e+01,1.046204856598818544e+01,-2.299473668171317708e+00,6.700766483146323615e+00,1.677313498518757484e+01,-4.128643094931792490e+00,1.697063892825390052e-02,2.211751671537563482e+02
-2.490446125168315206e-01,2.229399316168915846e+00,3.673501722851811735e+01,-2.178037017567532097e+00,8.097989466948625648e+00,8.399060054858667357e+00,6.483436940850202390e+00,9.817854164831674169e+00,9.707523871625441814e+01,-1.875596338374260430e+00,4.216274910166337264e+00,3.430805563995009777e+01,9.201352294737352722e+00,1.472826623418015934e+01,1.606524885691383986e+02,6.587033923785513778e+00,1.015788815269751399e+00,1.916227654150775450e+01,4.034804183732205729e+00,1.366272979896142914e+01,1.485203102028901867e+02,6.457031159542763632e+00,5.488620151836004268e+00,3.957074161485799380e+01,-6.394434339768118036e-02,7.937269454517200451e+00,2.294964369366895696e+01,7.309269100760404925e+00,5.128429242857355241e+00,3.093624839589013220e+01,3.766203997354489630e+00,2.286098054173536731e+00,2.444858583975367594e+00,8.516899909500050825e-01,1.255646876070395912e+01,7.747908300747775456e+01,4.309299003818420459e+00,2.195280900176102445e+00,6.725999408648439370e+00,-1.084716596137909495e+00,7.719694662256197049e+00,1.450999860491551097e+01,9.813631705942311712e+00,1.054074741005594085e+01,6.451068141941961187e+01,1.679408327189564787e+00,4.698724840246471857e+00,9.988104897035187335e+00,6.754323999833488301e+00,3.791406281617391016e+00,2.619177132784029283e+01,8.052396637458846484e+00,1.209540809723077004e+01,1.225753432680295418e+02,3.455594426929035734e+00,9.045440175911148017e+00,5.032804192236512364e+01,7.367047431822983938e+00,3.001020032428548312e+00,1.792378299129786257e+01,8.620403473556219609e+00,2.481157642677964237e+00,3.963354194602618286e+00,-6.863382393218575572e-02,1.023526202946888652e+01,3.659868907650496084e+01,-4.746147261734060763e+00,5.989181848060714408e+00,1.188481129886150001e+02,6.668169505170418176e-02,3.824799213328482494e+00,2.386416906334760668e+01,9.420537916472001783e+00,1.004903936094450678e+01,6.127559426798354991e+01,-2.401223183055076760e+00,9.852562839181295828e+00,3.400637197780763898e+00,-3.406729910091382152e+00,1.055411828774357197e+01,6.198510274623973082e+00,2.059184880210079172e+00,6.835055567589258807e+00,1.827754818673072634e+01,-1.925207542400588334e+00,5.892666223817786708e+00,1.992327616935098078e+01,9.347566018001835175e+00,1.858426006678468800e+00,5.359808932961254158e-01
6.410527632200579973e+00,1.470820811991401555e+01,2.073830300819715546e+02,-4.862935333122504034e+00,8.603548204768629581e-01,2.634341146738889847e+02,-4.802482476147865498e+00,1.477775853957503938e-02,2.847558159757929843e+02,-4.884780279376975898e+00,4.078961764049308658e-01,2.802305242296421284e+02,3.068266608574699461e+00,1.499026280603800387e+01,1.612373049202363120e+02,-4.202951425517939654e+00,1.839600146291528127e+00,1.765835555975630484e+02,8.477682185741620913e+00,1.198193370584115058e+01,1.119704084003534206e+02,6.607429726046595064e+00,1.469009279591462480e+01,2.061560021048405531e+02,3.732785123024971341e+00,1.468807159793252026e+01,1.675168229190702789e+02,-4.975036869651111360e+00,8.729985932788049130e-01,2.742779789552308785e+02,5.063140150144718632e+00,1.494209838283436653e+01,2.024601808085406276e+02,5.626386207618640611e+00,1.493827292793640105e+01,2.103597865792164896e+02,7.827506447610057094e+00,1.458248428856235179e+01,1.866239998721456459e+02,7.186186193929547272e+00,1.493355460467030227e+01,2.072228610392712085e+02,1.430361841729752115e+00,1.407536881297713016e+01,1.132074342571438734e+02,-4.997240569279625788e+00,5.017582107926207291e-01,2.887363018491313369e+02,9.777328989507633850e+00,1.458065952608659543e+01,1.458144440573205998e+02,-4.539089537664718677e+00,6.727525297876697785e-02,2.569221575949229646e+02,8.938539020633545107e+00,1.479572655773464795e+01,1.679909674211383219e+02,5.852904325389840068e+00,1.496652364059559659e+01,2.131362115707131863e+02,-4.986367492786510702e+00,3.499321276056516439e+00,1.971712334189886064e+02,6.151352408108396119e+00,1.222472615987603461e+01,1.454638581415576084e+02,6.579793622378382167e+00,1.474176429478393402e+01,2.077127990153185237e+02,7.495147435665654001e+00,1.488935433306729017e+01,2.011531326136172595e+02,6.015046387400763805e+00,1.462839349208221762e+01,2.047439777100408094e+02,6.296640608386550042e+00,1.492986967584833380e+01,2.136418738205432248e+02,4.763846700688951330e+00,1.427978513854409037e+01,1.791670709777187085e+02,7.314583093307472694e+00,1.443605732442611078e+01,1.918571595333798143e+02,7.939459236424680100e+00,1.346265461565764276e+01,1.559587598569292766e+02,-4.256460718694065726e+00,1.872010447285142321e-01,2.272392901686025652e+02
-4.980559474553278854e+00,7.243028103431494724e-01,2.796776773544506227e+02,1.013943462924595806e+00,6.902457622013877803e+00,2.076783296639721499e+01,-2.765949392601837253e+00,3.408148067312268825e-01,1.227343804068759283e+02,-3.498776191571528749e+00,3.572573212864546544e-01,1.638627080354253849e+02,-4.308756645016372566e+00,1.471477424371286924e-01,2.330860216752761289e+02,-4.891480041378772015e+00,1.119660490919635709e+00,2.580657294128658918e+02,-4.926846388965161694e+00,1.827596455318377180e-02,2.975642107958383917e+02,5.671340733755942054e+00,1.495350371019075553e+01,2.112395665443121970e+02,-4.560591285985861276e+00,1.490826469177857483e+01,9.516987156435440909e+00,-4.561937847134274193e+00,7.774588106121957942e-01,2.371410188207688918e+02,6.504881112034539115e+00,1.496249043184254646e+01,2.141444607235647482e+02,9.114551843713774915e+00,1.451991263894978523e+01,1.572211137121847742e+02,5.258446330546304281e+00,1.489309552045185114e+01,2.043269420420184019e+02,6.623373206258992951e+00,1.483167043202658064e+01,2.099616921201248658e+02,4.950225260614608658e+00,1.490111259731291682e+01,1.992974382068435375e+02,-3.968805123189481421e+00,2.249890943706948920e-01,2.019295324272106313e+02,9.922106470434687964e+00,1.186185554302664791e+01,8.592106068635550287e+01,-4.843189389520504484e+00,2.487277320222908816e+00,2.126566267912837134e+02,-3.616456512648257515e+00,1.047775754993555353e+00,1.543396296185716210e+02,5.486340744570849637e+00,1.464123753352418156e+01,2.006073632305401873e+02,9.749178652123246636e+00,1.480924899492308988e+01,1.518880277247874915e+02,5.703677193489543384e+00,1.480034939828929019e+01,2.073118991860688993e+02,5.087036495480752762e+00,1.475319161164871851e+01,1.977125419431260696e+02,6.199903149268529035e+00,1.467560000748161642e+01,2.065668419844967332e+02,6.867982834159514383e+00,1.477641748197844862e+01,2.066046211036771467e+02,7.168748431798496412e+00,1.466468385787795015e+01,2.000957498508032870e+02,6.095595417864020149e+00,1.494763306427110905e+01,2.138458211187385132e+02,9.889471616899973228e+00,1.358330832388531917e+01,1.210158703210069433e+02,9.703360794405238465e+00,1.194555509334543331e+01,9.033607676477704729e+01,-4.951319284344370075e+00,5.183003220087254448e+00,1.515643574369843520e+02
-4.837868228917870717e+00,3.543059391753674348e+00,1.833602741531949789e+02,5.967708688264027117e+00,1.469309890279746078e+01,2.062841470196833313e+02,-4.802515990006121172e+00,4.254921268968187675e+00,1.623912364370135606e+02,-4.156966556902959908e+00,9.892356755077607033e-01,1.958011393504982891e+02,-3.660906139678612448e+00,4.476829532221232588e-01,1.726519564991151015e+02,-4.477293504193890605e+00,1.728283027542622641e+00,2.019873035495271836e+02,-4.794907179755782956e+00,2.675866040996171868e+00,2.030942082363137899e+02,-4.904720671031562063e+00,9.238771698025892709e-01,2.655682211554967012e+02,-4.739395719985763478e+00,1.936058710746052236e-01,2.725115977433974308e+02,-4.682558821058639076e+00,2.512572369039035802e+00,1.978685200190942339e+02,-4.654214429852358670e+00,1.813927635989355913e+00,2.149904986350173886e+02,5.132151127927535583e+00,1.469421608375104071e+01,1.968772632352712151e+02,7.061349927690102390e+00,1.490036610304871090e+01,2.079326048699568048e+02,5.813741883267166344e+00,1.484200648749756013e+01,2.093925898374708652e+02,6.009527164206689420e+00,1.480802018966634215e+01,2.096443852254288061e+02,-4.195140935411122207e+00,8.419405740027461338e-01,2.030423003450656552e+02,5.922991511353959737e+00,1.490863616666113245e+01,2.119792757299656216e+02,-4.101368489628542946e+00,1.444269606428165709e+00,1.790929404226281179e+02,-4.762322896818905527e+00,2.873155094940682552e-01,2.717728150282723618e+02,7.862940175798524223e+00,1.474799835643712953e+01,1.903305545438667252e+02,-4.968719126595446234e+00,2.645834345427787948e+00,2.194754928615506913e+02,7.387475424108044919e+00,1.499612525774205807e+01,2.059108134575934912e+02,5.720988533230231710e+00,1.458554390866539130e+01,2.016051583390666053e+02,-4.900879510837648390e+00,3.686572231062111293e-01,2.831697619361144120e+02,-4.942999918878403065e+00,4.058594104020570303e-01,2.862851960841927621e+02,6.226384567010503801e+00,1.464383811977516459e+01,2.057297955930663136e+02,7.483051255557265691e+00,1.418388632536055383e+01,1.825208744668885004e+02,5.705926314294661239e+00,1.490016098890130181e+01,2.100891791991192008e+02,5.979758357226719667e+00,1.487627496531174742e+01,2.113910035890212384e+02,-3.485829244691446949e+00,1.039802550329256281e+00,1.460916568301275333e+02
-4.331003728886178905e+00,1.320902517095530193e+00,2.009666241578929089e+02,6.916599344157221552e+00,1.447068988680620016e+01,1.978324743966868198e+02,-4.471999993277602670e+00,1.923664079671979277e+00,1.961340361834920429e+02,-4.448389449777113924e+00,1.506911106738002992e+00,2.057160505828451846e+02,-4.799972739939356359e+00,3.655704346123694215e+00,1.772939444738074428e+02,8.942227979921375081e+00,1.485002199953991742e+01,1.693142010556016430e+02,-4.268675622433192096e+00,1.667819040680007525e+00,1.863443148650679859e+02,-3.915223544310368453e+00,4.501095774507927333e-02,2.027227146311109607e+02,-4.256763024815039209e+00,1.454104512109339220e+00,1.911613878037943266e+02,7.463402813405421554e+00,1.494704019698313324e+01,2.032858829625243686e+02,-4.280294563592006440e+00,7.699266104007385092e-01,2.122673491547311073e+02,7.636420373215656809e+00,1.480329101069833797e+01,1.962544487852759403e+02,-4.990583476703025489e+00,1.498279703749411951e+01,1.710734606326849416e+01,-4.820902258852881594e+00,1.433475155039508842e+01,1.624502854968871901e+01,7.273266550277726950e+00,1.472864451209439451e+01,2.003501600492552370e+02,6.984523288748242464e+00,1.497330516494296049e+01,2.108519744447220319e+02,4.510365355627186545e+00,1.483545699623454794e+01,1.886371748446146057e+02,5.779313128786062848e+00,1.481042192720886952e+01,2.082493923097009940e+02,5.846992150556664214e+00,1.496850961354832954e+01,2.131496694982773192e+02,-4.994031638095360215e+00,2.295001444608997243e-01,2.975181028675100379e+02,-4.689920777937597762e+00,2.765299094286500559e+00,1.916210363966399086e+02,5.384114101901886329e+00,1.485539348724297071e+01,2.051212405125338023e+02,5.393055576338666057e+00,1.488788410585065591e+01,2.061388170118077312e+02,-4.258121401752752000e+00,2.595237893487566172e+00,1.614911909125906959e+02,-4.985214969524866646e+00,3.225389234728543553e+00,2.045875925422063801e+02,5.458103811894684299e+00,1.494865032040995345e+01,2.086820023113399714e+02,6.878438750252385603e+00,1.489603300364966643e+01,2.098051613198084908e+02,5.306052682648509489e+00,1.460195823059744136e+01,1.971096851516092840e+02,5.017843269057181033e+00,1.478129926948168205e+01,1.972637819897693703e+02,-4.316413111182193063e+00,2.170379502062869559e+00,1.768365396915566521e+02
5.930891575480025324e+00,1.465714666049118442e+01,2.051009400400407685e+02,-3.716969008058190305e+00,4.510055009134121828e-01,1.765678383222878551e+02,6.348421737890337369e+00,1.469834749295738341e+01,2.072116450366144420e+02,7.198812259193520191e+00,1.477206068944792072e+01,2.026067690943845605e+02,5.074689388299903570e+00,1.465505231565611055e+01,1.948463657953844290e+02,6.949830683489798488e+00,1.498726033662119583e+01,2.116183517410356103e+02,-4.941336739075264717e+00,4.594975095960700529e+00,1.649941058946730550e+02,-4.832928474339307279e+00,4.850852277182548633e+00,1.503761294022844197e+02,5.838287074062376902e+00,1.494710875574921616e+01,2.124905894788115290e+02,8.106786631567004520e+00,1.498758934934666520e+01,1.916457135506867075e+02,-4.761608977107173679e+00,2.632099938728230448e+00,2.014038835142627590e+02,5.390365041567656945e+00,1.494316097428116308e+01,2.076292162467756555e+02,6.341239431199589660e+00,1.464690517245329815e+01,2.058123068506153004e+02,5.297340832609714667e+00,1.499573951872129030e+01,2.077522660042482983e+02,5.904707316515516169e+00,1.461584143468917318e+01,2.038199756129044999e+02,6.437279409602364666e+00,1.483046249409687789e+01,2.106868530796982668e+02,7.306324695526017265e+00,1.462126128298995376e+01,1.969442149263046531e+02,-4.224034412163836905e+00,8.408311061540860720e-01,2.054827151390236963e+02,-4.790562335626408874e+00,2.552246689752123654e+00,2.061555015746268680e+02,-3.762927111784427847e+00,8.284926062987648665e-01,1.699915887229200848e+02,-4.104765648260395139e+00,9.956219969709840356e+00,2.670849867466602490e+01,-4.748256501411103336e+00,4.318761357291901470e-01,2.657266369795711398e+02,-4.884781065900126507e+00,3.141061457761934461e-02,2.927124254365846809e+02,6.763862668770787678e+00,1.463819574007349189e+01,2.037170723511695769e+02,-4.801704719261206122e+00,2.833774897144880622e+00,1.993281555390722701e+02,-4.912547146377741036e+00,1.828931265200674172e+00,2.382950303925049980e+02,7.253521874106278133e+00,1.492608690713879760e+01,2.060541742246951742e+02,6.315250955160227164e+00,1.459516039990620051e+01,2.044220220810604189e+02,6.915288014359669333e+00,1.489897172658515778e+01,2.095241452858682578e+02,-4.729016022463164326e+00,2.287047862462553205e+00,2.081751176293775245e+02
6.981115960759716188e+00,1.481008925467044968e+01,2.063752895467069663e+02,-4.925168677364380798e+00,2.990876628277797433e+00,2.057939852925293849e+02,7.153089908662909835e+00,1.463457221207907111e+01,1.994896270215741083e+02,6.334059722296036199e+00,1.483572190892848397e+01,2.110078193445064301e+02,6.958896529184453783e+00,1.496549353963544959e+01,2.109153482766331535e+02,5.865511050782032498e+00,1.488753559479884814e+01,2.110271198932731238e+02,-3.576428867228910846e+00,3.481296895447295592e-01,1.693545063719946597e+02,6.200611495246420191e+00,1.462765319949387788e+01,2.052587912989011443e+02,-4.628570448590076936e+00,1.953183076304238819e+00,2.087612964134843594e+02,6.205428257712439333e+00,1.481585080919766106e+01,2.104296743723988072e+02,6.004046570180220144e+00,1.459524457550028664e+01,2.037928881170542184e+02,-4.956390198431857463e+00,7.297167542094379344e-01,2.770300006237401931e+02,-4.927020130576750923e+00,4.017315252549329418e-01,2.847704015335540930e+02,-4.580729948732565227e+00,1.872520403770166764e-01,2.571405303850835935e+02,5.484435232090971724e+00,1.484129208152026713e+01,2.060494969000382071e+02,6.702287791167034214e+00,1.468259200063129910e+01,2.053761479554779896e+02,-1.699064650018458078e+00,9.187445643438015008e-02,8.937425503785216563e+01,6.232551356845847934e+00,1.465181738437705405e+01,2.059530586131805308e+02,7.501508533335570661e+00,1.482684262798125729e+01,1.993331348669611884e+02,-4.493899791224487572e+00,1.993098725974051577e+00,1.960722785442578413e+02,9.747780154159137567e+00,1.469018748087402138e+01,1.490018079559401940e+02,-4.156833040360043086e+00,8.805711988063974482e-01,1.988045046023767100e+02,-4.298738239039191278e+00,1.764153316778864999e+00,1.861807690107382882e+02,-4.327393088213867145e+00,1.553079099401828866e+00,1.942455271305905740e+02,-3.591235234115794039e+00,6.468561316753961288e-01,1.626980115718266120e+02,-4.600092113077864475e+00,3.179728008195426447e+00,1.733173687399776952e+02,-4.403372910751111924e+00,1.091146652477450463e-01,2.428498062897289174e+02,6.650114307572252415e+00,1.476551448513221310e+01,2.079831550707536394e+02,-4.607263857939865481e+00,2.969013717412741227e-01,2.562429820435735337e+02,6.462360780786054804e+00,1.492943277254818213e+01,2.133642319071880706e+02
9.731427127356903739e+00,4.539364726977634934e-01,5.056512271138845271e+00,7.632301216974520131e+00,1.493804773542719211e+01,2.000075230361482284e+02,9.708042043735471083e+00,8.220212754740487959e-01,3.547964867594326499e+00,5.543166919001915716e+00,1.480766343568239307e+01,2.058317810483824815e+02,-4.803723956877957058e+00,2.317865976617663915e+00,2.139405068349591090e+02,5.379099563789253580e+00,1.485332896732813346e+01,2.049952001520013027e+02,6.674198751955506381e+00,1.497433424888415487e+01,2.136185731435232640e+02,-4.212550967526781598e+00,1.473107273775055681e+00,1.870780865747358348e+02,6.280626195277317692e+00,1.464585359119817198e+01,2.058113787952944165e+02,5.174713091687149102e+00,1.492089468651930595e+01,2.037656664947157310e+02,7.193713190512204037e+00,1.485609659427846019e+01,2.049818610531623335e+02,-4.035459520199850658e+00,5.371725488216499977e-01,1.985311266977408025e+02,-4.802229708764349070e+00,2.906316931048061214e+00,1.973869154358793878e+02,-3.579761194812900449e+00,2.403659199625894638e-01,1.723914083880117687e+02,-4.904402808092723554e+00,4.948593395603044787e-01,2.793874555060612010e+02,4.595588275421045310e+00,1.486277519607244102e+01,1.911870128245236344e+02,-4.977567342754888990e+00,7.025994178077854535e-01,2.800805623000096034e+02,5.296447698204792331e+00,1.494574483317950886e+01,2.063543273494728112e+02,6.636068523482697046e+00,1.466014192097014579e+01,2.051792769136647792e+02,-4.950770322996669748e+00,2.958695970092389604e+00,2.089663887226159602e+02,-4.968321096507312795e+00,1.224121430616680328e+01,3.539790963473818408e+01,-4.601505807143789539e+00,1.280583937013551221e+00,2.257524956599166330e+02,-3.529811484845967406e+00,4.454256070569690973e-01,1.636868322436821472e+02,5.454917032437212043e+00,1.478297265025457818e+01,2.040752695664273517e+02,-4.565819946830762532e+00,1.881808635262141927e+00,2.053035145935190542e+02,-4.910666985904293291e+00,2.957198903003533275e+00,2.054498302405860670e+02,-4.260308508584564002e+00,1.078856086036842576e+00,2.018163194208273694e+02,-4.496037761805072641e+00,7.402065865106738363e-02,2.526053893493313751e+02,-4.943122722445413508e+00,2.284301328850736112e+00,2.276273862210440200e+02,6.697477709738780760e+00,1.457530499348452757e+01,2.024889592124308706e+02
-4.912577276077255028e+00,1.495861287686957830e+01,1.558250246498382552e+01,-4.813549986955626636e+00,2.614483831124240432e+00,2.064399396857405122e+02,-4.282250832039396826e+00,1.012922270283540094e+00,2.055111528328013151e+02,7.135672680091490250e+00,1.488398153232953547e+01,2.065368646162253583e+02,5.771090717797443759e+00,1.479685492513222655e+01,2.078081879408251780e+02,5.893571825783903151e+00,1.473123225117960189e+01,2.069016197876506737e+02,5.945288992275298057e+00,1.470250759837315613e+01,2.064217917925753341e+02,7.342859214638565390e+00,1.497877263965608918e+01,2.061471786925330036e+02,-4.068973895148907616e+00,3.965857564819331715e-01,2.052068381335581080e+02,-4.144118790736033731e+00,6.944883560418695367e-01,2.029706266064346494e+02,8.903618701178315220e+00,1.401851394160860964e-01,4.663770962755130256e+00,-4.743411544563136850e+00,2.500782626681906429e+00,2.034590113570475296e+02,-3.976600900664522875e+00,7.923284132450930661e-02,2.066893429832246056e+02,-4.924788307264258869e+00,2.703570017473293952e+00,2.138408892562498806e+02,-4.566760656412752084e+00,2.389799999999963731e+00,1.913910569018917727e+02,-4.849945018182177492e+00,2.962962907121484246e+00,1.999684361800985641e+02,-3.553569541652570329e+00,4.018618564191857589e-01,1.664049165703548567e+02,-4.720421181597928673e+00,2.336423548839424935e+00,2.060338956963794601e+02,-4.142655764363369464e+00,6.656989163813119559e-01,2.036611228487815310e+02,6.513784823519252143e+00,1.448728906189861476e+01,2.010732825660805361e+02,-7.667564977249385905e-01,1.320503648102687144e+01,5.184610240577216445e+01,-4.909731683294394244e+00,2.903630487909621749e+00,2.068603722778043448e+02,-4.918702947089111710e+00,2.984420929779707521e+00,2.054022180202717038e+02,-4.038548000659638149e+00,6.924639325857945282e-02,2.120593131076812483e+02,7.243715936550678691e+00,1.489246020320783437e+01,2.052702357327747791e+02,-4.319009612641185214e+00,1.276079549251049938e+00,2.012114579099365983e+02,-4.022890945218353664e+00,8.386991624247566168e-01,1.892221037948729361e+02,-2.048664096081025399e+00,1.084543917157605675e+00,8.140581389935292123e+01,-3.731286316518276802e+00,1.234085467069843345e+00,1.574642697553227606e+02,6.103874093379584309e+00,1.462756456085225132e+01,2.050477048963079483e+02
5.669910312254975437e+00,1.476201851947906363e+01,2.059366270563513126e+02,5.402834385600538525e+00,1.496998581773506665e+01,2.085430303578976350e+02,-4.800492943429435222e+00,2.661215530513333594e+00,2.039897254477905335e+02,-4.814881017363877191e+00,2.578477254013650022e+00,2.075656760687443523e+02,-4.775445191384690702e+00,2.521843932497045415e+00,2.056761417627612332e+02,-4.365757943154247478e+00,1.290284606105032594e+00,2.047588278241003650e+02,4.932611676627713493e+00,1.487534884705646299e+01,1.982653022240511405e+02,9.891533850397429717e+00,1.234802024745638299e-01,7.803374719125995007e+00,9.772273247534011276e+00,1.335372547489615425e+00,2.427337912602552272e+00,-4.788968791668626324e+00,2.603812257998771695e+00,2.045767822321766403e+02,5.309157580464326287e+00,1.494379128954177460e+01,2.064889593081612702e+02,-4.675426257211825032e+00,2.137754312509450916e+00,2.076654924482257059e+02,6.966223031936154442e+00,1.478551769330626264e+01,2.058628362004415919e+02,-4.288311483601081164e+00,1.142012475325213661e+00,2.023884061561594763e+02,-4.150994112505536293e+00,8.428146362079999010e-01,1.993790056982493581e+02,7.327028277891335151e+00,1.497785570348032635e+01,2.063705173469415115e+02,-4.777160791738395140e+00,2.865558592497285506e+00,1.963405144441695711e+02,7.343150095965151891e+00,1.478002338247060088e+01,2.006821038527272663e+02,5.805554569444824509e+00,1.297587495312863271e-01,1.933594934730869497e+01,9.918413317839522847e+00,1.498763450671789954e+01,1.531775907689214193e+02,9.748506315900179686e+00,6.466498534707985080e+00,1.646450254153984361e+01,7.027915623480895491e+00,1.479614344031244499e+01,2.054604716556825679e+02,9.593218973844800601e+00,1.476478292990398877e+01,1.537275861581907748e+02,-4.825642885352707800e+00,2.464815921099605234e+00,2.117251443967840316e+02,5.359316418575247098e+00,1.481035531300866204e+01,2.035393185095701654e+02,1.659582615151409257e+00,1.488411964371905150e+01,1.340650176393411925e+02,-4.830183189414388956e+00,2.652673617696408304e+00,2.068392006849160509e+02,-4.838467499376703174e+00,3.126857120378269350e+00,1.945068307877285463e+02,-4.599747695914597756e+00,1.912214391501906530e+00,2.073970216642473190e+02,9.671798661465739855e+00,1.489772208087588901e+01,1.555280855796066533e+02
9.884542724292515459e+00,1.470261754899515161e+01,1.468380293990707344e+02,-4.469738133340353414e+00,1.462990974647188835e+01,8.721465481365331840e+00,5.688043430084398722e+00,1.492729761746265282e+01,2.106733085891063126e+02,6.774838510070020803e+00,1.471394697112724970e+01,2.056983629842609389e+02,5.997452734160242827e+00,1.464568345197383437e+01,2.051353841418948036e+02,9.985981186331235548e+00,7.091344276772362232e-01,5.980834420178033461e+00,9.913891417660027017e+00,1.453482288510194920e+01,1.423090740316743563e+02,-4.929356476122874753e+00,2.993420781813894482e+00,2.060935990829541709e+02,6.941673916237764530e+00,1.490551626522106332e+01,2.094335836312043853e+02,9.878259752839939623e+00,6.102172927833013905e-01,5.475902187285040412e+00,6.466947279172993390e+00,1.465120332832662697e+01,2.056790470309949797e+02,5.982383166140062158e+00,1.465282139654494564e+01,2.052577192116092419e+02,-4.307160560579080588e+00,1.074701507482156648e+00,2.058700328297194915e+02,9.983314084314285353e+00,4.106668141165696895e-01,7.254884793926753339e+00,9.961678849195434893e+00,1.487240188981989952e+01,1.495814720445989110e+02,-4.914963539055602126e+00,1.374739427605808295e+01,2.175705818890397580e+01,7.058195269040696829e+00,1.495295033596865686e+01,2.094276366479603553e+02,-4.558788804677124773e+00,3.509013770784160879e+00,1.617622621474269522e+02,6.031011384876038051e+00,1.468877810169459863e+01,2.064606323219070987e+02,9.893634840019881693e+00,3.781406465614761681e-01,6.599738841617250884e+00,-7.680083112108029297e-01,1.146046680135482987e+01,3.424099051546619421e+01,-4.686365064196291286e+00,2.216708959448247640e+00,2.064057426479964477e+02,-4.988854612637354968e+00,1.454010717831613952e+01,1.913412137267989266e+01,9.738281516746344124e+00,2.969062432045478928e-01,5.772217401060396824e+00,-4.201282726320256344e+00,6.786398690557661206e-01,2.081778203121396018e+02,9.716136814426963753e+00,1.485737297183450600e+01,1.536900003228274443e+02,5.540762566590547777e+00,1.480460481068817735e+01,2.057197610963492593e+02,5.272190469394796963e+00,1.495783876044397687e+01,2.063231801462963801e+02,-4.959897562321149422e+00,3.076338956362340671e+00,2.064888039832217714e+02,-4.158651953720830186e+00,6.402779673671226135e-01,2.057049187910560306e+02
8.793399692487966490e-01,1.497009109094319257e+01,1.216301319140017370e+02,9.760076841687912008e+00,4.663636432435793733e-01,5.195585792583528928e+00,7.082298683656805594e+00,1.482089271126072560e+01,2.054839821843139305e+02,9.936569666113202359e+00,5.856597592358318005e-01,6.058341187842526843e+00,6.277095732501800640e+00,1.465163368895206730e+01,2.059689087502800362e+02,7.385950139458600461e+00,1.499637292630661811e+01,2.059425491627729343e+02,-4.350703682509154291e+00,1.183704452545543795e+00,2.064851449712562612e+02,9.985474230766770987e+00,1.473676623443795819e+01,1.458863929990892530e+02,7.179150762958338206e+00,1.488891447227570985e+01,2.060871767722533718e+02,5.723283661154399127e+00,1.473923290334037617e+01,2.058130340698092482e+02,-4.600676170114460284e+00,2.246641812558378692e+00,1.981652018346846944e+02,-4.450205107089580281e+00,1.499080765955826511e+00,2.060925252706587116e+02,8.212352213548696156e+00,2.582610858077494242e-01,8.103672011188201907e+00,9.976680197943608164e+00,1.354719966104633144e+01,1.188836401255875614e+02,9.872144972162368859e+00,1.187494172931398806e+00,3.427561204766623959e+00,5.196966638549197270e+00,1.497035316811506256e+01,2.054908477711258001e+02,-4.177885034653201046e+00,7.670885803785864043e-01,2.037180536171130996e+02,-4.815993150533781630e+00,2.168967795764707329e+00,2.193175532894689184e+02,-4.721456461650333836e+00,1.465413359470473154e+01,1.292168138906812835e+01,2.791831232858669409e+00,1.479988773145210246e+01,1.511903268530347475e+02,-4.986382041533831355e+00,1.280694611105694847e+01,3.090103164042389494e+01,9.973061730298146799e+00,1.469429651155774508e+01,1.450841745290897222e+02,7.360456375311276389e+00,1.492433101420148311e+01,2.043642237121933078e+02,9.896787518933921390e+00,1.468194077120725183e+01,1.461232576413100617e+02,9.595504501732152747e+00,8.295569941961096483e-02,5.857870752935256498e+00,9.963742565754472480e+00,2.219830890794264877e-01,7.977624176907237796e+00,9.945246570741918646e+00,1.443161656604114640e+01,1.393357373048012846e+02,-4.382302971585660956e+00,1.409456925049416887e+00,2.028172587296131155e+02,5.407400279884114980e+00,1.486989073192938093e+01,2.058377548165407234e+02,4.981391816207583645e+00,1.498842795702012864e+01,2.022694112833251268e+02
5.313598025275227954e+00,5.263642339359050903e-02,1.656860819865083556e+01,9.664119447118046935e-02,1.488063704469174198e+01,1.011571559570411409e+02,3.548200731083035464e-01,1.479231892692145500e+01,1.062599039199462823e+02,5.280025735364645811e+00,1.494988814318154802e+01,2.062222000019056054e+02,9.802240641386815057e+00,4.612818004364420688e-01,5.513882033469346133e+00,3.564015017061850088e-01,6.950100621995373984e-02,4.793617076534480503e+01,6.360798789397573927e+00,1.462753929124927765e+01,2.052622403052282607e+02,4.721333582676702889e+00,1.389430451381874244e-02,1.176305826677216970e+01,-8.361593578043153840e-01,1.482999233616581058e+01,7.135425123878128773e+01,-4.846435215217550940e+00,1.424486752171388382e+01,1.725277245191312403e+01,1.618753040950782207e-02,1.466770328814549806e+01,9.517663812932623557e+01,-4.998966834695603545e+00,1.429207362361222344e+01,2.071752687502788248e+01,-2.238167688134751199e+00,1.492566493273310968e+01,2.642106582358792366e+01,-4.063516021059888850e+00,3.221556984462965456e-01,2.068732257002068877e+02,-4.544757255054617140e+00,1.795559643517660620e+00,2.059018492641561977e+02,-4.430974179723699891e+00,1.424905840874613583e+00,2.065333903992663522e+02,-4.181874642464630476e+00,6.956770543138789398e-01,2.060685984281191168e+02,5.690915858281261563e+00,1.474304366469810113e+01,2.056187346042273987e+02,5.186420216859245258e+00,1.495411079039776858e+01,2.048717897527736795e+02,-3.987675071633087320e+00,3.745956734415678002e-01,1.992411139185938680e+02,9.747352286992065018e+00,1.353596177541471768e+01,1.222473059547488674e+02,9.812865829677337004e+00,6.263133823067272843e-01,4.920667664946263287e+00,-4.206912566027827260e+00,7.901414294673352323e-01,2.054840744147901717e+02,3.230043662394853854e+00,1.348046484281574531e-01,4.620718462949846561e+00,9.993977214775728868e+00,1.477607772470206804e+01,1.466830108137262130e+02,6.393439190700965113e+00,1.465287109663162823e+01,2.059026630705713217e+02,-3.761334648350098675e-01,1.496961095283920784e+01,8.870442077961774885e+01,-4.975312024333249816e+00,2.731156503341151343e+00,2.176266288097331483e+02,5.651543034029501200e+00,1.471838967891056171e+01,2.045598478621205913e+02,-3.511207579107630039e+00,4.327538186164557210e+00,7.887676964540142421e+01
-4.812612250338176523e+00,2.639400915697713845e+00,2.056613051946312680e+02,9.650495794692728779e+00,1.492853286906100152e+01,1.567030046587595393e+02,9.936212155534677848e+00,1.481713831025366623e+01,1.486912593202740993e+02,9.816207968554039098e+00,1.497901376369475379e+01,1.548374894513809181e+02,-1.434884108628851074e+00,1.495769934944091162e+01,5.243078783506136631e+01,6.834319308131174608e+00,1.472215891281775768e+01,2.054236760145790583e+02,5.532933943412148281e+00,1.481429770611574348e+01,2.058943957837697667e+02,9.524872592757471779e-01,1.489489131872910832e+01,1.215719029790204218e+02,3.934777510869169603e+00,7.151841310074087688e-02,5.910377180656551488e+00,-4.146435520648283912e+00,5.927965320009698225e-01,2.060361595915630062e+02,9.776411614861176602e+00,1.474285990344392339e+01,1.497614767986251252e+02,9.587085223039681026e+00,2.990120419576459687e-01,4.864994672639964435e+00,9.927916035294682473e+00,1.468218055071862693e+01,1.455814674553617465e+02,6.097027319845564008e+00,1.466818509652882518e+01,2.061355344946774437e+02,-4.015280450872264595e+00,2.314993959890692676e-01,2.055024905685971532e+02,9.904146917599895517e+00,6.333605856939062972e-01,5.589770738458320842e+00,7.499234010603174738e+00,1.498076200701604677e+01,2.035952278599652914e+02,-4.658732189441883165e+00,2.152172162051515514e+00,2.058000700851966656e+02,-8.706947542824572395e-02,1.474983344860965495e+01,9.370296860732298683e+01,6.480535296408106660e+00,1.465297674967711750e+01,2.056848383589768900e+02,-3.244176972802975456e+00,7.396074956644934417e+00,2.645999806801981791e+01,-9.608788666097822784e-03,1.497357660559421255e+01,9.985230748946555934e+01,-4.864401379537023118e+00,2.792812111551154164e+00,2.059449747631047103e+02,8.675310548833010671e-01,1.487917073144446256e+01,1.195282836142709755e+02,7.048123517365187496e+00,1.432159515067403888e+01,1.924231308993983589e+02,6.087897160350410175e+00,2.311152810343465591e-01,2.001822844545723257e+01,5.358740308330366631e+00,1.487428621105595639e+01,2.052872723452549053e+02,-4.037013207467982312e+00,5.695241768726631015e-01,1.977543764934424928e+02,9.891660744550707207e+00,1.473402727411426127e+01,1.474700243448415620e+02,-2.656441008612184351e+00,3.646403542717545077e-01,1.172180249929456863e+02
-4.017296347590327166e+00,2.411347049449683588e-01,2.053930746755062557e+02,5.553251064422486394e+00,2.170880334549324109e-01,1.787883680327704283e+01,6.789527804682506940e+00,2.584620042407819729e-01,1.899636995797148842e+01,-4.848216199705400520e+00,1.381380419590909092e+01,1.959082012870559808e+01,7.090563601206662625e+00,1.481975730984313522e+01,2.053494694854589966e+02,-4.950465354678739160e+00,3.076023506828581500e+00,2.056621472549782368e+02,9.969022581806500583e+00,7.046863323580555560e-01,5.849164042317107182e+00,-4.939904564987893210e+00,1.489984391116056983e+01,1.638019322177134285e+01,9.708597276670341003e+00,1.464177142657488595e+01,1.485433977719487189e+02,1.718262633657841043e+00,1.485900049401679368e+01,1.344724048517613255e+02,5.555329930591593524e+00,1.478214247096683565e+01,2.052714483589276711e+02,6.749167043461776316e+00,1.469589394727452003e+01,2.054033105554175052e+02,9.619632978999060668e+00,2.429909469690680057e-01,5.274962613015016011e+00,8.101774545762076229e+00,2.009729494721306242e-01,9.128212764285603242e+00,-4.350505146562863246e+00,1.183702819219420110e+00,2.064682873150334785e+02,9.913892369979555141e+00,1.453025926909788446e+01,1.422007810359237396e+02,-4.715767818376978227e+00,1.485963375799563657e+01,1.217070223448847166e+01,-4.118042290391051630e+00,4.975848023380400331e-01,2.063845091609924509e+02,9.999444737883740331e+00,5.551935044454068269e-01,6.753602723184652490e+00,6.931086338402455027e+00,1.476606949575783645e+01,2.057000104031991157e+02,5.629492285906696480e+00,1.566192640581544337e-01,1.842808144129040215e+01,5.607362823627482840e+00,6.261768076715612530e-02,1.848197836631452162e+01,7.354918285443861947e+00,3.820910496119422906e-02,1.582163729690874732e+01,-4.642519818209685845e+00,2.128707307764746925e+00,2.050444540034433203e+02,-4.717377673521390591e+00,2.324903582301323102e+00,2.060897398126844848e+02,-3.888560100074219594e+00,1.727609776078464499e-01,1.970316144991002147e+02,9.754348738444148736e+00,8.848527932248871908e-01,3.608091878528590257e+00,9.986621118738876035e+00,8.640938395661443394e+00,3.672951549530776560e+01,-4.560590569248777371e+00,1.838252865616084808e+00,2.060734584104851876e+02,6.951959809107570720e+00,2.524968363357924656e-02,1.859742412376952458e+01
7.534884756182073318e+00,1.497062661204963518e+01,2.026856317049149823e+02,3.294804409240903453e-01,1.595678547755531029e-01,4.749235325614334613e+01,-4.156250058275399617e+00,6.309811120826388509e-01,2.057687707600802582e+02,1.541647986741875975e+00,1.961899850104966217e-02,2.493176010245592167e+01,7.363835632501599449e+00,1.499620687022796339e+01,2.062957252495891964e+02,-4.839093884417989599e+00,1.437288421386463710e+01,1.647833725193796539e+01,4.574814539733912611e+00,1.027207532078772188e-04,1.055877986267467428e+01,7.170765728541455886e+00,1.485904931855859346e+01,2.053793259740294559e+02,8.517310303302538799e+00,5.663923753167774550e-02,6.569823024504293230e+00,6.740958757160949943e+00,1.469101087226209046e+01,2.053312137035524074e+02,5.978710174662783317e+00,2.305497067384333076e-01,1.977071825884198475e+01,5.283328556472183024e+00,1.494015308218783744e+01,2.060030299027329477e+02,2.429246613659089782e+00,5.943622002433898710e-02,1.069480943065946477e+01,-2.290045513367616969e+00,1.472413539919763181e+01,2.316806245920476215e+01,2.068163063672372459e+00,1.035365807497286295e-02,1.591493878151396935e+01,2.458402705042220582e+00,6.196338749060400358e-02,1.034161276155006881e+01,9.963348696900334645e+00,7.854402517513627835e-01,5.481562502854792740e+00,9.830804362726631496e+00,1.458567489457437993e+01,1.449791901365753404e+02,1.737532793756776606e+00,1.591245622130197657e-01,2.036324708305485842e+01,-2.440044252035091787e-01,7.969732620915347121e-02,5.921191757660163546e+01,1.311165154297526669e-01,5.167445859668839070e+00,1.991163569793823740e+01,-4.876015494097875269e+00,1.388733593974697911e+01,1.988328416169438384e+01,1.251826109147519794e+00,1.496489288663601869e+01,1.287621285447066271e+02,-2.295285121128908479e+00,1.488012106737756568e+01,2.442812369143819851e+01,6.571064929770052743e+00,1.466990379647356768e+01,2.057863828332312721e+02,-3.976329185153542500e+00,1.657439478839750346e-01,2.042088869906066293e+02,4.487608970573386813e-01,2.571975462061872747e-02,4.658851789149566969e+01,-4.689928204118745114e+00,2.247665548621187614e+00,2.058498820277132211e+02,-8.626097192845492145e-01,1.489516922633137064e+01,7.142158028817192417e+01,5.434621129312175114e+00,1.487390288752475520e+01,2.063105705903547857e+02
2.170706103919616936e+00,1.719151776648724372e-01,1.340030641605523698e+01,7.392977410012420592e+00,1.499875938293698674e+01,2.058937742305895711e+02,4.159086420849709143e+00,1.495767209713124402e+01,1.841456848722422990e+02,6.248659492799610859e-01,1.492120866102217747e+01,1.151308320603313149e+02,5.430563023472565476e+00,1.486406516606878014e+01,2.059861127450313916e+02,4.999643660388892741e-01,1.481837561837345874e+01,1.102498762300567989e+02,7.606412044469935907e+00,1.493153767902940920e+01,2.003110478598770499e+02,9.991508587684224452e+00,1.117063676230287861e+01,7.294658427100293352e+01,-1.039083321168051910e+00,5.919586810269240829e+00,1.836867898870242399e+01,9.842346000349706969e+00,1.469125087257578954e+01,1.473155274257260032e+02,7.241464082523810575e+00,1.486750931501332218e+01,2.046161868156532648e+02,5.987982348218539030e+00,1.483044163852987296e+01,2.101626992692720535e+02,7.179579144920547051e+00,1.483975245038440960e+01,2.047280918184172833e+02,3.508051406732354494e+00,1.619783083265646448e-02,4.873880467242927672e+00,6.998340826872111009e+00,1.478981139973345016e+01,2.056261196940813818e+02,6.271410775976487884e+00,2.396151927448189611e-01,2.017965879197154777e+01,-4.854345980027440888e+00,2.784239649211563972e+00,2.052973615476204259e+02,-4.569554644856183678e+00,1.902674922535791735e+00,2.050417440781737071e+02,6.565545557328345438e+00,1.466364237291112538e+01,2.056411590813326598e+02,-4.873383426714152478e+00,1.439217323680075467e+01,1.716566335670377796e+01,6.626732288826559625e+00,1.493818951875701373e+01,2.128976764096672980e+02,2.627031315395227828e+00,1.492545419175031896e+01,1.512739966999949388e+02,9.980701230421320957e+00,9.711769479667132998e+00,5.056755878611391353e+01,9.976324290583306720e+00,1.068145946189946827e+01,6.508824840146415625e+01,5.526835772053935614e+00,1.478159443271890083e+01,2.049246222614482917e+02,7.389563214319741391e+00,1.495321092616877756e+01,2.046905960577758776e+02,-3.283826646953597717e+00,1.480861680443682715e+01,5.407705759559834569e+00,1.644656523552813887e+00,1.477786483371343351e+01,1.314566591091669920e+02,6.563938443931020217e+00,1.463830432122686531e+01,2.049573044526511296e+02,7.089244710228909341e+00,1.485503824706711740e+01,2.063366041201668395e+02
-3.045415247531637171e+00,1.355403495184465790e+01,2.790727832196681746e+00,-4.236543940634216909e+00,9.185870060083434208e-01,2.043341499542038662e+02,-1.779063700383453295e+00,1.499777620684085377e+01,4.125500826178840441e+01,3.490785894421190250e+00,2.143116604647712364e+00,1.001580590893771827e+00,5.727265423291134638e+00,1.453929326185487980e+01,2.004102862714773323e+02,2.078683741453722256e+00,1.117587206231080710e-01,1.510934256950181975e+01,6.399462122421281762e+00,1.450082205895196985e+01,2.017632365437788735e+02,2.760591932271077020e+00,4.212775158995929914e+00,3.779961992915074731e+00,2.759239253941666803e+00,1.104561188505170577e+01,7.288009568739407484e+01,-6.312161413449111080e-01,3.490951581700466044e-02,6.703459396726022135e+01,6.274821957443059262e+00,1.460223527259173615e+01,2.046223402457081022e+02,5.712237716065972748e+00,1.464708246336095065e+01,2.031968118565326336e+02,5.389810415993295578e+00,1.490813017327351275e+01,2.066530229807742387e+02,-4.708637174406450576e+00,2.315885389556200380e+00,2.055768371384503723e+02,7.179344819380709453e+00,1.489864687814539757e+01,2.063529671670806920e+02,6.131247327686207171e+00,2.995406057296259306e+00,2.346147826310780005e+01,6.524397639149803751e+00,1.465378867113159700e+01,2.055488922154356715e+02,7.162622327396519495e+00,1.326841783964631538e-01,1.705390731800748227e+01,-4.691531571654621757e+00,2.260678200305283880e+00,2.056257468292342310e+02,6.267096571444881192e-01,1.887763844223152798e+00,2.779166260267908228e+01,7.283105018126370567e+00,1.478992826571869124e+01,2.018743805785836400e+02,8.160029577230160314e+00,8.679404993804387680e-02,8.954763709481838418e+00,1.580429488487689049e+00,1.841202142015231080e-01,2.298941624653413029e+01,8.500795217882849641e+00,3.510960737282182720e-01,5.830666155671372586e+00,6.370671995609468397e+00,1.468778305202932621e+01,2.068942576529023540e+02,6.414044722209096605e+00,1.467248259776889618e+01,2.063974949446232756e+02,6.411795994000604182e+00,1.461411867220903282e+01,2.048100002022547415e+02,-4.966444658400296142e+00,3.143056763841993728e+00,2.052125552470066623e+02,-4.905783727062288158e+00,3.035992469627565526e+00,2.028347970570897303e+02,9.950275757820728373e+00,9.981219438258102983e+00,5.466371856850330602e+01
6.656205709816029881e+00,1.464669408813052165e+01,2.046933673056053067e+02,1.746207328870594822e+00,1.495204647863072367e+01,1.370340363071592833e+02,-4.920798569216341178e+00,2.998731533282043227e+00,2.051893307693466681e+02,-4.836534937261044220e+00,2.706443858486257792e+00,2.058970043061083857e+02,6.309870390050850375e+00,1.464192279218869075e+01,2.056982908519383670e+02,5.793757859618704487e+00,1.472212146108779685e+01,2.059397798890863953e+02,6.005203611770257410e+00,1.469917097943591955e+01,2.066327375511609716e+02,1.086716182301945999e+00,3.271476954091657952e+00,1.578789016496882347e+01,5.913730433151593857e+00,1.468663539716061806e+01,2.058052746686115881e+02,6.039118197008921385e+00,4.991907854554482327e-02,2.023458296104736576e+01,6.167468159834578856e+00,1.444138536667479045e+01,2.001631483908554401e+02,7.486056386970721732e+00,1.489373129101285897e+01,2.014309365444430853e+02,1.751175304646516828e+00,1.349524405037408892e+00,1.334789283435910967e+01,7.485836125837547428e+00,8.164110530129534027e+00,6.218898858929201623e+01,4.151891943390946693e+00,1.355708205278368261e+01,1.484584735870250256e+02,-3.308320693867860207e+00,1.474723653956705505e+01,4.922922332518481880e+00,-2.641643250553087352e+00,6.303307680457312934e+00,2.446750328515022233e+01,-4.075973144933489500e+00,9.635520807739947902e-01,1.900072993158993029e+02,9.981149422717654929e+00,8.989079356361513007e+00,4.099775987535652888e+01,3.505333739290881212e+00,2.183794543824698398e+00,1.068770231919927483e+00,5.701552618897339997e+00,1.478030432752084522e+01,2.067409741869305435e+02,5.504372495723170999e-01,7.678573848160853643e+00,2.451534985646302545e+01,1.643101834120919591e+00,1.146363885078639200e+01,6.916416205420753727e+01,-3.729576153821949625e+00,1.290950062231788031e+01,2.631390753964206297e+00,6.204412033762379153e+00,1.457826766995063217e+01,2.039203475681665054e+02,5.802663477830233063e+00,1.472302643802545496e+01,2.060343881287431600e+02,6.327719990686533791e+00,1.466007427749162773e+01,2.061833588062535796e+02,6.825801560563864001e+00,4.255676549552434018e-02,1.921236610573321713e+01,-3.908453475737394545e+00,2.580772405426082911e-02,2.027260520618718544e+02,5.617993675337290327e+00,1.478237863646519479e+01,2.059672802276910488e+02
6.762889582973489411e+00,1.443307133431361500e+01,1.981835891194799615e+02,5.551226536640712084e+00,1.477882667057359711e+01,2.051334292017650114e+02,3.410043108965549408e+00,8.436887837015205616e-01,2.186158662862952795e+00,5.276994844455355604e+00,1.490838796546374390e+01,2.050308342115733637e+02,6.956510788508326826e+00,1.479696214709275104e+01,2.062815019001719179e+02,-3.954077617154649449e+00,5.264453006126962320e-02,2.056228964409893933e+02,6.992474156363494231e+00,1.476280631037749735e+01,2.049513684542333465e+02,6.274947466919917005e+00,1.467771559051507069e+01,2.066814554947401632e+02,7.050605515695009373e+00,1.483117991056350249e+01,2.061544647238564494e+02,6.861715348660775149e-01,5.508402441444093967e+00,1.772145208326146104e+01,5.263677958765265785e+00,1.472469025382303620e+01,1.998004386355902113e+02,7.159814522691958061e+00,1.478122825427917242e+01,2.033920079841577149e+02,-4.696402996458783008e+00,2.266268493483318824e+00,2.058952170783953761e+02,8.179169965020097521e+00,5.584953381400429961e+00,2.398643811583835728e+01,-2.620296762651341815e+00,1.459743655358791692e+01,1.432925050904010256e+01,-1.418197566417475297e+00,6.293905633262480315e+00,1.637892813479289700e+01,2.017240542282515037e+00,1.499714011058976482e+01,1.425640714780144833e+02,5.446583529800603785e+00,1.487753723436563114e+01,2.065668991150955378e+02,6.567252155504540667e+00,1.460148606899357659e+01,2.039398075623489603e+02,6.579087870420986306e+00,1.465809855260650707e+01,2.054256575433717558e+02,5.944815176055060491e+00,1.467485444584613852e+01,2.056629031919208046e+02,2.693802041852424445e+00,4.092554198684512201e+00,3.478588273477592807e+00,5.903355976121135384e+00,1.467476006937591748e+01,2.054174152006942506e+02,-4.260483226012065749e+00,9.408676909146713729e-01,2.057138465209625338e+02,6.511802229085398963e+00,1.468277328527854664e+01,2.063894547035480400e+02,5.858315746969825710e+00,1.469004993986655094e+01,2.055404285975873506e+02,-4.049979978388413393e+00,3.522829204095883071e-01,2.049072542468428253e+02,-4.853519865403415068e+00,2.802740612676176024e+00,2.047097357842454528e+02,7.052291029920295884e+00,1.482103301388656824e+01,2.058551301379756637e+02,6.918774636562886826e+00,1.486485875589915295e+01,2.085451972496492772e+02
7.087844824781177167e+00,1.483602531245287892e+01,2.058307930893093953e+02,7.379201709353893079e+00,1.499295247260765152e+01,2.059576165016333391e+02,6.452339860912477576e+00,9.450548652509915826e+00,9.081560357233210823e+01,6.498533834812278087e+00,1.459966909163909321e+01,2.041716024780151315e+02,7.501166345258962309e+00,1.486525316662926954e+01,2.003883333715612025e+02,5.210208053918780280e+00,1.497510992438070154e+01,2.058346085603909330e+02,6.947482198762170214e+00,1.489966238120955211e+01,2.092102593203823915e+02,-4.410318181084090128e+00,1.401141325835465024e+00,2.054344039187886040e+02,-4.721547507675905919e+00,2.352407765127675798e+00,2.056852632424519811e+02,-4.028739030000667576e+00,4.126343534831091175e-01,2.014766654581905527e+02,7.213315501294367493e+00,1.489274772876529340e+01,2.057154129915442695e+02,6.284303141585287023e+00,1.472632958022958150e+01,2.080142260435801802e+02,6.785213757321770345e+00,1.469552804921922196e+01,2.051114681166226887e+02,2.125295393836887925e-01,7.280150114033297370e+00,2.198680869831936846e+01,5.344519728508398515e+00,1.476422299157341023e+01,2.020678935319146206e+02,-2.316319524830450227e+00,9.419749942807944976e+00,4.381858034675225610e+00,7.218123841018520892e+00,1.487306938215040120e+01,2.051049954682134171e+02,-4.613584234081055335e+00,1.987039629301315724e+00,2.064975922036697114e+02,5.455933176862473033e+00,1.470757869415002794e+01,2.020287389794932835e+02,5.988986736894192475e+00,1.464965506069288992e+01,2.052035036731155060e+02,5.243277683148622970e+00,1.493836466146495034e+01,2.053402668778265365e+02,5.805418781338506307e+00,4.828275535465932355e-01,1.882511283288326354e+01,7.152708173984432705e+00,1.494315565933747614e+01,2.079456371352803217e+02,6.645367020249231871e+00,1.397278798319913662e+01,1.868416406178390332e+02,7.201633027156059796e+00,1.488805417461592562e+01,2.057509689570654245e+02,5.631085332759905526e+00,1.478196289557775245e+01,2.060927698460152726e+02,4.882402727478412530e+00,1.445888466850595222e+01,1.861385180825371322e+02,7.250405966074893627e+00,1.489818791531352815e+01,2.053302902570057427e+02,5.724183452625267066e+00,1.467897793793201267e+01,2.041737991338448808e+02,6.093555630323436390e+00,1.428631084082178226e+01,1.958350426581515933e+02
