0.000000000000000000e+00,0.000000000000000000e+00,0.000000000000000000e+00,0.000000000000000000e+00,0.000000000000000000e+00,0.000000000000000000e+00,0.000000000000000000e+00,0.000000000000000000e+00,4.850000000000000000e+02,4.500000000000000000e+02,3.960000000000000000e+02,3.750000000000000000e+02,5.010000000000000000e+02,5.070000000000000000e+02,5.260000000000000000e+02,5.740000000000000000e+02,5.780000000000000000e+02,5.660000000000000000e+02,6.370000000000000000e+02,6.220000000000000000e+02,6.440000000000000000e+02,6.440000000000000000e+02,6.670000000000000000e+02,7.710000000000000000e+02,7.310000000000000000e+02,7.210000000000000000e+02,7.350000000000000000e+02,7.450000000000000000e+02,7.450000000000000000e+02,7.520000000000000000e+02,7.870000000000000000e+02,7.760000000000000000e+02,7.740000000000000000e+02,7.860000000000000000e+02,7.970000000000000000e+02
0.000000000000000000e+00,0.000000000000000000e+00,0.000000000000000000e+00,0.000000000000000000e+00,0.000000000000000000e+00,0.000000000000000000e+00,0.000000000000000000e+00,0.000000000000000000e+00,0.000000000000000000e+00,1.300000000000000000e+01,8.900000000000000000e+01,8.900000000000000000e+01,1.450000000000000000e+02,2.490000000000000000e+02,5.440000000000000000e+02,5.470000000000000000e+02,7.470000000000000000e+02,7.900000000000000000e+02,8.300000000000000000e+02,8.230000000000000000e+02,8.170000000000000000e+02,8.130000000000000000e+02,8.220000000000000000e+02,8.080000000000000000e+02,7.870000000000000000e+02,8.320000000000000000e+02,8.220000000000000000e+02,8.380000000000000000e+02,8.380000000000000000e+02,8.130000000000000000e+02,8.230000000000000000e+02,8.140000000000000000e+02,8.120000000000000000e+02,8.160000000000000000e+02,8.130000000000000000e+02
0.000000000000000000e+00,0.000000000000000000e+00,0.000000000000000000e+00,0.000000000000000000e+00,0.000000000000000000e+00,0.000000000000000000e+00,0.000000000000000000e+00,0.000000000000000000e+00,9.540000000000000000e+02,6.010000000000000000e+02,6.930000000000000000e+02,8.470000000000000000e+02,9.330000000000000000e+02,8.600000000000000000e+02,8.600000000000000000e+02,1.053000000000000000e+03,1.032000000000000000e+03,9.390000000000000000e+02,9.140000000000000000e+02,1.055000000000000000e+03,1.043000000000000000e+03,1.001000000000000000e+03,9.510000000000000000e+02,9.530000000000000000e+02,9.690000000000000000e+02,9.700000000000000000e+02,9.820000000000000000e+02,9.870000000000000000e+02,9.990000000000000000e+02,1.035000000000000000e+03,1.030000000000000000e+03,1.024000000000000000e+03,1.004000000000000000e+03,1.022000000000000000e+03,1.046000000000000000e+03
0.000000000000000000e+00,0.000000000000000000e+00,0.000000000000000000e+00,2.200000000000000000e+02,2.140000000000000000e+02,0.000000000000000000e+00,3.831000000000000000e+03,9.200000000000000000e+01,1.470000000000000000e+02,2.050000000000000000e+02,2.090000000000000000e+02,2.560000000000000000e+02,5.590000000000000000e+02,5.840000000000000000e+02,5.230000000000000000e+02,4.960000000000000000e+02,5.330000000000000000e+02,7.270000000000000000e+02,7.130000000000000000e+02,7.340000000000000000e+02,7.130000000000000000e+02,7.190000000000000000e+02,8.100000000000000000e+02,8.210000000000000000e+02,8.330000000000000000e+02,8.470000000000000000e+02,8.760000000000000000e+02,8.790000000000000000e+02,8.690000000000000000e+02,9.390000000000000000e+02,9.420000000000000000e+02,9.070000000000000000e+02,9.070000000000000000e+02,9.030000000000000000e+02,9.220000000000000000e+02
0.000000000000000000e+00,0.000000000000000000e+00,0.000000000000000000e+00,0.000000000000000000e+00,4.920000000000000000e+02,0.000000000000000000e+00,3.000000000000000000e+00,1.800000000000000000e+01,1.460000000000000000e+02,1.250000000000000000e+02,1.630000000000000000e+02,2.140000000000000000e+02,2.200000000000000000e+02,2.160000000000000000e+02,2.390000000000000000e+02,1.990000000000000000e+02,1.800000000000000000e+02,1.440000000000000000e+02,1.710000000000000000e+02,1.820000000000000000e+02,2.000000000000000000e+02,2.350000000000000000e+02,3.530000000000000000e+02,3.900000000000000000e+02,6.030000000000000000e+02,6.300000000000000000e+02,6.260000000000000000e+02,6.200000000000000000e+02,6.290000000000000000e+02,6.260000000000000000e+02,6.260000000000000000e+02,6.150000000000000000e+02,6.230000000000000000e+02,6.320000000000000000e+02,6.540000000000000000e+02
0.000000000000000000e+00,0.000000000000000000e+00,0.000000000000000000e+00,0.000000000000000000e+00,0.000000000000000000e+00,0.000000000000000000e+00,0.000000000000000000e+00,0.000000000000000000e+00,0.000000000000000000e+00,3.390000000000000000e+02,3.260000000000000000e+02,3.800000000000000000e+02,3.480000000000000000e+02,3.440000000000000000e+02,3.350000000000000000e+02,3.380000000000000000e+02,3.220000000000000000e+02,3.220000000000000000e+02,3.550000000000000000e+02,3.480000000000000000e+02,4.330000000000000000e+02,4.830000000000000000e+02,4.900000000000000000e+02,4.920000000000000000e+02,5.450000000000000000e+02,5.300000000000000000e+02,5.810000000000000000e+02,5.910000000000000000e+02,6.350000000000000000e+02,6.710000000000000000e+02,7.030000000000000000e+02,7.290000000000000000e+02,7.290000000000000000e+02,7.780000000000000000e+02,7.750000000000000000e+02
0.000000000000000000e+00,0.000000000000000000e+00,0.000000000000000000e+00,0.000000000000000000e+00,0.000000000000000000e+00,1.760000000000000000e+02,1.290000000000000000e+02,1.270000000000000000e+02,1.310000000000000000e+02,1.290000000000000000e+02,2.340000000000000000e+02,2.270000000000000000e+02,4.040000000000000000e+02,4.290000000000000000e+02,4.330000000000000000e+02,4.070000000000000000e+02,4.080000000000000000e+02,4.120000000000000000e+02,4.260000000000000000e+02,4.710000000000000000e+02,4.710000000000000000e+02,4.680000000000000000e+02,4.660000000000000000e+02,4.670000000000000000e+02,4.660000000000000000e+02,5.260000000000000000e+02,5.400000000000000000e+02,5.410000000000000000e+02,5.390000000000000000e+02,5.290000000000000000e+02,5.010000000000000000e+02,5.580000000000000000e+02,6.240000000000000000e+02,6.820000000000000000e+02,7.190000000000000000e+02
0.000000000000000000e+00,0.000000000000000000e+00,0.000000000000000000e+00,0.000000000000000000e+00,0.000000000000000000e+00,0.000000000000000000e+00,0.000000000000000000e+00,0.000000000000000000e+00,2.250000000000000000e+02,1.770000000000000000e+02,1.990000000000000000e+02,2.360000000000000000e+02,2.440000000000000000e+02,2.360000000000000000e+02,5.340000000000000000e+02,5.420000000000000000e+02,5.830000000000000000e+02,7.150000000000000000e+02,7.000000000000000000e+02,7.490000000000000000e+02,7.480000000000000000e+02,7.760000000000000000e+02,7.930000000000000000e+02,8.020000000000000000e+02,7.830000000000000000e+02,7.710000000000000000e+02,7.740000000000000000e+02,7.370000000000000000e+02,7.720000000000000000e+02,8.310000000000000000e+02,8.780000000000000000e+02,8.800000000000000000e+02,8.490000000000000000e+02,8.420000000000000000e+02,8.420000000000000000e+02
0.000000000000000000e+00,0.000000000000000000e+00,0.000000000000000000e+00,0.000000000000000000e+00,0.000000000000000000e+00,2.380000000000000000e+02,0.000000000000000000e+00,0.000000000000000000e+00,0.000000000000000000e+00,6.700000000000000000e+01,2.400000000000000000e+02,1.960000000000000000e+02,5.600000000000000000e+01,3.000000000000000000e+02,3.550000000000000000e+02,3.620000000000000000e+02,4.260000000000000000e+02,4.550000000000000000e+02,4.990000000000000000e+02,4.860000000000000000e+02,5.500000000000000000e+02,5.960000000000000000e+02,5.420000000000000000e+02,5.770000000000000000e+02,5.070000000000000000e+02,5.610000000000000000e+02,6.530000000000000000e+02,6.590000000000000000e+02,6.760000000000000000e+02,7.070000000000000000e+02,7.260000000000000000e+02,7.310000000000000000e+02,7.450000000000000000e+02,7.970000000000000000e+02,7.960000000000000000e+02
0.000000000000000000e+00,0.000000000000000000e+00,0.000000000000000000e+00,0.000000000000000000e+00,0.000000000000000000e+00,0.000000000000000000e+00,0.000000000000000000e+00,0.000000000000000000e+00,0.000000000000000000e+00,1.310000000000000000e+02,1.300000000000000000e+02,1.350000000000000000e+02,2.430000000000000000e+02,2.700000000000000000e+02,4.260000000000000000e+02,4.640000000000000000e+02,7.640000000000000000e+02,7.820000000000000000e+02,8.030000000000000000e+02,7.600000000000000000e+02,8.330000000000000000e+02,7.310000000000000000e+02,7.430000000000000000e+02,7.610000000000000000e+02,7.650000000000000000e+02,8.520000000000000000e+02,7.970000000000000000e+02,7.380000000000000000e+02,7.390000000000000000e+02,7.490000000000000000e+02,7.860000000000000000e+02,7.760000000000000000e+02,7.870000000000000000e+02,8.210000000000000000e+02,8.580000000000000000e+02
0.000000000000000000e+00,0.000000000000000000e+00,0.000000000000000000e+00,0.000000000000000000e+00,0.000000000000000000e+00,0.000000000000000000e+00,0.000000000000000000e+00,0.000000000000000000e+00,0.000000000000000000e+00,0.000000000000000000e+00,1.000000000000000000e+00,1.740000000000000000e+02,1.530000000000000000e+02,1.920000000000000000e+02,2.470000000000000000e+02,4.550000000000000000e+02,4.820000000000000000e+02,3.760000000000000000e+02,4.120000000000000000e+02,4.550000000000000000e+02,5.210000000000000000e+02,4.510000000000000000e+02,4.640000000000000000e+02,4.680000000000000000e+02,4.890000000000000000e+02,4.560000000000000000e+02,4.610000000000000000e+02,4.720000000000000000e+02,5.160000000000000000e+02,5.550000000000000000e+02,5.660000000000000000e+02,5.860000000000000000e+02,6.160000000000000000e+02,5.800000000000000000e+02,5.850000000000000000e+02
0.000000000000000000e+00,0.000000000000000000e+00,0.000000000000000000e+00,0.000000000000000000e+00,0.000000000000000000e+00,2.080000000000000000e+02,1.860000000000000000e+02,1.150000000000000000e+02,1.130000000000000000e+02,1.230000000000000000e+02,1.210000000000000000e+02,1.130000000000000000e+02,2.270000000000000000e+02,5.120000000000000000e+02,4.200000000000000000e+02,4.190000000000000000e+02,4.460000000000000000e+02,4.420000000000000000e+02,4.520000000000000000e+02,4.430000000000000000e+02,4.260000000000000000e+02,3.830000000000000000e+02,3.780000000000000000e+02,3.920000000000000000e+02,3.980000000000000000e+02,4.040000000000000000e+02,4.380000000000000000e+02,4.690000000000000000e+02,6.070000000000000000e+02,6.490000000000000000e+02,6.420000000000000000e+02,6.810000000000000000e+02,7.090000000000000000e+02,7.400000000000000000e+02,7.030000000000000000e+02
0.000000000000000000e+00,6.270000000000000000e+02,0.000000000000000000e+00,0.000000000000000000e+00,3.150000000000000000e+02,2.920000000000000000e+02,1.990000000000000000e+02,2.810000000000000000e+02,7.230000000000000000e+02,0.000000000000000000e+00,6.590000000000000000e+02,2.140000000000000000e+02,2.380000000000000000e+02,2.960000000000000000e+02,4.580000000000000000e+02,4.710000000000000000e+02,4.550000000000000000e+02,3.400000000000000000e+02,3.650000000000000000e+02,3.640000000000000000e+02,3.520000000000000000e+02,5.020000000000000000e+02,5.350000000000000000e+02,5.460000000000000000e+02,5.750000000000000000e+02,5.740000000000000000e+02,5.810000000000000000e+02,5.960000000000000000e+02,6.060000000000000000e+02,6.080000000000000000e+02,6.440000000000000000e+02,6.550000000000000000e+02,6.770000000000000000e+02,7.040000000000000000e+02,6.970000000000000000e+02
0.000000000000000000e+00,0.000000000000000000e+00,0.000000000000000000e+00,0.000000000000000000e+00,0.000000000000000000e+00,0.000000000000000000e+00,0.000000000000000000e+00,1.300000000000000000e+01,2.300000000000000000e+01,1.300000000000000000e+01,8.610000000000000000e+02,6.820000000000000000e+02,5.270000000000000000e+02,3.630000000000000000e+02,3.770000000000000000e+02,3.780000000000000000e+02,4.970000000000000000e+02,5.120000000000000000e+02,5.670000000000000000e+02,6.000000000000000000e+02,6.530000000000000000e+02,6.860000000000000000e+02,6.540000000000000000e+02,6.430000000000000000e+02,6.960000000000000000e+02,7.180000000000000000e+02,7.680000000000000000e+02,7.660000000000000000e+02,8.020000000000000000e+02,7.900000000000000000e+02,9.340000000000000000e+02,9.370000000000000000e+02,9.490000000000000000e+02,9.610000000000000000e+02,9.610000000000000000e+02
0.000000000000000000e+00,0.000000000000000000e+00,0.000000000000000000e+00,0.000000000000000000e+00,0.000000000000000000e+00,0.000000000000000000e+00,4.900000000000000000e+01,2.800000000000000000e+01,7.100000000000000000e+01,9.600000000000000000e+01,6.000000000000000000e+01,3.400000000000000000e+01,1.250000000000000000e+02,1.800000000000000000e+02,3.700000000000000000e+02,2.940000000000000000e+02,3.720000000000000000e+02,3.530000000000000000e+02,3.330000000000000000e+02,3.350000000000000000e+02,3.290000000000000000e+02,3.750000000000000000e+02,3.840000000000000000e+02,3.940000000000000000e+02,4.100000000000000000e+02,4.500000000000000000e+02,4.450000000000000000e+02,4.280000000000000000e+02,4.560000000000000000e+02,4.940000000000000000e+02,5.650000000000000000e+02,5.920000000000000000e+02,6.280000000000000000e+02,6.330000000000000000e+02,6.350000000000000000e+02
0.000000000000000000e+00,0.000000000000000000e+00,0.000000000000000000e+00,0.000000000000000000e+00,0.000000000000000000e+00,0.000000000000000000e+00,0.000000000000000000e+00,0.000000000000000000e+00,0.000000000000000000e+00,2.480000000000000000e+02,2.550000000000000000e+02,6.790000000000000000e+02,5.330000000000000000e+02,6.450000000000000000e+02,6.020000000000000000e+02,5.260000000000000000e+02,5.200000000000000000e+02,5.250000000000000000e+02,5.580000000000000000e+02,6.120000000000000000e+02,6.320000000000000000e+02,7.950000000000000000e+02,7.960000000000000000e+02,8.090000000000000000e+02,8.170000000000000000e+02,8.300000000000000000e+02,8.620000000000000000e+02,8.580000000000000000e+02,8.290000000000000000e+02,8.530000000000000000e+02,8.650000000000000000e+02,8.930000000000000000e+02,9.060000000000000000e+02,8.910000000000000000e+02,9.020000000000000000e+02
0.000000000000000000e+00,0.000000000000000000e+00,0.000000000000000000e+00,0.000000000000000000e+00,0.000000000000000000e+00,0.000000000000000000e+00,0.000000000000000000e+00,0.000000000000000000e+00,2.130000000000000000e+02,1.740000000000000000e+02,2.230000000000000000e+02,2.660000000000000000e+02,2.650000000000000000e+02,2.560000000000000000e+02,4.880000000000000000e+02,4.130000000000000000e+02,4.500000000000000000e+02,7.040000000000000000e+02,7.030000000000000000e+02,8.030000000000000000e+02,7.900000000000000000e+02,8.060000000000000000e+02,7.240000000000000000e+02,7.120000000000000000e+02,6.950000000000000000e+02,7.060000000000000000e+02,7.040000000000000000e+02,7.310000000000000000e+02,7.880000000000000000e+02,7.800000000000000000e+02,8.230000000000000000e+02,8.290000000000000000e+02,7.890000000000000000e+02,8.050000000000000000e+02,8.000000000000000000e+02
0.000000000000000000e+00,0.000000000000000000e+00,0.000000000000000000e+00,0.000000000000000000e+00,0.000000000000000000e+00,5.400000000000000000e+02,2.500000000000000000e+01,2.560000000000000000e+02,1.960000000000000000e+02,2.300000000000000000e+02,1.890000000000000000e+02,1.990000000000000000e+02,2.590000000000000000e+02,2.060000000000000000e+02,2.620000000000000000e+02,2.780000000000000000e+02,4.640000000000000000e+02,5.380000000000000000e+02,5.120000000000000000e+02,4.490000000000000000e+02,5.790000000000000000e+02,6.000000000000000000e+02,6.300000000000000000e+02,6.490000000000000000e+02,6.500000000000000000e+02,6.750000000000000000e+02,6.690000000000000000e+02,6.470000000000000000e+02,6.440000000000000000e+02,6.640000000000000000e+02,6.690000000000000000e+02,6.750000000000000000e+02,6.810000000000000000e+02,6.890000000000000000e+02,6.970000000000000000e+02
0.000000000000000000e+00,0.000000000000000000e+00,0.000000000000000000e+00,0.000000000000000000e+00,0.000000000000000000e+00,0.000000000000000000e+00,0.000000000000000000e+00,0.000000000000000000e+00,0.000000000000000000e+00,0.000000000000000000e+00,2.000000000000000000e+00,2.400000000000000000e+01,2.200000000000000000e+01,3.300000000000000000e+01,3.300000000000000000e+01,2.300000000000000000e+01,6.600000000000000000e+01,5.400000000000000000e+01,7.200000000000000000e+01,1.090000000000000000e+02,1.180000000000000000e+02,1.620000000000000000e+02,1.760000000000000000e+02,1.330000000000000000e+02,1.630000000000000000e+02,1.910000000000000000e+02,2.140000000000000000e+02,2.630000000000000000e+02,2.610000000000000000e+02,2.640000000000000000e+02,3.280000000000000000e+02,3.590000000000000000e+02,3.460000000000000000e+02,3.820000000000000000e+02,4.020000000000000000e+02
2.486000000000000000e+03,3.440000000000000000e+02,2.650000000000000000e+02,2.000000000000000000e+00,3.000800000000000000e+04,0.000000000000000000e+00,0.000000000000000000e+00,0.000000000000000000e+00,0.000000000000000000e+00,0.000000000000000000e+00,0.000000000000000000e+00,0.000000000000000000e+00,1.400000000000000000e+01,2.430000000000000000e+02,1.640000000000000000e+02,1.410000000000000000e+02,2.150000000000000000e+02,2.430000000000000000e+02,2.280000000000000000e+02,3.370000000000000000e+02,3.400000000000000000e+02,3.550000000000000000e+02,3.620000000000000000e+02,4.080000000000000000e+02,5.110000000000000000e+02,5.080000000000000000e+02,5.680000000000000000e+02,5.940000000000000000e+02,6.320000000000000000e+02,6.470000000000000000e+02,6.240000000000000000e+02,7.360000000000000000e+02,7.510000000000000000e+02,7.770000000000000000e+02,7.530000000000000000e+02
0.000000000000000000e+00,0.000000000000000000e+00,0.000000000000000000e+00,0.000000000000000000e+00,0.000000000000000000e+00,0.000000000000000000e+00,0.000000000000000000e+00,0.000000000000000000e+00,0.000000000000000000e+00,0.000000000000000000e+00,0.000000000000000000e+00,2.740000000000000000e+02,3.150000000000000000e+02,7.540000000000000000e+02,7.720000000000000000e+02,7.750000000000000000e+02,7.960000000000000000e+02,7.860000000000000000e+02,8.120000000000000000e+02,8.290000000000000000e+02,8.310000000000000000e+02,7.980000000000000000e+02,8.150000000000000000e+02,8.470000000000000000e+02,8.410000000000000000e+02,8.470000000000000000e+02,8.710000000000000000e+02,8.710000000000000000e+02,8.780000000000000000e+02,8.800000000000000000e+02,9.070000000000000000e+02,9.190000000000000000e+02,9.360000000000000000e+02,9.650000000000000000e+02,9.960000000000000000e+02
0.000000000000000000e+00,0.000000000000000000e+00,0.000000000000000000e+00,1.262000000000000000e+03,0.000000000000000000e+00,5.300000000000000000e+01,0.000000000000000000e+00,8.300000000000000000e+01,1.240000000000000000e+02,6.900000000000000000e+01,4.400000000000000000e+01,2.750000000000000000e+02,3.190000000000000000e+02,3.260000000000000000e+02,3.440000000000000000e+02,3.510000000000000000e+02,3.690000000000000000e+02,3.650000000000000000e+02,3.750000000000000000e+02,4.250000000000000000e+02,4.730000000000000000e+02,4.960000000000000000e+02,4.700000000000000000e+02,4.800000000000000000e+02,4.910000000000000000e+02,5.000000000000000000e+02,5.290000000000000000e+02,5.420000000000000000e+02,5.510000000000000000e+02,5.930000000000000000e+02,5.930000000000000000e+02,6.220000000000000000e+02,6.600000000000000000e+02,6.610000000000000000e+02,6.950000000000000000e+02
0.000000000000000000e+00,0.000000000000000000e+00,0.000000000000000000e+00,0.000000000000000000e+00,0.000000000000000000e+00,0.000000000000000000e+00,0.000000000000000000e+00,2.000000000000000000e+00,5.790000000000000000e+02,5.050000000000000000e+02,3.720000000000000000e+02,6.650000000000000000e+02,5.270000000000000000e+02,5.090000000000000000e+02,5.120000000000000000e+02,5.090000000000000000e+02,5.130000000000000000e+02,5.710000000000000000e+02,5.650000000000000000e+02,5.720000000000000000e+02,5.820000000000000000e+02,5.870000000000000000e+02,5.980000000000000000e+02,5.790000000000000000e+02,6.080000000000000000e+02,6.270000000000000000e+02,6.380000000000000000e+02,6.300000000000000000e+02,6.300000000000000000e+02,6.310000000000000000e+02,6.310000000000000000e+02,6.670000000000000000e+02,6.760000000000000000e+02,7.010000000000000000e+02,7.040000000000000000e+02
0.000000000000000000e+00,0.000000000000000000e+00,0.000000000000000000e+00,0.000000000000000000e+00,0.000000000000000000e+00,0.000000000000000000e+00,0.000000000000000000e+00,2.800000000000000000e+02,2.130000000000000000e+02,2.440000000000000000e+02,3.070000000000000000e+02,3.000000000000000000e+02,3.760000000000000000e+02,5.250000000000000000e+02,6.640000000000000000e+02,6.800000000000000000e+02,6.910000000000000000e+02,8.330000000000000000e+02,8.600000000000000000e+02,8.840000000000000000e+02,8.800000000000000000e+02,7.550000000000000000e+02,7.520000000000000000e+02,7.540000000000000000e+02,7.170000000000000000e+02,6.870000000000000000e+02,7.090000000000000000e+02,7.190000000000000000e+02,7.660000000000000000e+02,7.160000000000000000e+02,8.060000000000000000e+02,8.050000000000000000e+02,8.000000000000000000e+02,7.730000000000000000e+02,7.690000000000000000e+02
0.000000000000000000e+00,0.000000000000000000e+00,0.000000000000000000e+00,0.000000000000000000e+00,0.000000000000000000e+00,0.000000000000000000e+00,0.000000000000000000e+00,0.000000000000000000e+00,0.000000000000000000e+00,0.000000000000000000e+00,0.000000000000000000e+00,0.000000000000000000e+00,1.510000000000000000e+02,3.540000000000000000e+02,2.020000000000000000e+02,2.820000000000000000e+02,2.820000000000000000e+02,4.900000000000000000e+02,5.640000000000000000e+02,5.690000000000000000e+02,5.750000000000000000e+02,5.870000000000000000e+02,5.850000000000000000e+02,6.070000000000000000e+02,6.480000000000000000e+02,6.810000000000000000e+02,6.890000000000000000e+02,8.010000000000000000e+02,7.920000000000000000e+02,7.990000000000000000e+02,8.300000000000000000e+02,9.010000000000000000e+02,8.920000000000000000e+02,9.130000000000000000e+02,9.180000000000000000e+02
0.000000000000000000e+00,0.000000000000000000e+00,0.000000000000000000e+00,0.000000000000000000e+00,0.000000000000000000e+00,2.400000000000000000e+02,0.000000000000000000e+00,2.440000000000000000e+02,2.570000000000000000e+02,3.480000000000000000e+02,6.360000000000000000e+02,4.410000000000000000e+02,4.530000000000000000e+02,3.610000000000000000e+02,3.820000000000000000e+02,3.680000000000000000e+02,8.150000000000000000e+02,7.770000000000000000e+02,7.850000000000000000e+02,8.220000000000000000e+02,8.420000000000000000e+02,8.200000000000000000e+02,8.410000000000000000e+02,8.310000000000000000e+02,8.000000000000000000e+02,7.890000000000000000e+02,8.190000000000000000e+02,7.550000000000000000e+02,7.050000000000000000e+02,7.170000000000000000e+02,7.670000000000000000e+02,7.690000000000000000e+02,7.960000000000000000e+02,7.880000000000000000e+02,7.880000000000000000e+02
0.000000000000000000e+00,0.000000000000000000e+00,0.000000000000000000e+00,0.000000000000000000e+00,0.000000000000000000e+00,0.000000000000000000e+00,0.000000000000000000e+00,0.000000000000000000e+00,0.000000000000000000e+00,0.000000000000000000e+00,0.000000000000000000e+00,3.160000000000000000e+02,2.530000000000000000e+02,2.620000000000000000e+02,2.430000000000000000e+02,3.070000000000000000e+02,3.120000000000000000e+02,3.060000000000000000e+02,3.150000000000000000e+02,3.200000000000000000e+02,3.140000000000000000e+02,3.170000000000000000e+02,3.270000000000000000e+02,3.440000000000000000e+02,3.540000000000000000e+02,3.550000000000000000e+02,3.780000000000000000e+02,5.150000000000000000e+02,5.530000000000000000e+02,5.710000000000000000e+02,5.580000000000000000e+02,6.280000000000000000e+02,6.110000000000000000e+02,6.570000000000000000e+02,7.230000000000000000e+02
0.000000000000000000e+00,0.000000000000000000e+00,0.000000000000000000e+00,0.000000000000000000e+00,0.000000000000000000e+00,0.000000000000000000e+00,0.000000000000000000e+00,0.000000000000000000e+00,0.000000000000000000e+00,0.000000000000000000e+00,0.000000000000000000e+00,1.000000000000000000e+00,6.000000000000000000e+00,4.000000000000000000e+00,2.000000000000000000e+00,2.000000000000000000e+00,1.400000000000000000e+01,1.700000000000000000e+01,1.480000000000000000e+02,1.670000000000000000e+02,2.190000000000000000e+02,2.000000000000000000e+02,2.440000000000000000e+02,2.020000000000000000e+02,2.740000000000000000e+02,3.000000000000000000e+02,4.690000000000000000e+02,4.940000000000000000e+02,6.030000000000000000e+02,7.120000000000000000e+02,7.430000000000000000e+02,7.120000000000000000e+02,7.350000000000000000e+02,8.500000000000000000e+02,8.600000000000000000e+02
0.000000000000000000e+00,0.000000000000000000e+00,0.000000000000000000e+00,0.000000000000000000e+00,0.000000000000000000e+00,2.270000000000000000e+02,1.100000000000000000e+01,9.000000000000000000e+00,1.136000000000000000e+03,3.050000000000000000e+02,3.210000000000000000e+02,2.970000000000000000e+02,4.930000000000000000e+02,5.590000000000000000e+02,5.800000000000000000e+02,5.570000000000000000e+02,5.870000000000000000e+02,5.970000000000000000e+02,5.490000000000000000e+02,5.800000000000000000e+02,6.380000000000000000e+02,6.190000000000000000e+02,8.210000000000000000e+02,8.740000000000000000e+02,7.960000000000000000e+02,8.700000000000000000e+02,8.060000000000000000e+02,7.890000000000000000e+02,8.470000000000000000e+02,8.440000000000000000e+02,8.540000000000000000e+02,8.470000000000000000e+02,8.490000000000000000e+02,8.340000000000000000e+02,8.650000000000000000e+02
0.000000000000000000e+00,0.000000000000000000e+00,0.000000000000000000e+00,0.000000000000000000e+00,0.000000000000000000e+00,0.000000000000000000e+00,0.000000000000000000e+00,4.550000000000000000e+02,2.750000000000000000e+02,2.840000000000000000e+02,3.020000000000000000e+02,3.140000000000000000e+02,4.230000000000000000e+02,4.090000000000000000e+02,4.150000000000000000e+02,5.500000000000000000e+02,5.570000000000000000e+02,5.570000000000000000e+02,5.680000000000000000e+02,5.940000000000000000e+02,5.910000000000000000e+02,6.150000000000000000e+02,6.260000000000000000e+02,6.250000000000000000e+02,6.610000000000000000e+02,6.790000000000000000e+02,6.940000000000000000e+02,6.800000000000000000e+02,7.220000000000000000e+02,7.370000000000000000e+02,7.170000000000000000e+02,7.230000000000000000e+02,7.100000000000000000e+02,7.090000000000000000e+02,7.040000000000000000e+02
