"V1","V2","V3","V4","V5","V6","V7","V8","V9","V10","V11","V12","V13","V14","V15","V16","V17","V18","V19","V20","V21","V22","V23","V24","V25","V26","V27","V28","V29","V30","V31","V32","V33","V34","V35","V36","V37","V38","V39","V40","V41","V42","V43","V44","V45","V46","V47","V48","V49","V50","V51","V52","V53","V54","V55","V56","V57","V58","V59","V60","V61","V62","V63","V64","V65","V66","V67","V68","V69","V70","V71","V72","V73","V74","V75","V76","V77","V78","V79","V80","V81","V82","V83","V84","V85","V86","V87","V88","V89","V90"
5.52312159884733,14.9206204922726,208.711527066267,2.57355610047979,11.3406393959672,75.8270191659952,-2.78358960291685,3.6474472958925,61.2881707331959,6.99883634500262,1.11637289291982,17.2490433600973,-2.22154057679223,4.41924043111636,37.1481468461919,1.32927363795828,7.69005464125623,25.1264406943296,0.679556094987868,13.2392915912091,85.7354725778142,0.187790531158798,1.99835694440397,33.1768647235849,4.84494895514827,10.8581150163011,103.35490781948,6.72814896210118,11.4145254761884,126.607778618432,-2.59850683528062,7.63129177294361,13.0659749735203,1.53233930613778,11.5456809149422,69.4605136582298,-0.135419632186373,1.44941105807061,42.2522094997826,5.7297259333223,0.551032778494141,18.4065377945236,2.72264591046975,5.16757409512497,7.79192415904017,6.50457398659304,7.60308292411113,62.8865228109142,4.46800304434252,11.8401677323118,116.312791987294,-4.02185549505857,14.4763318321318,3.88466241455675,8.17275329979969,12.7055148491651,133.627678192134,8.60756195776364,9.87865854986233,70.5778281373755,7.07944050635548,3.54617592710887,22.7961487639834,-2.53107104694837,3.22592795692792,60.10196129715,-3.05542197475776,12.5380614114386,0.676404606968525,6.57209712690883,1.97590486304389,20.1360163501824,-3.546272769815,12.8747585424223,1.30457119925683,3.00455428391137,0.0558360923163824,5.80367168915426,-4.96926953150478,12.903071135336,29.5233379185303,8.83488161149891,2.63802973495759,2.68225131533623,6.24692194475899,8.72688248642543,79.2979389457534,8.4435365556648,5.45152879735859,19.5642415484097
2.14471653632478,8.90601981620311,37.6984136838067,5.64777310235867,14.3231016751546,193.873130339328,0.810080843030738,6.98299041624973,21.4125074220034,4.11508953173186,1.81002255853066,4.64574823530614,4.46590373640025,10.7588003872048,94.902657796173,7.80478515922039,2.85795707457654,12.9205645011879,1.579613451403,7.73429497719171,25.3783984233552,5.30655336122833,11.9465398703738,132.572034008091,8.18908191971621,13.8405947079442,160.119996725234,-4.63459449570263,6.12958166840673,108.595064729268,8.39304606240872,13.482737118866,147.132200993074,4.36737660478492,1.04872217865599,6.92564947232648,-4.60396729108669,6.53924202687292,98.6943224259281,-0.469884417625525,13.243159485488,60.3880791308903,-4.95280144911113,14.0639822313644,20.8444791948254,7.48428519301735,2.6750989414947,15.6967713611345,-3.47449507430385,4.9467256083958,66.7305231001704,-2.95354429056452,11.5912824594597,0.613072476830407,-1.33394957657641,5.59830301753853,19.8161312613975,3.5476046484214,2.04310925985941,1.18759549363031,2.31355556809191,14.7763679678079,142.288383257931,5.77015018595873,13.790800268517,181.118837502201,-1.77223458094775,3.90597086282095,36.3005960171933,7.63938571585434,14.8063645768401,196.282446954029,0.903969533562106,1.50026220437078,25.9530531088743,8.85658493784356,8.08323655713059,40.9004225821178,5.22356795052296,14.2982948023838,187.780164298178,0.830582625883458,7.50121161930743,23.9604436762306,-4.21924115395401,13.751470232396,6.9386290790581,-0.912290305832846,12.8762996942261,44.1669568356205
-1.74333627907645,0.23785476097313,87.9477088369272,-1.35632773368643,2.49961021531983,46.7597788036722,-1.60757365194176,5.00227929553747,24.7289636691259,0.545288476914529,6.47802853634194,19.9210412323309,2.05745000576201,9.54062123706077,44.9355431039172,0.95070080176824,9.84750495454565,43.1016930414075,8.69987012146092,4.44599221032136,10.1363040512292,8.56051698053443,9.71810069043319,68.7501301183926,2.85399392060331,7.09664720695503,22.0195516855994,1.98190389775366,0.437800780190234,14.6039958340866,-3.90993057226656,13.5263162982635,3.49577909543223,-4.42611861380951,6.10718783375237,95.9942430649732,3.67784418508705,10.1562477759949,70.5786874994403,2.51620073502756,10.8438835053812,66.9642560648565,4.20306323924724,1.44518104772069,5.32869221397434,9.86484367563729,10.3861529409882,61.5525792836512,3.46861960085125,0.304922432855659,3.79128829659939,5.61441593332886,7.53549607078212,59.5091849407285,8.51989942987348,1.95060248756971,4.16847199645455,-0.219900985130526,8.43712299242116,23.7015093075975,5.62887387603585,10.2977681381717,103.062097870711,3.96915478523831,7.1536369435364,33.4830818496663,1.88602904474915,7.36164592615478,22.3333129385449,-0.973462008960134,0.729342274209124,63.564065443833,2.65293075504251,7.34850026690317,23.4184136877484,6.80062979156079,11.8623087616877,135.599265740619,3.9229790733503,0.60335145544954,4.39787565898465,3.24680240079762,1.14663770084842,1.49350632444412,7.72092454255878,2.57124028719613,12.9884951020353,5.27177245456789,11.9366781600752,131.889320040829
-4.77698262937529,5.59598541335681,129.363323447029,7.87031951866247,3.4328854952238,14.3114950350125,4.63446612211741,13.6763459619135,161.332543017691,8.22303000989258,9.40466474046399,69.3906305154258,0.860906099554494,6.62292303796643,19.8652516626598,-4.89512117250856,3.62452093831788,186.015383519108,-3.85677672016681,11.0261915649357,11.7264770190889,3.62687497976425,12.3756833182062,111.379519641429,-1.44938363094434,5.36278133491463,21.4673307591119,9.88379805476911,9.84739305052864,53.3100668272299,6.86624902920174,11.490014590781,127.154574960039,8.910028097912,9.9913702198805,67.5349459531637,-0.569808056126587,5.47346409900066,20.2592757314641,4.47489409246396,14.1882193762256,170.918032639088,7.39346995800447,2.7074762113165,16.6739249747097,-0.899738488908012,14.612539474582,66.0692883444017,1.84929740743374,8.5835924834322,33.3060699548487,-1.45458238441673,7.13512553464099,13.2097592990722,4.04829777357429,14.8150374142586,177.858745091388,-1.24195342080532,13.8872789618489,45.7655853828125,-4.10430553413505,6.76612866933208,66.9174306738589,9.2715152696061,8.01637129178226,35.1478902560069,0.204589029292915,10.1382753839207,39.2808609033383,9.59301025528283,5.95396151015659,13.2533837042951,7.24230417743375,3.09873562069731,19.4431592972216,0.368154214125124,5.14443438508678,19.0409579623337,-0.489690355481869,7.91887245088434,19.7038398088667,-4.17990537520842,9.8903713251598,29.8754760087228,1.48102049280671,12.7468224946056,88.7616224185451,-3.49009234845967,13.8358480238372,1.52046665594815
8.13359554489597,4.03380174548835,14.1107179719066,2.32162064956754,4.66514482064879,6.26296830763666,2.76644238165971,0.0723446542200183,7.28580086471395,-4.0915578603408,4.79957816814349,101.094193298106,-4.91167991542054,12.1866651911316,33.8589346073176,4.07622227485965,4.72080055161782,13.9295529642592,-3.42091725735368,10.2865913830838,7.74032642848139,-2.34961736030736,8.00957781592003,9.15589982689552,-2.23281292235099,1.17662164104889,85.2492289489389,0.930506172223783,3.01196260359452,18.3504560537831,4.40165152344505,7.18378140533571,39.9590202845855,8.48076294902138,5.5301307622432,19.7225064373954,9.13098336267699,8.6015203911686,44.0318281014649,-3.82469992551162,6.03170735963781,65.091944257815,-2.93394327802092,9.13096614047387,7.51458153608776,-4.30125510284537,3.91282599461619,133.310413643371,0.588103966396851,12.4707256217951,72.2014574736788,4.27903182725946,9.62556073138271,71.8511097781871,1.29280470103924,7.17468580399675,21.7589034591537,2.18531382727433,6.94140489697124,19.0149639832941,-0.767565510133588,0.101391944646018,68.6754931543997,7.09399013257813,5.50460821127163,36.1633511358392,7.61288408623126,8.25815541902337,61.7729771352575,5.14112854892927,9.08181430425149,76.6647651784727,6.09056836728273,1.36490633584878,19.5542866967986,-1.21820278862683,2.72272325363608,42.5197880068005,-1.36243641718941,3.6459479178465,34.6203577160816,-2.03744138917546,14.4678867169088,27.7648784785229,2.88444156852944,0.638596289484945,4.04210274802027,2.08168555695016,3.6662497889009,5.49036609518543
2.51158558233705,7.19511416997996,21.5441231504822,0.0274380942185992,7.28526785277796,21.3643183607205,2.28833465136002,1.9801015307019,4.77021004295797,2.51335432697592,10.7034135794438,64.6964318793109,-1.6604926883829,5.91931433222701,18.581057115979,3.82686488990038,12.749921449337,123.252704326063,2.87037465558149,4.99610962302517,7.10415327754646,1.63134574429963,6.03297918343692,14.6735481125518,-3.62035699405998,9.0398542193905,20.6806700529056,3.37504715128716,8.37908322487252,40.4486948304207,0.54251020099119,3.40252870907992,21.3609546829735,-3.05517250701927,2.20632783879161,97.2259696372084,-2.25377128900916,3.0596351625286,55.3586896561668,9.19779130179031,9.59183954838427,57.1336109057468,-0.300514218806949,6.32706100715063,19.1982464760511,-3.43629304969746,1.4070875655055,134.386660713488,-0.517686227106406,13.8577483030553,67.3422709845664,9.97344014680159,1.25483262584769,3.96787656727301,-2.63881320286498,11.7890839578306,2.08654722425339,-4.12229513200946,12.8940411207963,7.96585873159332,2.51201695839365,12.9002076492753,104.228770523267,-3.54631256880057,12.4457996062578,1.79952365228625,3.75374904286365,11.5267595146051,96.550681087382,1.55577392706308,6.46379241985237,17.078679662834,-1.10163662322275,5.18249680271798,21.7644626680138,8.48755669609812,7.1824734867452,35.3072190521527,1.45390862247845,6.50695364800947,17.6386391063568,8.1509228741101,4.42762448414549,16.1055027282266,4.83011362537483,9.06430634195674,71.9193242637805,0.531319558555271,6.68151306335012,20.5025742720618
5.04043760533962,12.9497793007519,151.254418610706,9.81645258694264,12.3830507577833,97.2030043307054,9.77656073423708,12.067740750262,91.6568365974622,-3.04025758971217,14.3391872146862,5.87514364988735,7.90320533331425,8.52739294262929,61.2955727149557,-3.4069378458074,14.4516695192806,3.1653184892583,-1.74375837782177,0.738268937600817,79.2795223275837,-1.14932966627245,1.15611195202084,60.7193489506045,9.25450472462666,12.8843800141559,116.447964609819,-1.77499439212657,12.1629393355478,16.690111067042,9.59371989385973,5.561488632687,10.6052745365461,6.46579997295504,3.33276745812319,24.8645674546532,5.84217256839239,12.3877732901408,147.804344312414,8.12192644291543,5.40850534665736,23.3006323852885,1.35614563642997,13.4819134328634,100.543685818055,0.890180771392309,12.7874235219371,81.7143779200001,8.18334390529547,1.78949857297144,7.00465985267139,0.0167132292996524,2.10967271245727,34.5294340553162,5.93665795022793,7.52995465810125,61.4732600089496,4.80567096664367,0.990816377888204,10.9760130317336,-3.24438648562582,7.87296392670512,21.827882925193,1.7510773577373,1.64029738082016,12.1242916486238,4.59678904924662,0.82116736201293,9.18301052026129,-2.02184516441706,7.75062955069589,9.75445255488344,2.27824535053435,14.9509508554807,145.83454502255,-3.93033137779871,13.2844347617839,4.09294357042065,5.91246002208865,4.96920733906088,34.5665202991527,5.57625618796461,12.2982495499828,143.525290331994,9.52477171814611,4.35137843151824,4.52843209946871,2.55030448290707,9.00872098897416,41.014498284441
-2.82971772935729,11.6817879132361,0.88799500826393,-4.86938729467205,1.20569498025745,253.216767181554,-4.34905128495987,11.075661420702,24.5784997932638,1.92161930739578,12.0585256978751,81.5087285155196,6.29501993087629,0.518147771075828,19.8336388878405,9.69618007734634,10.7379173489067,69.0201431975674,7.0367298369166,2.05042290738172,17.9599902240605,7.28481457739122,3.76313047317266,22.1237161200391,2.01642328444205,4.37786540857482,7.0107515341294,4.04417543824265,1.8804843948035,4.1109771272194,-1.86155103335398,0.556471029811208,85.4844138736468,3.53780245709231,8.98663684538276,50.5914666460593,1.32830469075492,14.6096666151314,122.561268975473,1.16082149812121,2.36858255270337,17.6476387116311,6.55505638592219,7.72333520836044,64.3268739383319,3.85988774639628,6.41024103636768,24.5464826755647,9.5422165408445,6.19196651469578,15.2616283885645,3.20710697908559,3.7806125656333,2.92185497908539,-0.120753225390231,4.15784088357064,23.6782639515035,6.11568011150011,10.9062512386413,117.531140123668,0.931607631233053,10.7536327628577,53.2610170478438,5.2153018631568,11.4696366350215,121.237912481676,9.36279244718772,2.06397953688677,0.435146600855308,-4.76809612817125,12.3272479303966,27.6808650484476,4.79921214411464,8.83991526135875,68.0014560745838,1.84213927240804,3.70465213436002,7.46912180051039,8.20996937907053,2.29654558278719,7.3363649649676,4.60951441839632,4.63511711178491,19.7745867065583,0.632173340142826,10.9144155102917,52.2025978545978,5.75380003992886,7.70856216128532,62.8175928919976
8.87774757362759,9.27941449754303,56.9568692039997,5.34122072039073,10.2067956276962,98.3564070408494,8.29983904119242,8.15214717003595,49.9099535096715,8.81112143239051,8.95163415195949,53.1618743936747,3.9239557374409,1.84006028597349,3.20796314510285,-1.71728155096048,7.09305665457496,12.6529783144376,6.8142229574751,6.02824101535238,43.2050368760466,-3.56861635721486,13.7326813639526,1.45385899600662,6.90331438290195,1.65746610552463,18.18482237765,-2.61196659318311,14.1729419946999,11.6472886054926,2.37307940806846,9.82529081046913,50.5539042146393,-1.9864054431206,14.5593547909394,30.1150476221489,7.20983266403573,11.3289150464028,120.217965514565,-2.20589868679645,4.30377171513669,38.21438838176,-1.05836121241735,3.23680530843501,35.7713882674957,4.39902288217516,10.927203534478,96.8645919465373,-3.69437377206923,9.33962475124508,20.050124111154,2.342675950848,4.70925791281083,6.33955876129539,-3.62018894124015,0.710825953691252,163.039889056767,-3.37248656726533,4.66852017523309,66.903360347393,4.91100847358438,5.82036487184911,32.8884292443241,-1.07998761237566,0.723296398868583,65.5523045080407,6.33282607335788,14.8551080403016,211.545654959146,3.48276292498457,11.5263500385953,91.8313669307821,-2.1347669827072,11.6516429920437,7.67914028892072,4.85783893833007,14.1205452219859,176.854612924965,9.54784939268344,10.302668488803,63.7177500970308,-1.74151054868146,10.6026455977336,10.4620485659882,-2.29947366817132,6.70076648314632,16.7731349851876,-4.12864309493179,0.0169706389282539,221.175167153756
-0.249044612516832,2.22939931616892,36.7350172285181,-2.17803701756753,8.09798946694863,8.39906005485867,6.4834369408502,9.81785416483167,97.0752387162544,-1.87559633837426,4.21627491016634,34.3080556399501,9.20135229473735,14.7282662341802,160.652488569138,6.58703392378551,1.01578881526975,19.1622765415078,4.03480418373221,13.6627297989614,148.52031020289,6.45703115954276,5.488620151836,39.570741614858,-0.0639443433976812,7.9372694545172,22.949643693669,7.3092691007604,5.12842924285736,30.9362483958901,3.76620399735449,2.28609805417354,2.44485858397537,0.851689990950005,12.556468760704,77.4790830074778,4.30929900381842,2.1952809001761,6.72599940864844,-1.08471659613791,7.7196946622562,14.5099986049155,9.81363170594231,10.5407474100559,64.5106814194196,1.67940832718956,4.69872484024647,9.98810489703519,6.75432399983349,3.79140628161739,26.1917713278403,8.05239663745885,12.0954080972308,122.57534326803,3.45559442692904,9.04544017591115,50.3280419223651,7.36704743182298,3.00102003242855,17.9237829912979,8.62040347355622,2.48115764267796,3.96335419460262,-0.0686338239321858,10.2352620294689,36.598689076505,-4.74614726173406,5.98918184806071,118.848112988615,0.0666816950517042,3.82479921332848,23.8641690633476,9.420537916472,10.0490393609445,61.2755942679835,-2.40122318305508,9.8525628391813,3.40063719778076,-3.40672991009138,10.5541182877436,6.19851027462397,2.05918488021008,6.83505556758926,18.2775481867307,-1.92520754240059,5.89266622381779,19.923276169351,9.34756601800184,1.85842600667847,0.535980893296125
-5,14.3825999976304,20.2392174328595,-3.55663496195817,15,4.23147269478256,10,15,152.014126453331,10,15,152.014126453331,10,13.2457968108896,112.11216199859,-5,0,305.95630160211,10,15,152.014126453331,6.92412017366823,15,212.242369412602,1.48804279105095,15,133.734184412214,5.44195343083429,15,209.898700920308,5.53207873103496,15,211.022965846905,-5,15,17.2352772995751,-5,15,17.2352772995751,-5,15,17.2352772995751,10,15,152.014126453331,-5,15,17.2352772995751,10,15,152.014126453331,10,15,152.014126453331,10,15,152.014126453331,10,15,152.014126453331,-5,15,17.2352772995751,5.74782756283466,0,19.3325606698406,10,15,152.014126453331,10,15,152.014126453331,10,14.5372492807014,140.890551507696,10,15,152.014126453331,10,15,152.014126453331,10,15,152.014126453331,3.3106657460313,15,166.452996925743,10,15,152.014126453331
10,15,152.014126453331,7.47215760064747,15,204.596772890945,9.870433,14.9969745,154.282867318466,9.8329465,14.836815,151.026449502713,10,15,152.014126453331,-3.62263355,0.45918525,169.670170504215,10,11.1040309120741,71.738760165066,10,15,152.014126453331,10,15,152.014126453331,7.20717661635178,15,208.770668920376,4.42509511123908,15,191.226968416989,10,15,152.014126453331,10,15,152.014126453331,5.89332048202262,15,214.34293545884,9.9999999974891,14.9999999871263,152.014126182719,5.83286582172562,15,213.926385413194,9.99999995414619,14.9999999974087,152.01412720802,5.52745385251353,15,210.967997685816,10,14.1607549014662,132.156372523044,9.99999999077701,14.9999999961419,152.014126523372,10,15,152.014126453331,10,15,152.014126453331,9.99991792359292,14.9997837910663,152.010293713024,9.8329465,14.836815,151.026449502713,-5,14.3936732077287,20.1786270963075,6.5814744441113,15,214.862685090381,10,14.0001800248872,128.517484462612,7.05921978654934,15,210.723163524306,7.63738070742193,15,201.614288341127,-5,2.78631160594059,218.294043818853
9.9065785,14.613369,144.306963773805,-5,5.02865683772564,159.021908424224,7.17200098190152,15,209.261021602379,9.8501965,14.5980675,144.932548937946,9.99999903614642,14.9999999959312,152.014143551843,6.49223518758835,15,215.238113899113,10,14.2549550451953,134.315100946849,9.7833265,14.963541,155.064648402186,5.87889688578311,15,214.248813174822,10,0,9.50373583641175,-5,0,305.95630160211,6.29539411514754,15,215.600868445116,5.98400169911958,15,214.85826363337,10,15,152.014126453331,9.9065785,14.613369,144.306963773805,-4.9999994945241,15,17.2352665081969,10,14.8372498429365,148.053122480598,6.75175063889004,15,213.789352816383,6.54536397387548,15,215.030300809454,6.6437305,14.895945,211.624740027411,9.4572235,14.643645,153.362754682446,3.96282601293912,15,180.82968433372,3.8455253667905,15,178.174243622411,5.58387266693998,15,211.617939834195,10,15,152.014126453331,9.99999999814937,14.9999999899621,152.014126240417,3.43435498941344,15,169.082288990942,7.88700928185786,15,196.667230430442,8.4383769665273,15,184.576867685248,-4.2934853,2.702151,161.491381858493
3.92666920830929,15,180.009877644651,6.83934236820896,14.3964919254187,196.572904506542,9.99999993579312,14.9999999971079,152.014127528127,6.5024101397531,15,215.201905119663,10,14.1602748976729,132.145418009672,6.90591562980815,13.4838171070298,172.421517917539,9.99999957473509,14.9999999982751,152.014133999143,5.34410436238481,15,208.555475387694,9.99999203086999,14.9998125410336,152.009675805737,5.09638981715702,15,204.634266649563,-5,5.45744890110024,148.832967473433,9.99999962734739,14.999999997938,152.014133052113,7.56838570612386,15,202.891490017167,7.1791765,14.697234,200.838075318943,7.2849311805801,15,207.631447317695,8.0062399283749,15,194.156533079466,5.7939978118013,15,213.628215803465,9.8636005,14.804277,149.676736556501,-5,15,17.2352772995751,4.6742335,14.8816395,193.338492636035,9.8329465,14.836815,151.026449502713,6.50018448138982,15,215.209971037614,5.85884317710385,14.2743984727465,194.355211425366,6.25812901376375,14.5501718481269,203.204100872941,5.80266352612206,15,213.696734268738,5.42945517536837,15,209.734104722259,6.353476,14.972925,214.803547565026,9.9065785,14.613369,144.306963773805,10,15,152.014126453331,-5,0,305.95630160211
7.55132293553444,15,203.200511805657,-5,15,17.2352772995751,9.99999992553347,14.9999999978498,152.014127729367,4.39084142266686,15,190.472120432135,10,11.4877137096446,78.2968343369513,-4.79847845,14.9997885,13.23875720826,6.721135,14.8289595,209.264746523547,-5,0,305.95630160211,5.03665502976884,14.7080032259885,195.61208437428,10,15,152.014126453331,10,0,9.50373583641175,3.4683775,14.9089515,167.45728975046,9.9999992083704,15,152.014140578509,5.783233,14.480682,199.303144184787,6.12189006736556,15,215.385229473223,6.39852015500061,14.6306179656405,205.286140173898,4.06211482563201,15,183.083045260603,1.70169146418154,15,137.378029978062,9.7833265,14.963541,155.064648402186,6.39978692820358,14.5101452310402,202.014411357463,5.811265,14.9885865,213.44478522651,7.93691149466517,15,195.626283604594,7.62730112723027,15,201.803567538545,8.382529,14.9887635,185.538318393757,6.6896875,14.681997,205.444426636941,7.29055671193059,15,207.546146117736,7.71220060043268,15,200.182006596113,6.10342179702639,15,215.332804481011,9.8329465,14.836815,151.026449502713,7.50381451848991,15,204.045987753949
-5,0.417645882903686,291.827164968215,5.24314692916951,15,207.0433363073,5.15712338209364,15,205.6601051107,6.02752717756609,14.512095606619,201.64310376716,-4.99862777294873,14.7816300895866,18.1796184813599,8.37933256163195,15,185.91246311441,5.58526859752044,15,211.63344681617,-5,5.63424610837703,144.738985347337,-5,15,17.2352772995751,6.11742786394033,14.4028061739134,199.012449659026,7.03077144450979,15,211.064606664886,7.5165985,14.739477,196.694300112743,6.171052,14.655186,205.962423425764,-3.103598,14.8423545,7.60264747985681,6.0333991561224,14.4419632109702,199.778109774417,3.03106031701539,0,5.92977328987492,7.55097680795194,15,203.206751584308,6.17955429595689,14.5896239398131,204.191510942144,3.35179850757182,0,4.97032874919876,5.32127133420756,15,208.224410261132,5.66982820558373,14.3604837694709,195.08346020538,5.14579598938588,15,205.471787029762,10,10.7628233847115,66.1540299226417,-0.407646080796911,14.6607199856807,82.669521682856,5.44331742874359,14.6371864370166,199.954217522037,-5,0,305.95630160211,-1.16675740922629,15,62.3646722343203,9.8329465,14.836815,151.026449502713,9.9999999897367,14.999999999671,152.0141266284,-4.79963105,14.8775985,13.6551936003748
-4.06399238433097,1.55143868984559,173.41930834083,10,0,9.50373583641175,6.878032,14.384118,195.889813055001,5.25945008263781,15,207.295859759473,7.38718031394968,15,206.02291060316,-4.79357795,0.18979725,278.090309213201,6.04673263345411,14.4890893810212,201.099482703792,4.12807799989536,0,7.22571485338963,10,4.4829350535689,4.94740510035403,-5,0,305.95630160211,-5,15,17.2352772995751,5.9467145713044,14.4997589148207,200.920244179724,9.8329465,14.836815,151.026449502713,10,0,9.50373583641175,4.81373534992568,15,199.38892413611,-2.9610915284834,7.88343214016212,16.0757476228076,6.09304826423882,14.5098853363596,201.822373573417,-5,0,305.95630160211,5.8859335,14.5199175,201.10250459365,10,5.8082847725476,11.2983650305437,9.99999873361419,14.9999999957839,152.014148946366,10,0,9.50373583641175,-5,8.71487089274866,83.4377828335752,9.8329465,14.836815,151.026449502713,-5,0,305.95630160211,-5,5.04094187187049,158.724875099897,9.8329465,14.836815,151.026449502713,-5,1.72480583794693,249.859988661186,5.36801754853392,15,208.895162088237,7.98388107810952,13.6015533362644,158.457070690338
3.19391778006231,0,5.28941918132079,6.28411071066269,14.7158413968299,207.726410778514,-0.307579066525996,15,91.3758257784745,9.99999993614646,14.9999999963674,152.014127503679,9.9065785,14.613369,144.306963773805,5.15201328874495,15,205.575323348689,-5,0,305.95630160211,-4.14806126655165,2.15323181736921,164.32642847062,9.8329465,14.836815,151.026449502713,-2.975465,0.8949072,120.695256922305,-4.24792220122973,1.89285673413738,178.708794975029,-1.39353160491594,5.55674486082021,20.1443176638026,10,0,9.50373583641175,4.60710046255386,6.20291203558569,32.4853989731202,-1.1944604729588,15,61.3912289430297,10,0,9.50373583641175,-5,15,17.2352772995751,-5,3.92662723977483,186.895305237494,-5,0,305.95630160211,-5,0,305.95630160211,9.8329465,14.836815,151.026449502713,9.7615735,14.856876,152.830560052907,-5,15,17.2352772995751,-5,0,305.95630160211,-5,3.18732088930317,206.955732584585,10,0,9.50373583641175,-5,1.67848554937259,251.288727628183,-2.87931566872444,0,136.042992526829,6.24064876592229,14.5415305733079,202.960271151544,5.25986956252646,15,207.302315656533
10,0,9.50373583641175,10,6.46553291739778,15.7508994217265,10,0,9.50373583641175,-5,8.77059325508536,82.5037309320351,9.9065785,14.613369,144.306963773805,7.4833457400682,15,204.403290515093,-4.894913945,4.1829015,171.567841780258,6.35338470009562,14.572215386145,203.766552117223,9.99999874183039,14.9999999957653,152.014148799307,1.10966203278228,15,126.847448685316,6.1007193999951,14.4442634559775,200.077566730417,5.506762,14.8415775,206.331877542649,-2.82125519944443,10.7738251915655,1.41114155081392,10,12.6367142543125,99.697108133301,10,5.62760169263149,10.2257256214049,4.46065851430144,15,192.006070663474,-5,0,305.95630160211,-4.1563541,2.3055705,161.11709996088,-5,5.02850211623344,159.025651277813,-2.17875932264871,0,105.896376082529,10,8.75044993663204,37.9526967833168,-0.400582498968106,15,88.4330822884873,9.870433,14.925843,152.528534960302,-5,15,17.2352772995751,10,0,9.50373583641175,-4.96281803,3.3928065,198.023876339783,-5,3.9942812568727,185.11416711891,-4.2524554270295,4.06008789880361,126.697950204809,-0.865323713821295,14.9998135013484,72.8933201320279,6.36136587035616,14.5798401486449,203.963816798636
6.3322315,14.6322795,205.421303811362,-3.75720140792894,0,191.708955213884,5.577019,14.633517,201.460477233723,-2.32879048526133,8.65094639108982,6.43449345374258,5.16827789621977,15,205.844172474966,10,0,9.50373583641175,-3.44877803650576,0,169.725258715831,10,0,9.50373583641175,-1.43882179051733,15,52.8383166122373,-5,15,17.2352772995751,7.4169947716637,0.000422743808465826,15.4148757593524,10,0,9.50373583641175,9.8329465,14.836815,151.026449502713,9.8329465,14.836815,151.026449502713,-5,0,305.95630160211,10,5.55914115939155,9.83636075021201,-2.38058582206963,0,113.434885207324,-1.83345450536428,0,94.8130403409188,5.23678326484552,15,206.943918862865,10,0,9.50373583641175,-5,3.30372435457872,203.724718916652,9.8213185,14.8400835,151.318484618615,-5,0,305.95630160211,-5,4.9752582261325,160.316512545582,-2.97136981940911,0,140.895011721147,1.03540388215406,15,125.403424084853,6.56800395297546,14.7143547118335,207.017092005836,1.88506244941484,15,140.437058182086,-4.8131136084133,1.45965133630577,240.023861256961,6.27637209405771,0,20.6019015370332
-0.0337136304554715,15,99.6311352425764,-4.31419115694763,2.24812509965964,174.637498092149,-5,15,17.2352772995751,-5,0,305.95630160211,6.15001825097807,14.4170442610494,199.473912223664,0.639429842391994,0,43.0472433911024,8.312089,14.998788,187.394665652002,-5,15,17.2352772995751,-5,0,305.95630160211,-4.46014698935804,2.29563805847963,185.089168416355,0.345145931579228,15,109.937368053188,-0.302064650495636,0.00235039910124704,61.2869055994346,6.81048468132583,5.6715495925162,39.7934504418313,-4.98954016166867,9.83366989233758,65.3419145316529,-5,4.08050726864878,182.857349589993,-5,0,305.95630160211,-5,3.20927308479505,206.344331575735,6.74087297291269,0,19.6675963889972,-0.0419759213199935,15,99.391609143257,-5,3.06866305608524,210.277212659795,-4.99999999382283,14.999999991475,17.2352772039138,-5,0,305.95630160211,-3.33702943735135,0,162.414916900669,-3.67918814117796,1.29795159167731,152.355954115997,7.54731467063396,15,203.272699489435,6.60313029011261,0,20.1409289608709,-3.64253608673489,0,183.226011902522,-5,15,17.2352772995751,-5,3.40153593314428,201.030713388131,6.98440529903438,14.8034736554812,206.157069035884
6.45656778497085,0.00898285882039371,20.4478226921459,-4.77578975,14.9635605,12.9371507349338,-5,6.13345133896126,133.516666638787,-3.65070185,0.76910925,163.646298038123,10,4.15785904077301,3.92618309646455,-5,8.07479682887109,94.6124522321554,-5,15,17.2352772995751,-4.79357795,14.877609,13.5404891499918,-4.86923468,3.962841,175.074342932715,7.39414340261009,0.0168524073994009,15.5598268932293,10,15,152.014126453331,-4.99967307726899,10.1760820889993,60.9818008546158,4.8875905,14.904336,198.20535609261,9.99983049157283,5.24904378279993,8.19000412080327,-4.2115934,1.5262215,185.572650628234,10,15,152.014126453331,0.100369167581174,0.262299491991812,50.6816384420506,7.45435140329739,15,204.902015308259,9.99889723009744,4.69258929007791,5.71641881370278,-5,6.86138263117436,118.045772318923,-3.9861767125566,0,209.736880770441,-4.71308765,3.220701,181.45286694598,0.712252088326959,0,41.5792318332158,2.96045913566225,0,6.30680436418889,-4.6484756,2.6288925,191.801791251662,-3.43587217215736,0,168.8632261905,-4.5121031,2.5624425,182.258378916511,6.68599856009921,0.172155295381832,19.5533510583021,-4.33645925,1.6618215,192.020878734229,2.35771964002332,15,148.363678564987
9.99969498309556,5.98508861723313,12.4114453863263,4.94808379004103,0,13.7447494923906,6.09351597588106,2.29168292185681,21.0866095663903,-4.79429285,2.68344,202.830544748033,9.99999998993224,14.9999999989066,152.014126606182,5.3004565,14.9316225,206.023802193603,1.71314685893718,0.0308806504264938,21.7006741915298,7.19777996590696,14.8896882933722,205.850027839874,4.20046546603234,0,7.69693132929508,7.059409,14.7945255,205.041148373513,1.43183421149438,0.00479330216181254,27.1388239808386,7.64151888686215,0.0218572874750997,13.4932937761747,7.02936902174045,0.220340643529316,17.7734879991729,9.8329465,14.836815,151.026449502713,0.959685311195103,0,36.5707756553468,-0.821734087607946,0.0228285033890125,70.8631891530073,-0.903412496897249,6.9926746242305,16.2439389789786,-0.738550400126186,14.9990640174368,77.2331526122282,-4.56425147778065,2.46352934226102,189.193670055415,5.733763,14.7320985,205.710924290064,-4.0962165530888,1.75293473224335,170.641052538547,-5,15,17.2352772995751,5.116727852641,15,204.982175277349,10,0,9.50373583641175,-0.673036910033288,15,79.4680529542208,-1.26224016890463,14.8461388092713,56.9449814528833,0.368727605458264,0,48.4456558309775,6.54702963313095,14.6344058385708,204.926506625796,-0.617531294218955,0.625822997694478,58.8566531829331,-4.99999872326615,7.98231559701954,96.294695766936
-2.73553925276566,14.9999650563797,14.8573010357108,1.06849701228055,0.000619443659466415,34.3667622075367,-1.46858271045202,0.0341777963969044,84.5326439104272,0.593260692789543,0,43.975121959786,1.04951301527013,15,125.680550074508,3.32651940771512,0.0034068431403644,4.9874304394409,7.05979964193587,14.8290447867459,205.98468436194,9.93294171623456,4.81094930222205,6.12199763523193,-3.9110846176399,0.99038062408417,176.595212655721,-1.83636967967204,6.26489433287675,16.9962876241219,-2.06755680963185,14.9980081148741,32.1111801749209,1.62265983581451,3.93202603410991,9.53501859609136,7.7488015,14.913441,197.095603801655,9.8329465,14.836815,151.026449502713,10,0,9.50373583641175,-4.98345197742876,5.48450454392757,146.951720951201,7.79599384363043,10.4688459217016,94.8103994416908,9.99999308225935,14.9996026957404,152.0045158109,5.9077352502609,0.274847190321662,19.4853130911696,7.46249103388458,15,204.762894284138,-0.985624668109056,15,68.7148054891998,-4.99867834140433,7.775642352283,100.03340697858,-4.949869895,14.905818,16.5656463489483,5.1222580370505,15,205.076020798784,-4.85885531,7.3707945,98.8680415907202,6.59582422374494,14.5443115666633,202.249843119542,-5,6.05977365874341,135.141616329898,10,8.84555325246096,39.1031326736849,10,0,9.50373583641175,-5,15,17.2352772995751
5.72911713534892,5.9825840297571,42.6057513662273,0.872135729594843,14.3863112106465,109.840168582755,4.89031326059806,6.57193884443046,40.0681033134495,-5,15,17.2352772995751,-5,0,305.95630160211,6.50521458530316,14.6571345159632,205.713230153868,-1.93346008041768,14.994562119585,36.2296278331742,0.501663515355267,14.9974769442752,113.755167408413,10,0,9.50373583641175,1.66273865376059,11.9764330150354,77.5544863699218,9.99098699908644,11.2689880587956,74.6199249002213,6.56822296707781,9.54427927413514,92.043650791641,9.870433,14.925843,152.528534960302,-5,0,305.95630160211,-5,6.1460795182844,133.239244008659,5.56465282131603,14.8694572473874,207.78051394451,-3.22625464072649,14.9968642450147,6.90340535450049,2.7847465,14.8684905,152.745612185433,0.823531393916666,12.2499453291226,72.3976805457017,-4.79357795,2.6943165,202.466819209026,3.58979927587639,0,5.02801294234212,-4.99999999827539,14.9999999710971,17.235277385538,9.99999993563495,14.9999999980112,152.01412755308,-2.75918144208026,14.8130518838848,13.0455707981316,9.98906818071714,4.84195141118827,6.30733855469959,5.01786783459445,4.58379902806869,24.3191740445991,5.360566,14.86935,205.177131829222,-0.162975123514135,0.136472621499056,57.0061113542561,5.79400043587823,0.411668116085942,18.8586554718626,-0.477460670591789,0.0993993480702341,63.2760015653266
-1.79085952431882,5.24374957847417,24.0055888760581,9.96113529268243,14.9955614384056,152.601317537867,10,3.89726935137692,3.26016246987803,10,0,9.50373583641175,-5,4.55222051790187,170.774254091879,6.11289487743082,14.6649984252225,206.095043092827,9.97287674444265,0.00959681663818741,9.1735654404935,-4.9152602334997,9.86660582219423,61.1609638573405,-4.7905274,12.029514,31.012054365845,-4.79357795,14.877609,13.5404891499918,-0.319952743784675,12.0547728698084,49.7243268400878,-3.10855024531352,10.1902354636025,4.32756842460471,-1.91581538359036,14.9918930462256,36.7600665224376,9.870433,14.998029,154.308950811872,2.65524007270822,2.68302811667464,1.51157157804646,-4.99419336571131,10.3139963652482,58.821157730416,5.13864333676725,15,205.35215442501,9.99995764646859,6.51121625578945,16.0925726769326,9.65841815423554,0.146634130571425,5.93133100582493,0.849829782538125,0.0473624625083665,38.3492000757425,7.089655,14.7817965,204.319348998943,7.88258207351669,0.00195007959404747,11.473184770447,7.38298563713854,9.84082480367566e-05,15.6868159910637,8.40775549551833,0.00912176346446334,7.39182711498739,3.47687425568906,9.66155364381314e-05,4.92189081132509,-4.6637858,2.24421,203.66808354023,10,0,9.50373583641175,5.18723561283631,15,206.153835754746,-4.99636475037324,8.94263092691849,79.4557540312809,-4.7021636,14.938854,11.7113240625387
8.6501845,14.989623,179.49663773141,-5,11.275331148575,46.9310829790538,1.6845336641036,14.7450273643365,131.381041325726,6.7605265,14.706711,205.612443638908,1.082809,0.013333002,33.9660858741359,0.283178129342547,14.6333897575641,101.555808021661,4.73209203571795,0.00910071090581321,11.8677810337839,9.91777202120002,12.5269252096528,98.6392984902932,7.089655,14.858718,206.432826282228,9.90974803559985,4.54949570775811,5.05374788081577,7.00685803435191,4.57949313282028,29.5379524764489,7.37393411379875,15,206.238084973807,-5,0,305.95630160211,-5,3.29855845128094,203.867534371038,6.994756,14.7980385,205.892339227649,-3.11875587813013,14.9992899065746,8.26136388460921,9.95743094219949,0.418271120632606,6.97926511056059,0.786875588947346,11.9003891457731,66.8257026828121,2.65524007270822,2.68302811667464,1.51157157804646,-3.8697543321789,0,200.39038251964,1.07042002421568,4.32856987828706,14.6194197940382,2.92851499648795,12.5820422246832,103.774209633832,9.8329465,14.836815,151.026449502713,7.59585783714742,8.58939051613876,66.7850456509379,1.66313682292784,12.1350562443253,80.2081549158821,-4.99820760364072,14.3813857831973,20.201296553419,-5,15,17.2352772995751,5.66284747752674,14.7498758023272,205.534247221346,-3.94280898964622,0,206.211963684335,9.98220189585913,7.51813909594314,24.749605899454
-5,15,17.2352772995751,-5,6.33109563202668,129.211277967841,0.545145415157109,11.2101987114237,54.6941497667435,5.79916954632608,5.71966343571361,40.4951813392554,5.6456995,14.7606825,205.65872335527,9.97616121652501,4.71396219655694,5.7678124474597,-4.4348043831495,1.55368978002715,203.240964859258,0.274733951324356,11.2110211246384,51.0371074205417,5.8349935,14.684616,205.226787855749,7.70142238148212,14.9447374927425,198.875073382864,-5,3.1132895500654,209.024720317325,9.99995012940244,5.75378679373726,10.9679782314904,-3.6902753,0.081109605,184.514011831389,-4.3127117,1.730475,188.218646421963,-2.45509443488077,0.0145494441292535,116.128610009878,5.72609641533696,0.614575854537632,18.3306483834718,-4.8106475,2.8436655,199.832032515378,-4.76425565,2.5880055,202.855146156129,7.551355,14.983194,202.7364945042,-4.99998524955631,14.7240985999251,18.4831087024598,7.06346483249679,0.0423559856137549,17.8950998440674,9.97885665271597,3.73787424512735,2.85070726655523,-0.173221202845232,14.2602341616705,83.1506856422738,1.02457391369119,0,35.2585808994647,8.00576325661462,0.145659805307997,10.0614341292583,1.47031588260109,11.6608525995791,70.6718046301995,6.47443602732399,0.100742124555276,20.2440576248755,-4.987605215248,5.84201407801903,139.095758693252,7.90061037411449,12.6789990591282,138.322058181564,3.43265843454264,0.000279450255782843,4.91790732260736
2.65524007270822,2.68302811667464,1.51157157804646,9.542647,9.213324,47.6307383058209,7.94394929035674,0.0383051855387282,10.8560507931783,0.336333119383258,14.5684607017508,101.681758548465,10,0,9.50373583641175,2.65524007270822,2.68302811667464,1.51157157804646,-5,9.01405834036985,78.4954637831941,1.34848702140467,0.320540951326634,26.2816379917185,5.26832822779099,4.62653269669306,27.290076459816,-5,2.9447880155149,213.77477701282,6.7379499308417,14.7069894834914,205.790391679227,1.90453016583695,4.43314697532522e-05,18.6071369030158,-4.69043660904719,3.1062002156492,182.586005648374,-3.93138964626861,0,205.292337447782,-3.4284153443096,14.9876267540517,4.96183533585471,-4.95494675,3.1714935,203.410174328513,-4.99997949230072,7.55112118943352,104.363107675587,8.37893092230844,2.81265178833205,6.76620716736226,-5,10.2946010847539,59.3649121599428,-4.00071610642133,0.17639801130519,205.882893126307,7.79116972629389,12.4868750068525,136.017361280315,2.9315246095333,9.37010597721742e-06,6.47867341871277,5.45196902833944,5.7680764477543,38.3793488336547,2.65524007270822,2.68302811667464,1.51157157804646,4.63979949703637,14.995131490471,195.710239376483,5.90342514662638,14.6993245299552,206.089375448067,9.99795379655218,4.39029486150709,4.63049550390775,1.67351459451039,12.1877385395162,81.2061565947499,1.5595546748472,4.92475081739648,11.3153381086281,-4.15115305816575,0.610013664205051,205.939690908714
6.49793129484073,10.004220912235,100.352404986424,-4.86517682,14.843307,15.0626349026883,5.7996180023821,14.7258414448331,206.087749060011,8.77861496131256,3.46333304077092,5.13813512675572,-1.92960111479214,15,36.4111119396778,9.98966404762923,14.6820173497811,144.502884529553,2.65524007270822,2.68302811667464,1.51157157804646,6.94596511845178,0.119112309702815,18.4462746753478,8.22430896733843,5.54295110709701,23.0549846541411,-3.878309,0.106726965,198.071003880479,5.20237226716242,0.0374680349406505,15.7520286997774,2.65524007270822,2.68302811667464,1.51157157804646,2.35691051251909,0.0462478838033901,11.6512158491655,-4.99999997768829,15,17.2352768232436,2.65524007270822,2.68302811667464,1.51157157804646,-0.478648432942621,7.46338890364718,18.9753739738936,6.14534163601647,0.293443599153271,20.0136610916094,1.96568130866957,0.00370158656624374,17.5767622995422,6.49793129484073,10.004220912235,100.352404986424,9.90236774200676,12.6547690756711,101.38887024141,-5,1.33666599380812,261.964749348481,7.0352545,14.821338,206.066530549281,9.8329465,14.836815,151.026449502713,1.87376183438395,14.9347225944096,138.747388141062,2.65524007270822,2.68302811667464,1.51157157804646,0.0812655559837365,0.144618846347983,52.3675713924718,1.50742492317566,12.6254229223477,86.9392466831078,-4.99999999663278,14.9999999899093,17.2352772705545,6.64936728814359,14.6967852977199,206.102505930789,-2.35240097363464,1.11824081885345,90.2212623082071
